<?xml version="1.0" encoding="UTF-8" standalone="no"?>
<!DOCTYPE svg PUBLIC "-//W3C//DTD SVG 1.1//EN"
 "http://www.w3.org/Graphics/SVG/1.1/DTD/svg11.dtd">
<!-- Generated by graphviz version 2.26.3 (20100126.1600)
 -->
<!-- Title: _anonymous_0 Pages: 1 -->
<svg width="8582pt" height="404pt"
 viewBox="0.00 0.00 8582.00 404.00" xmlns="http://www.w3.org/2000/svg" xmlns:xlink="http://www.w3.org/1999/xlink">
<g id="graph1" class="graph" transform="scale(1 1) rotate(0) translate(4 400)">
<title>_anonymous_0</title>
<polygon fill="white" stroke="white" points="-4,5 -4,-400 8579,-400 8579,5 -4,5"/>
<!-- 1 -->
<g id="node1" class="node"><title>1</title>
<polygon fill="none" stroke="black" points="577,-324 455,-324 455,-288 577,-288 577,-324"/>
<text text-anchor="middle" x="516" y="-301.4" font-family="Times New Roman,serif" font-size="14.00">Language Bindings</text>
</g>
<!-- 27 -->
<g id="node27" class="node"><title>27</title>
<polygon fill="none" stroke="black" points="192,-252 74,-252 74,-216 192,-216 192,-252"/>
<text text-anchor="middle" x="133" y="-229.4" font-family="Times New Roman,serif" font-size="14.00">LUA_BINDINGS</text>
</g>
<!-- 1&#45;&gt;27 -->
<g id="edge52" class="edge"><title>1&#45;&gt;27</title>
<path fill="none" stroke="black" d="M454.889,-294.512C385.905,-281.544 273.932,-260.494 201.897,-246.952"/>
<polygon fill="black" stroke="black" points="202.481,-243.5 192.006,-245.093 201.187,-250.38 202.481,-243.5"/>
</g>
<!-- 28 -->
<g id="node28" class="node"><title>28</title>
<polygon fill="none" stroke="black" points="365,-252 283,-252 283,-216 365,-216 365,-252"/>
<text text-anchor="middle" x="324" y="-229.4" font-family="Times New Roman,serif" font-size="14.00">BINDINGS</text>
</g>
<!-- 1&#45;&gt;28 -->
<g id="edge54" class="edge"><title>1&#45;&gt;28</title>
<path fill="none" stroke="black" d="M467.55,-287.831C439.205,-277.202 403.46,-263.797 374.731,-253.024"/>
<polygon fill="black" stroke="black" points="375.869,-249.713 365.277,-249.479 373.412,-256.267 375.869,-249.713"/>
</g>
<!-- 53 -->
<g id="node53" class="node"><title>53</title>
<polygon fill="none" stroke="black" points="507,-252 383,-252 383,-216 507,-216 507,-252"/>
<text text-anchor="middle" x="445" y="-229.4" font-family="Times New Roman,serif" font-size="14.00">JAVA_BINDINGS</text>
</g>
<!-- 1&#45;&gt;53 -->
<g id="edge104" class="edge"><title>1&#45;&gt;53</title>
<path fill="none" stroke="black" d="M498.084,-287.831C489.656,-279.285 479.459,-268.944 470.264,-259.62"/>
<polygon fill="black" stroke="black" points="472.671,-257.076 463.158,-252.413 467.687,-261.991 472.671,-257.076"/>
</g>
<!-- 55 -->
<g id="node55" class="node"><title>55</title>
<polygon fill="none" stroke="black" points="649,-252 525,-252 525,-216 649,-216 649,-252"/>
<text text-anchor="middle" x="587" y="-229.4" font-family="Times New Roman,serif" font-size="14.00">PERL_BINDINGS</text>
</g>
<!-- 1&#45;&gt;55 -->
<g id="edge108" class="edge"><title>1&#45;&gt;55</title>
<path fill="none" stroke="black" d="M533.916,-287.831C542.344,-279.285 552.541,-268.944 561.736,-259.62"/>
<polygon fill="black" stroke="black" points="564.313,-261.991 568.842,-252.413 559.329,-257.076 564.313,-261.991"/>
</g>
<!-- 67 -->
<g id="node67" class="node"><title>67</title>
<polygon fill="none" stroke="black" points="773,-252 667,-252 667,-216 773,-216 773,-252"/>
<text text-anchor="middle" x="720" y="-229.4" font-family="Times New Roman,serif" font-size="14.00">.Net Framework</text>
</g>
<!-- 1&#45;&gt;67 -->
<g id="edge132" class="edge"><title>1&#45;&gt;67</title>
<path fill="none" stroke="black" d="M567.214,-287.924C595.102,-278.081 629.791,-265.839 659.063,-255.507"/>
<polygon fill="black" stroke="black" points="660.499,-258.712 668.764,-252.083 658.17,-252.111 660.499,-258.712"/>
</g>
<!-- 2 -->
<g id="node2" class="node"><title>2</title>
<polygon fill="none" stroke="black" points="999,-252 791,-252 791,-216 999,-216 999,-252"/>
<text text-anchor="middle" x="895" y="-229.4" font-family="Times New Roman,serif" font-size="14.00">HTTP_SESSION_CACHE_SIZE</text>
</g>
<!-- 3 -->
<g id="node3" class="node"><title>3</title>
<polygon fill="none" stroke="black" points="3615,-252 3427,-252 3427,-216 3615,-216 3615,-252"/>
<text text-anchor="middle" x="3521" y="-229.4" font-family="Times New Roman,serif" font-size="14.00">PERFORMANCE_TESTING</text>
</g>
<!-- 4 -->
<g id="node4" class="node"><title>4</title>
<polygon fill="none" stroke="black" points="3455,-180 3305,-180 3305,-144 3455,-144 3455,-180"/>
<text text-anchor="middle" x="3380" y="-157.4" font-family="Times New Roman,serif" font-size="14.00">SSL_PROT_MEDIUM</text>
</g>
<!-- 5 -->
<g id="node5" class="node"><title>5</title>
<polygon fill="none" stroke="black" points="3817,-252 3633,-252 3633,-216 3817,-216 3817,-252"/>
<text text-anchor="middle" x="3725" y="-229.4" font-family="Times New Roman,serif" font-size="14.00">WIN32_USE_CRYPTO_LIB</text>
</g>
<!-- 6 -->
<g id="node6" class="node"><title>6</title>
<polygon fill="none" stroke="black" points="236,-180 100,-180 100,-144 236,-144 236,-180"/>
<text text-anchor="middle" x="168" y="-157.4" font-family="Times New Roman,serif" font-size="14.00">VBNET_BINDINGS</text>
</g>
<!-- 7 -->
<g id="node7" class="node"><title>7</title>
<polygon fill="none" stroke="black" points="2147,-324 2005,-324 2005,-288 2147,-288 2147,-324"/>
<text text-anchor="middle" x="2076" y="-301.4" font-family="Times New Roman,serif" font-size="14.00">Axhttpd Configuration</text>
</g>
<!-- 7&#45;&gt;2 -->
<g id="edge4" class="edge"><title>7&#45;&gt;2</title>
<path fill="none" stroke="black" d="M2004.87,-305.041C1834.6,-302.177 1390.04,-291.336 1009.12,-252.049"/>
<polygon fill="black" stroke="black" points="1009.31,-248.55 999.002,-250.997 1008.59,-255.513 1009.31,-248.55"/>
</g>
<!-- 15 -->
<g id="node15" class="node"><title>15</title>
<polygon fill="none" stroke="black" points="1169,-252 1017,-252 1017,-216 1169,-216 1169,-252"/>
<text text-anchor="middle" x="1093" y="-229.4" font-family="Times New Roman,serif" font-size="14.00">HTTP_DIRECTORIES</text>
</g>
<!-- 7&#45;&gt;15 -->
<g id="edge28" class="edge"><title>7&#45;&gt;15</title>
<path fill="none" stroke="black" d="M2004.93,-305.307C1854.29,-303.063 1491.78,-293.558 1179.52,-252.092"/>
<polygon fill="black" stroke="black" points="1179.74,-248.591 1169.36,-250.73 1178.81,-255.529 1179.74,-248.591"/>
</g>
<!-- 17 -->
<g id="node17" class="node"><title>17</title>
<polygon fill="none" stroke="black" points="1327,-252 1187,-252 1187,-216 1327,-216 1327,-252"/>
<text text-anchor="middle" x="1257" y="-229.4" font-family="Times New Roman,serif" font-size="14.00">HTTP_IS_DAEMON</text>
</g>
<!-- 7&#45;&gt;17 -->
<g id="edge32" class="edge"><title>7&#45;&gt;17</title>
<path fill="none" stroke="black" d="M2004.95,-304.384C1874.38,-300.634 1587.5,-288.776 1337.12,-252.038"/>
<polygon fill="black" stroke="black" points="1337.51,-248.558 1327.11,-250.552 1336.48,-255.482 1337.51,-248.558"/>
</g>
<!-- 20 -->
<g id="node20" class="node"><title>20</title>
<polygon fill="none" stroke="black" points="1585,-252 1345,-252 1345,-216 1585,-216 1585,-252"/>
<text text-anchor="middle" x="1465" y="-229.4" font-family="Times New Roman,serif" font-size="14.00">HTTP_ENABLE_DIFFERENT_USER</text>
</g>
<!-- 7&#45;&gt;20 -->
<g id="edge38" class="edge"><title>7&#45;&gt;20</title>
<path fill="none" stroke="black" d="M2004.88,-298.64C1912.8,-288.976 1747.1,-271.122 1595.14,-252.127"/>
<polygon fill="black" stroke="black" points="1595.51,-248.646 1585.15,-250.874 1594.64,-255.591 1595.51,-248.646"/>
</g>
<!-- 22 -->
<g id="node22" class="node"><title>22</title>
<polygon fill="none" stroke="black" points="1751,-252 1603,-252 1603,-216 1751,-216 1751,-252"/>
<text text-anchor="middle" x="1677" y="-229.4" font-family="Times New Roman,serif" font-size="14.00">HTTP_HTTPS_PORT</text>
</g>
<!-- 7&#45;&gt;22 -->
<g id="edge42" class="edge"><title>7&#45;&gt;22</title>
<path fill="none" stroke="black" d="M2004.93,-294.778C1943.09,-284.803 1850.83,-269.414 1761.24,-252.201"/>
<polygon fill="black" stroke="black" points="1761.66,-248.717 1751.18,-250.257 1760.33,-255.59 1761.66,-248.717"/>
</g>
<!-- 26 -->
<g id="node26" class="node"><title>26</title>
<polygon fill="none" stroke="black" points="1899,-252 1769,-252 1769,-216 1899,-216 1899,-252"/>
<text text-anchor="middle" x="1834" y="-229.4" font-family="Times New Roman,serif" font-size="14.00">HTTP_WEBROOT</text>
</g>
<!-- 7&#45;&gt;26 -->
<g id="edge50" class="edge"><title>7&#45;&gt;26</title>
<path fill="none" stroke="black" d="M2015.25,-287.924C1981.59,-277.91 1939.58,-265.412 1904.48,-254.97"/>
<polygon fill="black" stroke="black" points="1905.36,-251.58 1894.78,-252.083 1903.37,-258.29 1905.36,-251.58"/>
</g>
<!-- 47 -->
<g id="node47" class="node"><title>47</title>
<polygon fill="none" stroke="black" points="2075,-252 1917,-252 1917,-216 2075,-216 2075,-252"/>
<text text-anchor="middle" x="1996" y="-229.4" font-family="Times New Roman,serif" font-size="14.00">HTTP_STATIC_BUILD</text>
</g>
<!-- 7&#45;&gt;47 -->
<g id="edge92" class="edge"><title>7&#45;&gt;47</title>
<path fill="none" stroke="black" d="M2055.81,-287.831C2046.15,-279.134 2034.42,-268.578 2023.92,-259.127"/>
<polygon fill="black" stroke="black" points="2025.96,-256.251 2016.18,-252.163 2021.27,-261.454 2025.96,-256.251"/>
</g>
<!-- 52 -->
<g id="node52" class="node"><title>52</title>
<polygon fill="none" stroke="black" points="2217,-252 2093,-252 2093,-216 2217,-216 2217,-252"/>
<text text-anchor="middle" x="2155" y="-229.4" font-family="Times New Roman,serif" font-size="14.00">HTTP_HAS_IPV6</text>
</g>
<!-- 7&#45;&gt;52 -->
<g id="edge102" class="edge"><title>7&#45;&gt;52</title>
<path fill="none" stroke="black" d="M2095.94,-287.831C2105.48,-279.134 2117.06,-268.578 2127.43,-259.127"/>
<polygon fill="black" stroke="black" points="2130.04,-261.486 2135.07,-252.163 2125.32,-256.312 2130.04,-261.486"/>
</g>
<!-- 61 -->
<g id="node61" class="node"><title>61</title>
<polygon fill="none" stroke="black" points="2359,-252 2235,-252 2235,-216 2359,-216 2359,-252"/>
<text text-anchor="middle" x="2297" y="-229.4" font-family="Times New Roman,serif" font-size="14.00">HTTP_VERBOSE</text>
</g>
<!-- 7&#45;&gt;61 -->
<g id="edge120" class="edge"><title>7&#45;&gt;61</title>
<path fill="none" stroke="black" d="M2131.48,-287.924C2161.96,-277.996 2199.93,-265.625 2231.81,-255.238"/>
<polygon fill="black" stroke="black" points="2233.07,-258.509 2241.49,-252.083 2230.9,-251.853 2233.07,-258.509"/>
</g>
<!-- 66 -->
<g id="node66" class="node"><title>66</title>
<polygon fill="none" stroke="black" points="2475,-252 2377,-252 2377,-216 2475,-216 2475,-252"/>
<text text-anchor="middle" x="2426" y="-229.4" font-family="Times New Roman,serif" font-size="14.00">HTTP_PORT</text>
</g>
<!-- 7&#45;&gt;66 -->
<g id="edge130" class="edge"><title>7&#45;&gt;66</title>
<path fill="none" stroke="black" d="M2147.01,-295.277C2204.13,-286.099 2286.55,-271.617 2366.96,-252.121"/>
<polygon fill="black" stroke="black" points="2367.87,-255.5 2376.75,-249.718 2366.2,-248.702 2367.87,-255.5"/>
</g>
<!-- 71 -->
<g id="node71" class="node"><title>71</title>
<polygon fill="none" stroke="black" points="2547,-252 2493,-252 2493,-216 2547,-216 2547,-252"/>
<text text-anchor="middle" x="2520" y="-229.4" font-family="Times New Roman,serif" font-size="14.00">CGI</text>
</g>
<!-- 7&#45;&gt;71 -->
<g id="edge140" class="edge"><title>7&#45;&gt;71</title>
<path fill="none" stroke="black" d="M2147.18,-303.703C2227.63,-299.532 2362.09,-287.79 2483.07,-251.717"/>
<polygon fill="black" stroke="black" points="2484.33,-254.995 2492.87,-248.733 2482.29,-248.298 2484.33,-254.995"/>
</g>
<!-- 74 -->
<g id="node74" class="node"><title>74</title>
<polygon fill="none" stroke="black" points="2687,-252 2565,-252 2565,-216 2687,-216 2687,-252"/>
<text text-anchor="middle" x="2626" y="-229.4" font-family="Times New Roman,serif" font-size="14.00">HTTP_TIMEOUT</text>
</g>
<!-- 7&#45;&gt;74 -->
<g id="edge146" class="edge"><title>7&#45;&gt;74</title>
<path fill="none" stroke="black" d="M2147.21,-301.113C2239.32,-294.096 2404.78,-279.127 2554.79,-252.091"/>
<polygon fill="black" stroke="black" points="2555.44,-255.531 2564.65,-250.293 2554.18,-248.645 2555.44,-255.531"/>
</g>
<!-- 86 -->
<g id="node86" class="node"><title>86</title>
<polygon fill="none" stroke="black" points="2915,-252 2705,-252 2705,-216 2915,-216 2915,-252"/>
<text text-anchor="middle" x="2810" y="-229.4" font-family="Times New Roman,serif" font-size="14.00">HTTP_HAS_AUTHORIZATION</text>
</g>
<!-- 7&#45;&gt;86 -->
<g id="edge170" class="edge"><title>7&#45;&gt;86</title>
<path fill="none" stroke="black" d="M2147.3,-301.413C2260.94,-293.744 2490.32,-276.799 2694.73,-252.111"/>
<polygon fill="black" stroke="black" points="2695.25,-255.573 2704.75,-250.891 2694.41,-248.625 2695.25,-255.573"/>
</g>
<!-- 8 -->
<g id="node8" class="node"><title>8</title>
<polygon fill="none" stroke="black" points="856,-180 634,-180 634,-144 856,-144 856,-180"/>
<text text-anchor="middle" x="745" y="-157.4" font-family="Times New Roman,serif" font-size="14.00">DOT_NET_FRAMEWORK_BASE</text>
</g>
<!-- 9 -->
<g id="node9" class="node"><title>9</title>
<polygon fill="none" stroke="black" points="6885,-252 6691,-252 6691,-216 6885,-216 6885,-252"/>
<text text-anchor="middle" x="6788" y="-229.4" font-family="Times New Roman,serif" font-size="14.00">EXTRA_CFLAGS_OPTIONS</text>
</g>
<!-- 10 -->
<g id="node10" class="node"><title>10</title>
<polygon fill="none" stroke="black" points="3991,-252 3835,-252 3835,-216 3991,-216 3991,-252"/>
<text text-anchor="middle" x="3913" y="-229.4" font-family="Times New Roman,serif" font-size="14.00">USE_DEV_URANDOM</text>
</g>
<!-- 11 -->
<g id="node11" class="node"><title>11</title>
<polygon fill="none" stroke="black" points="616,-180 540,-180 540,-144 616,-144 616,-180"/>
<text text-anchor="middle" x="578" y="-157.4" font-family="Times New Roman,serif" font-size="14.00">Perl Home</text>
</g>
<!-- 29 -->
<g id="node29" class="node"><title>29</title>
<polygon fill="none" stroke="black" points="624,-108 528,-108 528,-72 624,-72 624,-108"/>
<text text-anchor="middle" x="576" y="-85.4" font-family="Times New Roman,serif" font-size="14.00">PERL_CORE</text>
</g>
<!-- 11&#45;&gt;29 -->
<g id="edge56" class="edge"><title>11&#45;&gt;29</title>
<path fill="none" stroke="black" d="M577.495,-143.831C577.281,-136.131 577.027,-126.974 576.789,-118.417"/>
<polygon fill="black" stroke="black" points="580.288,-118.312 576.511,-108.413 573.291,-118.507 580.288,-118.312"/>
</g>
<!-- 69 -->
<g id="node69" class="node"><title>69</title>
<polygon fill="none" stroke="black" points="722,-108 642,-108 642,-72 722,-72 722,-108"/>
<text text-anchor="middle" x="682" y="-85.4" font-family="Times New Roman,serif" font-size="14.00">PERL_LIB</text>
</g>
<!-- 11&#45;&gt;69 -->
<g id="edge136" class="edge"><title>11&#45;&gt;69</title>
<path fill="none" stroke="black" d="M604.244,-143.831C617.299,-134.793 633.253,-123.748 647.305,-114.02"/>
<polygon fill="black" stroke="black" points="649.535,-116.733 655.765,-108.163 645.551,-110.977 649.535,-116.733"/>
</g>
<!-- 12 -->
<g id="node12" class="node"><title>12</title>
<polygon fill="none" stroke="black" points="6254,-180 6132,-180 6132,-144 6254,-144 6254,-180"/>
<text text-anchor="middle" x="6193" y="-157.4" font-family="Times New Roman,serif" font-size="14.00">JAVA_SAMPLES</text>
</g>
<!-- 13 -->
<g id="node13" class="node"><title>13</title>
<polygon fill="none" stroke="black" points="7780,-252 7584,-252 7584,-216 7780,-216 7780,-252"/>
<text text-anchor="middle" x="7682" y="-229.4" font-family="Times New Roman,serif" font-size="14.00">BIGINT_SLIDING_WINDOW</text>
</g>
<!-- 14 -->
<g id="node14" class="node"><title>14</title>
<polygon fill="none" stroke="black" points="4965,-396 4911,-396 4911,-360 4965,-360 4965,-396"/>
<text text-anchor="middle" x="4938" y="-373.4" font-family="Times New Roman,serif" font-size="14.00">axTLS</text>
</g>
<!-- 14&#45;&gt;1 -->
<g id="edge2" class="edge"><title>14&#45;&gt;1</title>
<path fill="none" stroke="black" d="M4910.91,-377.559C4570.54,-372.017 1128.32,-315.97 587.373,-307.162"/>
<polygon fill="black" stroke="black" points="587.418,-303.662 577.363,-306.999 587.304,-310.662 587.418,-303.662"/>
</g>
<!-- 14&#45;&gt;7 -->
<g id="edge14" class="edge"><title>14&#45;&gt;7</title>
<path fill="none" stroke="black" d="M4910.59,-377.31C4649.01,-370.73 2593.65,-319.023 2157.26,-308.044"/>
<polygon fill="black" stroke="black" points="2157.34,-304.545 2147.26,-307.793 2157.17,-311.543 2157.34,-304.545"/>
</g>
<!-- 24 -->
<g id="node24" class="node"><title>24</title>
<polygon fill="none" stroke="black" points="3290,-324 3226,-324 3226,-288 3290,-288 3290,-324"/>
<text text-anchor="middle" x="3258" y="-301.4" font-family="Times New Roman,serif" font-size="14.00">Platform</text>
</g>
<!-- 14&#45;&gt;24 -->
<g id="edge46" class="edge"><title>14&#45;&gt;24</title>
<path fill="none" stroke="black" d="M4910.93,-376.84C4716.93,-368.526 3538.98,-318.042 3300.2,-307.808"/>
<polygon fill="black" stroke="black" points="3300.32,-304.31 3290.18,-307.379 3300.02,-311.304 3300.32,-304.31"/>
</g>
<!-- 64 -->
<g id="node64" class="node"><title>64</title>
<polygon fill="none" stroke="black" points="4826,-324 4724,-324 4724,-288 4826,-288 4826,-324"/>
<text text-anchor="middle" x="4775" y="-301.4" font-family="Times New Roman,serif" font-size="14.00">AXTLSWRAP</text>
</g>
<!-- 14&#45;&gt;64 -->
<g id="edge126" class="edge"><title>14&#45;&gt;64</title>
<path fill="none" stroke="black" d="M4910.72,-365.949C4887.43,-355.662 4853.33,-340.602 4825.14,-328.149"/>
<polygon fill="black" stroke="black" points="4826.4,-324.876 4815.83,-324.037 4823.57,-331.279 4826.4,-324.876"/>
</g>
<!-- 65 -->
<g id="node65" class="node"><title>65</title>
<polygon fill="none" stroke="black" points="4930,-324 4844,-324 4844,-288 4930,-288 4930,-324"/>
<text text-anchor="middle" x="4887" y="-301.4" font-family="Times New Roman,serif" font-size="14.00">SSL Library</text>
</g>
<!-- 14&#45;&gt;65 -->
<g id="edge128" class="edge"><title>14&#45;&gt;65</title>
<path fill="none" stroke="black" d="M4925.13,-359.831C4919.32,-351.623 4912.33,-341.761 4905.94,-332.732"/>
<polygon fill="black" stroke="black" points="4908.68,-330.55 4900.04,-324.413 4902.97,-334.597 4908.68,-330.55"/>
</g>
<!-- 68 -->
<g id="node68" class="node"><title>68</title>
<polygon fill="none" stroke="black" points="5030,-324 4948,-324 4948,-288 5030,-288 5030,-324"/>
<text text-anchor="middle" x="4989" y="-301.4" font-family="Times New Roman,serif" font-size="14.00">AXHTTPD</text>
</g>
<!-- 14&#45;&gt;68 -->
<g id="edge134" class="edge"><title>14&#45;&gt;68</title>
<path fill="none" stroke="black" d="M4950.87,-359.831C4956.68,-351.623 4963.67,-341.761 4970.06,-332.732"/>
<polygon fill="black" stroke="black" points="4973.03,-334.597 4975.96,-324.413 4967.32,-330.55 4973.03,-334.597"/>
</g>
<!-- 87 -->
<g id="node87" class="node"><title>87</title>
<polygon fill="none" stroke="black" points="5154,-324 5048,-324 5048,-288 5154,-288 5154,-324"/>
<text text-anchor="middle" x="5101" y="-301.4" font-family="Times New Roman,serif" font-size="14.00">DOT_CONFIG</text>
</g>
<!-- 14&#45;&gt;87 -->
<g id="edge172" class="edge"><title>14&#45;&gt;87</title>
<path fill="none" stroke="black" d="M4965.28,-365.949C4988.57,-355.662 5022.67,-340.602 5050.86,-328.149"/>
<polygon fill="black" stroke="black" points="5052.43,-331.279 5060.17,-324.037 5049.6,-324.876 5052.43,-331.279"/>
</g>
<!-- 88 -->
<g id="node88" class="node"><title>88</title>
<polygon fill="none" stroke="black" points="5911,-324 5847,-324 5847,-288 5911,-288 5911,-324"/>
<text text-anchor="middle" x="5879" y="-301.4" font-family="Times New Roman,serif" font-size="14.00">Samples</text>
</g>
<!-- 14&#45;&gt;88 -->
<g id="edge174" class="edge"><title>14&#45;&gt;88</title>
<path fill="none" stroke="black" d="M4965.15,-375.923C5097.4,-365.804 5674.35,-321.658 5836.48,-309.253"/>
<polygon fill="black" stroke="black" points="5836.85,-312.735 5846.55,-308.483 5836.32,-305.756 5836.85,-312.735"/>
</g>
<!-- 95 -->
<g id="node95" class="node"><title>95</title>
<polygon fill="none" stroke="black" points="7149,-324 7009,-324 7009,-288 7149,-288 7149,-324"/>
<text text-anchor="middle" x="7079" y="-301.4" font-family="Times New Roman,serif" font-size="14.00">General Configuration</text>
</g>
<!-- 14&#45;&gt;95 -->
<g id="edge188" class="edge"><title>14&#45;&gt;95</title>
<path fill="none" stroke="black" d="M4965.07,-377.09C5182.02,-369.794 6639.01,-320.797 6998.79,-308.697"/>
<polygon fill="black" stroke="black" points="6998.99,-312.193 7008.86,-308.359 6998.75,-305.197 6998.99,-312.193"/>
</g>
<!-- 106 -->
<g id="node106" class="node"><title>106</title>
<polygon fill="none" stroke="black" points="8032,-324 7934,-324 7934,-288 8032,-288 8032,-324"/>
<text text-anchor="middle" x="7983" y="-301.4" font-family="Times New Roman,serif" font-size="14.00">BigInt Options</text>
</g>
<!-- 14&#45;&gt;106 -->
<g id="edge210" class="edge"><title>14&#45;&gt;106</title>
<path fill="none" stroke="black" d="M4965.25,-377.356C5241.05,-370.834 7525.38,-316.821 7923.83,-307.399"/>
<polygon fill="black" stroke="black" points="7924.07,-310.895 7933.98,-307.159 7923.9,-303.896 7924.07,-310.895"/>
</g>
<!-- 16 -->
<g id="node16" class="node"><title>16</title>
<polygon fill="none" stroke="black" points="3911,-180 3763,-180 3763,-144 3911,-144 3911,-180"/>
<text text-anchor="middle" x="3837" y="-157.4" font-family="Times New Roman,serif" font-size="14.00">SSL_SERVER_ONLY</text>
</g>
<!-- 18 -->
<g id="node18" class="node"><title>18</title>
<polygon fill="none" stroke="black" points="7898,-252 7798,-252 7798,-216 7898,-216 7898,-252"/>
<text text-anchor="middle" x="7848" y="-229.4" font-family="Times New Roman,serif" font-size="14.00">BIGINT_CRT</text>
</g>
<!-- 19 -->
<g id="node19" class="node"><title>19</title>
<polygon fill="none" stroke="black" points="4119,-180 3929,-180 3929,-144 4119,-144 4119,-180"/>
<text text-anchor="middle" x="4024" y="-157.4" font-family="Times New Roman,serif" font-size="14.00">SSL_CERT_VERIFICATION</text>
</g>
<!-- 32 -->
<g id="node32" class="node"><title>32</title>
<polygon fill="none" stroke="black" points="1513,-180 1417,-180 1417,-144 1513,-144 1513,-180"/>
<text text-anchor="middle" x="1465" y="-157.4" font-family="Times New Roman,serif" font-size="14.00">HTTP_USER</text>
</g>
<!-- 20&#45;&gt;32 -->
<g id="edge62" class="edge"><title>20&#45;&gt;32</title>
<path fill="none" stroke="black" d="M1465,-215.831C1465,-208.131 1465,-198.974 1465,-190.417"/>
<polygon fill="black" stroke="black" points="1468.5,-190.413 1465,-180.413 1461.5,-190.413 1468.5,-190.413"/>
</g>
<!-- 21 -->
<g id="node21" class="node"><title>21</title>
<polygon fill="none" stroke="black" points="8392,-180 8228,-180 8228,-144 8392,-144 8392,-180"/>
<text text-anchor="middle" x="8310" y="-157.4" font-family="Times New Roman,serif" font-size="14.00">KARATSUBA_THRESH</text>
</g>
<!-- 23 -->
<g id="node23" class="node"><title>23</title>
<polygon fill="none" stroke="black" points="6673,-252 6593,-252 6593,-216 6673,-216 6673,-252"/>
<text text-anchor="middle" x="6633" y="-229.4" font-family="Times New Roman,serif" font-size="14.00">SAMPLES</text>
</g>
<!-- 23&#45;&gt;12 -->
<g id="edge24" class="edge"><title>23&#45;&gt;12</title>
<path fill="none" stroke="black" d="M6592.86,-218.385C6589.89,-217.496 6586.91,-216.687 6584,-216 6447.42,-183.752 6406.05,-204.938 6264.29,-180.082"/>
<polygon fill="black" stroke="black" points="6264.81,-176.621 6254.35,-178.294 6263.57,-183.51 6264.81,-176.621"/>
</g>
<!-- 33 -->
<g id="node33" class="node"><title>33</title>
<polygon fill="none" stroke="black" points="6394,-180 6272,-180 6272,-144 6394,-144 6394,-180"/>
<text text-anchor="middle" x="6333" y="-157.4" font-family="Times New Roman,serif" font-size="14.00">PERL_SAMPLES</text>
</g>
<!-- 23&#45;&gt;33 -->
<g id="edge64" class="edge"><title>23&#45;&gt;33</title>
<path fill="none" stroke="black" d="M6592.79,-218.664C6589.83,-217.71 6586.88,-216.81 6584,-216 6508.13,-194.659 6484.78,-197.915 6404.16,-180.177"/>
<polygon fill="black" stroke="black" points="6404.56,-176.68 6394.03,-177.907 6403.03,-183.51 6404.56,-176.68"/>
</g>
<!-- 77 -->
<g id="node77" class="node"><title>77</title>
<polygon fill="none" stroke="black" points="6544,-180 6412,-180 6412,-144 6544,-144 6544,-180"/>
<text text-anchor="middle" x="6478" y="-157.4" font-family="Times New Roman,serif" font-size="14.00">VBNET_SAMPLES</text>
</g>
<!-- 23&#45;&gt;77 -->
<g id="edge152" class="edge"><title>23&#45;&gt;77</title>
<path fill="none" stroke="black" d="M6593.89,-215.831C6573.25,-206.245 6547.75,-194.401 6525.93,-184.266"/>
<polygon fill="black" stroke="black" points="6527.38,-181.077 6516.83,-180.038 6524.43,-187.425 6527.38,-181.077"/>
</g>
<!-- 91 -->
<g id="node91" class="node"><title>91</title>
<polygon fill="none" stroke="black" points="6704,-180 6562,-180 6562,-144 6704,-144 6704,-180"/>
<text text-anchor="middle" x="6633" y="-157.4" font-family="Times New Roman,serif" font-size="14.00">CSHARP_SAMPLES</text>
</g>
<!-- 23&#45;&gt;91 -->
<g id="edge180" class="edge"><title>23&#45;&gt;91</title>
<path fill="none" stroke="black" d="M6633,-215.831C6633,-208.131 6633,-198.974 6633,-190.417"/>
<polygon fill="black" stroke="black" points="6636.5,-190.413 6633,-180.413 6629.5,-190.413 6636.5,-190.413"/>
</g>
<!-- 99 -->
<g id="node99" class="node"><title>99</title>
<polygon fill="none" stroke="black" points="6818,-180 6722,-180 6722,-144 6818,-144 6818,-180"/>
<text text-anchor="middle" x="6770" y="-157.4" font-family="Times New Roman,serif" font-size="14.00">C_SAMPLES</text>
</g>
<!-- 23&#45;&gt;99 -->
<g id="edge196" class="edge"><title>23&#45;&gt;99</title>
<path fill="none" stroke="black" d="M6667.57,-215.831C6685.42,-206.452 6707.38,-194.911 6726.38,-184.924"/>
<polygon fill="black" stroke="black" points="6728.22,-187.913 6735.44,-180.163 6724.96,-181.717 6728.22,-187.913"/>
</g>
<!-- 108 -->
<g id="node108" class="node"><title>108</title>
<polygon fill="none" stroke="black" points="6950,-180 6836,-180 6836,-144 6950,-144 6950,-180"/>
<text text-anchor="middle" x="6893" y="-157.4" font-family="Times New Roman,serif" font-size="14.00">LUA_SAMPLES</text>
</g>
<!-- 23&#45;&gt;108 -->
<g id="edge214" class="edge"><title>23&#45;&gt;108</title>
<path fill="none" stroke="black" d="M6673.26,-218.817C6676.2,-217.827 6679.14,-216.877 6682,-216 6742.5,-197.436 6761.02,-196.76 6825.87,-180.246"/>
<polygon fill="black" stroke="black" points="6826.97,-183.576 6835.78,-177.69 6825.23,-176.797 6826.97,-183.576"/>
</g>
<!-- 37 -->
<g id="node37" class="node"><title>37</title>
<polygon fill="none" stroke="black" points="3091,-252 2933,-252 2933,-216 3091,-216 3091,-252"/>
<text text-anchor="middle" x="3012" y="-229.4" font-family="Times New Roman,serif" font-size="14.00">PLATFORM_CYGWIN</text>
</g>
<!-- 24&#45;&gt;37 -->
<g id="edge72" class="edge"><title>24&#45;&gt;37</title>
<path fill="none" stroke="black" d="M3225.84,-296.587C3189.97,-286.089 3130.82,-268.776 3083.81,-255.017"/>
<polygon fill="black" stroke="black" points="3084.55,-251.588 3073.97,-252.138 3082.59,-258.306 3084.55,-251.588"/>
</g>
<!-- 42 -->
<g id="node42" class="node"><title>42</title>
<polygon fill="none" stroke="black" points="3249,-252 3109,-252 3109,-216 3249,-216 3249,-252"/>
<text text-anchor="middle" x="3179" y="-229.4" font-family="Times New Roman,serif" font-size="14.00">PLATFORM_WIN32</text>
</g>
<!-- 24&#45;&gt;42 -->
<g id="edge82" class="edge"><title>24&#45;&gt;42</title>
<path fill="none" stroke="black" d="M3238.06,-287.831C3228.52,-279.134 3216.94,-268.578 3206.57,-259.127"/>
<polygon fill="black" stroke="black" points="3208.68,-256.312 3198.93,-252.163 3203.96,-261.486 3208.68,-256.312"/>
</g>
<!-- 72 -->
<g id="node72" class="node"><title>72</title>
<polygon fill="none" stroke="black" points="3409,-252 3267,-252 3267,-216 3409,-216 3409,-252"/>
<text text-anchor="middle" x="3338" y="-229.4" font-family="Times New Roman,serif" font-size="14.00">PLATFORM_LINUX</text>
</g>
<!-- 24&#45;&gt;72 -->
<g id="edge142" class="edge"><title>24&#45;&gt;72</title>
<path fill="none" stroke="black" d="M3278.19,-287.831C3287.85,-279.134 3299.58,-268.578 3310.08,-259.127"/>
<polygon fill="black" stroke="black" points="3312.73,-261.454 3317.82,-252.163 3308.04,-256.251 3312.73,-261.454"/>
</g>
<!-- 25 -->
<g id="node25" class="node"><title>25</title>
<polygon fill="none" stroke="black" points="7400,-180 7204,-180 7204,-144 7400,-144 7400,-180"/>
<text text-anchor="middle" x="7302" y="-157.4" font-family="Times New Roman,serif" font-size="14.00">VISUAL_STUDIO_7_0_BASE</text>
</g>
<!-- 35 -->
<g id="node35" class="node"><title>35</title>
<polygon fill="none" stroke="black" points="82,-180 8,-180 8,-144 82,-144 82,-180"/>
<text text-anchor="middle" x="45" y="-157.4" font-family="Times New Roman,serif" font-size="14.00">Lua Home</text>
</g>
<!-- 27&#45;&gt;35 -->
<g id="edge68" class="edge"><title>27&#45;&gt;35</title>
<path fill="none" stroke="black" d="M110.794,-215.831C99.955,-206.963 86.7556,-196.164 75.0322,-186.572"/>
<polygon fill="black" stroke="black" points="77.155,-183.786 67.199,-180.163 72.7223,-189.204 77.155,-183.786"/>
</g>
<!-- 28&#45;&gt;6 -->
<g id="edge12" class="edge"><title>28&#45;&gt;6</title>
<path fill="none" stroke="black" d="M284.635,-215.831C263.863,-206.245 238.202,-194.401 216.242,-184.266"/>
<polygon fill="black" stroke="black" points="217.629,-181.051 207.082,-180.038 214.695,-187.406 217.629,-181.051"/>
</g>
<!-- 36 -->
<g id="node36" class="node"><title>36</title>
<polygon fill="none" stroke="black" points="400,-180 254,-180 254,-144 400,-144 400,-180"/>
<text text-anchor="middle" x="327" y="-157.4" font-family="Times New Roman,serif" font-size="14.00">CSHARP_BINDINGS</text>
</g>
<!-- 28&#45;&gt;36 -->
<g id="edge70" class="edge"><title>28&#45;&gt;36</title>
<path fill="none" stroke="black" d="M324.757,-215.831C325.078,-208.131 325.459,-198.974 325.816,-190.417"/>
<polygon fill="black" stroke="black" points="329.313,-190.55 326.233,-180.413 322.319,-190.259 329.313,-190.55"/>
</g>
<!-- 30 -->
<g id="node30" class="node"><title>30</title>
<polygon fill="none" stroke="black" points="2491,-36 2355,-36 2355,-1.06581e-014 2491,-0 2491,-36"/>
<text text-anchor="middle" x="2423" y="-13.4" font-family="Times New Roman,serif" font-size="14.00">HTTP_BUILD_LUA</text>
</g>
<!-- 31 -->
<g id="node31" class="node"><title>31</title>
<polygon fill="none" stroke="black" points="4121,-252 4009,-252 4009,-216 4121,-216 4121,-252"/>
<text text-anchor="middle" x="4065" y="-229.4" font-family="Times New Roman,serif" font-size="14.00">SSL_HAS_PEM</text>
</g>
<!-- 34 -->
<g id="node34" class="node"><title>34</title>
<polygon fill="none" stroke="black" points="7105,-252 6903,-252 6903,-216 7105,-216 7105,-252"/>
<text text-anchor="middle" x="7004" y="-229.4" font-family="Times New Roman,serif" font-size="14.00">EXTRA_LDFLAGS_OPTIONS</text>
</g>
<!-- 39 -->
<g id="node39" class="node"><title>39</title>
<polygon fill="none" stroke="black" points="90,-108 2.13163e-014,-108 0,-72 90,-72 90,-108"/>
<text text-anchor="middle" x="45" y="-85.4" font-family="Times New Roman,serif" font-size="14.00">LUA_CORE</text>
</g>
<!-- 35&#45;&gt;39 -->
<g id="edge76" class="edge"><title>35&#45;&gt;39</title>
<path fill="none" stroke="black" d="M45,-143.831C45,-136.131 45,-126.974 45,-118.417"/>
<polygon fill="black" stroke="black" points="48.5001,-118.413 45,-108.413 41.5001,-118.413 48.5001,-118.413"/>
</g>
<!-- 38 -->
<g id="node38" class="node"><title>38</title>
<polygon fill="none" stroke="black" points="2518,-108 2340,-108 2340,-72 2518,-72 2518,-108"/>
<text text-anchor="middle" x="2429" y="-85.4" font-family="Times New Roman,serif" font-size="14.00">HTTP_CGI_EXTENSIONS</text>
</g>
<!-- 40 -->
<g id="node40" class="node"><title>40</title>
<polygon fill="none" stroke="black" points="3601,-180 3473,-180 3473,-144 3601,-144 3601,-180"/>
<text text-anchor="middle" x="3537" y="-157.4" font-family="Times New Roman,serif" font-size="14.00">SSL_PROT_HIGH</text>
</g>
<!-- 41 -->
<g id="node41" class="node"><title>41</title>
<polygon fill="none" stroke="black" points="8050,-252 7916,-252 7916,-216 8050,-216 8050,-252"/>
<text text-anchor="middle" x="7983" y="-229.4" font-family="Times New Roman,serif" font-size="14.00">Reduction Algorithm</text>
</g>
<!-- 49 -->
<g id="node49" class="node"><title>49</title>
<polygon fill="none" stroke="black" points="7890,-180 7718,-180 7718,-144 7890,-144 7890,-180"/>
<text text-anchor="middle" x="7804" y="-157.4" font-family="Times New Roman,serif" font-size="14.00">BIGINT_MONTGOMERY</text>
</g>
<!-- 41&#45;&gt;49 -->
<g id="edge96" class="edge"><title>41&#45;&gt;49</title>
<path fill="none" stroke="black" d="M7937.83,-215.831C7913.68,-206.116 7883.76,-194.083 7858.34,-183.859"/>
<polygon fill="black" stroke="black" points="7859.43,-180.523 7848.84,-180.038 7856.82,-187.017 7859.43,-180.523"/>
</g>
<!-- 59 -->
<g id="node59" class="node"><title>59</title>
<polygon fill="none" stroke="black" points="8056,-180 7908,-180 7908,-144 8056,-144 8056,-180"/>
<text text-anchor="middle" x="7982" y="-157.4" font-family="Times New Roman,serif" font-size="14.00">BIGINT_CLASSICAL</text>
</g>
<!-- 41&#45;&gt;59 -->
<g id="edge116" class="edge"><title>41&#45;&gt;59</title>
<path fill="none" stroke="black" d="M7982.75,-215.831C7982.64,-208.131 7982.51,-198.974 7982.39,-190.417"/>
<polygon fill="black" stroke="black" points="7985.89,-190.364 7982.26,-180.413 7978.9,-190.461 7985.89,-190.364"/>
</g>
<!-- 81 -->
<g id="node81" class="node"><title>81</title>
<polygon fill="none" stroke="black" points="8210,-180 8074,-180 8074,-144 8210,-144 8210,-180"/>
<text text-anchor="middle" x="8142" y="-157.4" font-family="Times New Roman,serif" font-size="14.00">BIGINT_BARRETT</text>
</g>
<!-- 41&#45;&gt;81 -->
<g id="edge160" class="edge"><title>41&#45;&gt;81</title>
<path fill="none" stroke="black" d="M8023.12,-215.831C8044.29,-206.245 8070.45,-194.401 8092.83,-184.266"/>
<polygon fill="black" stroke="black" points="8094.5,-187.351 8102.17,-180.038 8091.61,-180.975 8094.5,-187.351"/>
</g>
<!-- 43 -->
<g id="node43" class="node"><title>43</title>
<polygon fill="none" stroke="black" points="4267,-252 4139,-252 4139,-216 4267,-216 4267,-252"/>
<text text-anchor="middle" x="4203" y="-229.4" font-family="Times New Roman,serif" font-size="14.00">Protocol Preference</text>
</g>
<!-- 43&#45;&gt;4 -->
<g id="edge8" class="edge"><title>43&#45;&gt;4</title>
<path fill="none" stroke="black" d="M4138.64,-217.437C4135.73,-216.906 4132.84,-216.423 4130,-216 3840.1,-172.815 3759.63,-218.135 3465.12,-180.014"/>
<polygon fill="black" stroke="black" points="3465.37,-176.517 3455,-178.682 3464.46,-183.457 3465.37,-176.517"/>
</g>
<!-- 43&#45;&gt;40 -->
<g id="edge78" class="edge"><title>43&#45;&gt;40</title>
<path fill="none" stroke="black" d="M4138.64,-217.49C4135.73,-216.946 4132.84,-216.445 4130,-216 3904.37,-180.644 3840.67,-214.867 3611.35,-180.053"/>
<polygon fill="black" stroke="black" points="3611.78,-176.578 3601.36,-178.51 3610.71,-183.496 3611.78,-176.578"/>
</g>
<!-- 83 -->
<g id="node83" class="node"><title>83</title>
<polygon fill="none" stroke="black" points="3745,-180 3619,-180 3619,-144 3745,-144 3745,-180"/>
<text text-anchor="middle" x="3682" y="-157.4" font-family="Times New Roman,serif" font-size="14.00">SSL_PROT_LOW</text>
</g>
<!-- 43&#45;&gt;83 -->
<g id="edge164" class="edge"><title>43&#45;&gt;83</title>
<path fill="none" stroke="black" d="M4138.62,-217.584C4135.71,-217.014 4132.83,-216.482 4130,-216 3967.74,-188.38 3921.26,-207.651 3755.17,-180.049"/>
<polygon fill="black" stroke="black" points="3755.55,-176.562 3745.1,-178.343 3754.38,-183.464 3755.55,-176.562"/>
</g>
<!-- 44 -->
<g id="node44" class="node"><title>44</title>
<polygon fill="none" stroke="black" points="4339,-252 4285,-252 4285,-216 4339,-216 4339,-252"/>
<text text-anchor="middle" x="4312" y="-229.4" font-family="Times New Roman,serif" font-size="14.00">Mode</text>
</g>
<!-- 44&#45;&gt;16 -->
<g id="edge30" class="edge"><title>44&#45;&gt;16</title>
<path fill="none" stroke="black" d="M4284.9,-219.174C4281.95,-217.95 4278.95,-216.856 4276,-216 4126.39,-172.621 4079.01,-203.564 3921.19,-180.06"/>
<polygon fill="black" stroke="black" points="3921.55,-176.574 3911.13,-178.511 3920.48,-183.492 3921.55,-176.574"/>
</g>
<!-- 44&#45;&gt;19 -->
<g id="edge36" class="edge"><title>44&#45;&gt;19</title>
<path fill="none" stroke="black" d="M4284.79,-219.506C4281.87,-218.217 4278.9,-217.018 4276,-216 4248.92,-206.499 4185.69,-192.959 4129.34,-181.814"/>
<polygon fill="black" stroke="black" points="4129.77,-178.33 4119.28,-179.833 4128.41,-185.198 4129.77,-178.33"/>
</g>
<!-- 75 -->
<g id="node75" class="node"><title>75</title>
<polygon fill="none" stroke="black" points="4305,-180 4137,-180 4137,-144 4305,-144 4305,-180"/>
<text text-anchor="middle" x="4221" y="-157.4" font-family="Times New Roman,serif" font-size="14.00">SSL_SKELETON_MODE</text>
</g>
<!-- 44&#45;&gt;75 -->
<g id="edge148" class="edge"><title>44&#45;&gt;75</title>
<path fill="none" stroke="black" d="M4289.04,-215.831C4277.83,-206.963 4264.18,-196.164 4252.06,-186.572"/>
<polygon fill="black" stroke="black" points="4253.97,-183.623 4243.96,-180.163 4249.63,-189.112 4253.97,-183.623"/>
</g>
<!-- 92 -->
<g id="node92" class="node"><title>92</title>
<polygon fill="none" stroke="black" points="4481,-180 4323,-180 4323,-144 4481,-144 4481,-180"/>
<text text-anchor="middle" x="4402" y="-157.4" font-family="Times New Roman,serif" font-size="14.00">SSL_ENABLE_CLIENT</text>
</g>
<!-- 44&#45;&gt;92 -->
<g id="edge182" class="edge"><title>44&#45;&gt;92</title>
<path fill="none" stroke="black" d="M4334.71,-215.831C4345.8,-206.963 4359.3,-196.164 4371.29,-186.572"/>
<polygon fill="black" stroke="black" points="4373.67,-189.143 4379.3,-180.163 4369.3,-183.677 4373.67,-189.143"/>
</g>
<!-- 98 -->
<g id="node98" class="node"><title>98</title>
<polygon fill="none" stroke="black" points="4629,-180 4499,-180 4499,-144 4629,-144 4629,-180"/>
<text text-anchor="middle" x="4564" y="-157.4" font-family="Times New Roman,serif" font-size="14.00">SSL_FULL_MODE</text>
</g>
<!-- 44&#45;&gt;98 -->
<g id="edge194" class="edge"><title>44&#45;&gt;98</title>
<path fill="none" stroke="black" d="M4339.24,-219.607C4342.16,-218.298 4345.12,-217.067 4348,-216 4354.87,-213.459 4429.31,-194.999 4488.91,-180.36"/>
<polygon fill="black" stroke="black" points="4489.84,-183.737 4498.72,-177.954 4488.17,-176.939 4489.84,-183.737"/>
</g>
<!-- 45 -->
<g id="node45" class="node"><title>45</title>
<polygon fill="none" stroke="black" points="8214,-252 8068,-252 8068,-216 8214,-216 8214,-252"/>
<text text-anchor="middle" x="8141" y="-229.4" font-family="Times New Roman,serif" font-size="14.00">BIGINT_CHECK_ON</text>
</g>
<!-- 46 -->
<g id="node46" class="node"><title>46</title>
<polygon fill="none" stroke="black" points="8388,-252 8232,-252 8232,-216 8388,-216 8388,-252"/>
<text text-anchor="middle" x="8310" y="-229.4" font-family="Times New Roman,serif" font-size="14.00">BIGINT_KARATSUBA</text>
</g>
<!-- 46&#45;&gt;21 -->
<g id="edge40" class="edge"><title>46&#45;&gt;21</title>
<path fill="none" stroke="black" d="M8310,-215.831C8310,-208.131 8310,-198.974 8310,-190.417"/>
<polygon fill="black" stroke="black" points="8313.5,-190.413 8310,-180.413 8306.5,-190.413 8313.5,-190.413"/>
</g>
<!-- 54 -->
<g id="node54" class="node"><title>54</title>
<polygon fill="none" stroke="black" points="8574,-180 8410,-180 8410,-144 8574,-144 8574,-180"/>
<text text-anchor="middle" x="8492" y="-157.4" font-family="Times New Roman,serif" font-size="14.00">KARATSUBA_THRESH</text>
</g>
<!-- 46&#45;&gt;54 -->
<g id="edge106" class="edge"><title>46&#45;&gt;54</title>
<path fill="none" stroke="black" d="M8355.93,-215.831C8380.59,-206.073 8411.17,-193.977 8437.09,-183.724"/>
<polygon fill="black" stroke="black" points="8438.39,-186.971 8446.4,-180.038 8435.82,-180.462 8438.39,-186.971"/>
</g>
<!-- 48 -->
<g id="node48" class="node"><title>48</title>
<polygon fill="none" stroke="black" points="4489,-252 4357,-252 4357,-216 4489,-216 4489,-252"/>
<text text-anchor="middle" x="4423" y="-229.4" font-family="Times New Roman,serif" font-size="14.00">SSL_USE_PKCS12</text>
</g>
<!-- 50 -->
<g id="node50" class="node"><title>50</title>
<polygon fill="none" stroke="black" points="7443,-108 7289,-108 7289,-72 7443,-72 7443,-108"/>
<text text-anchor="middle" x="7366" y="-85.4" font-family="Times New Roman,serif" font-size="14.00">VISUAL_STUDIO_7_0</text>
</g>
<!-- 51 -->
<g id="node51" class="node"><title>51</title>
<polygon fill="none" stroke="black" points="4687,-252 4507,-252 4507,-216 4687,-216 4687,-252"/>
<text text-anchor="middle" x="4597" y="-229.4" font-family="Times New Roman,serif" font-size="14.00">SSL_USE_DEFAULT_KEY</text>
</g>
<!-- 60 -->
<g id="node60" class="node"><title>60</title>
<polygon fill="none" stroke="black" points="4869,-180 4647,-180 4647,-144 4869,-144 4869,-180"/>
<text text-anchor="middle" x="4758" y="-157.4" font-family="Times New Roman,serif" font-size="14.00">SSL_PRIVATE_KEY_LOCATION</text>
</g>
<!-- 51&#45;&gt;60 -->
<g id="edge118" class="edge"><title>51&#45;&gt;60</title>
<path fill="none" stroke="black" d="M4637.63,-215.831C4659.16,-206.202 4685.78,-194.295 4708.52,-184.13"/>
<polygon fill="black" stroke="black" points="4709.97,-187.316 4717.67,-180.038 4707.11,-180.925 4709.97,-187.316"/>
</g>
<!-- 89 -->
<g id="node89" class="node"><title>89</title>
<polygon fill="none" stroke="black" points="496,-180 418,-180 418,-144 496,-144 496,-180"/>
<text text-anchor="middle" x="457" y="-157.4" font-family="Times New Roman,serif" font-size="14.00">Java Home</text>
</g>
<!-- 53&#45;&gt;89 -->
<g id="edge176" class="edge"><title>53&#45;&gt;89</title>
<path fill="none" stroke="black" d="M448.028,-215.831C449.312,-208.131 450.838,-198.974 452.264,-190.417"/>
<polygon fill="black" stroke="black" points="455.739,-190.853 453.931,-180.413 448.835,-189.702 455.739,-190.853"/>
</g>
<!-- 55&#45;&gt;11 -->
<g id="edge22" class="edge"><title>55&#45;&gt;11</title>
<path fill="none" stroke="black" d="M584.729,-215.831C583.766,-208.131 582.622,-198.974 581.552,-190.417"/>
<polygon fill="black" stroke="black" points="585.015,-189.902 580.302,-180.413 578.069,-190.77 585.015,-189.902"/>
</g>
<!-- 56 -->
<g id="node56" class="node"><title>56</title>
<polygon fill="none" stroke="black" points="4909,-252 4705,-252 4705,-216 4909,-216 4909,-252"/>
<text text-anchor="middle" x="4807" y="-229.4" font-family="Times New Roman,serif" font-size="14.00">SSL_GENERATE_X509_CERT</text>
</g>
<!-- 79 -->
<g id="node79" class="node"><title>79</title>
<polygon fill="none" stroke="black" points="5127,-180 4887,-180 4887,-144 5127,-144 5127,-180"/>
<text text-anchor="middle" x="5007" y="-157.4" font-family="Times New Roman,serif" font-size="14.00">SSL_X509_ORGANIZATION_NAME</text>
</g>
<!-- 56&#45;&gt;79 -->
<g id="edge156" class="edge"><title>56&#45;&gt;79</title>
<path fill="none" stroke="black" d="M4857.21,-215.924C4884.55,-206.081 4918.56,-193.839 4947.26,-183.507"/>
<polygon fill="black" stroke="black" points="4948.55,-186.764 4956.77,-180.083 4946.17,-180.177 4948.55,-186.764"/>
</g>
<!-- 80 -->
<g id="node80" class="node"><title>80</title>
<polygon fill="none" stroke="black" points="5343,-180 5145,-180 5145,-144 5343,-144 5343,-180"/>
<text text-anchor="middle" x="5244" y="-157.4" font-family="Times New Roman,serif" font-size="14.00">SSL_X509_COMMON_NAME</text>
</g>
<!-- 56&#45;&gt;80 -->
<g id="edge158" class="edge"><title>56&#45;&gt;80</title>
<path fill="none" stroke="black" d="M4909.27,-217.281C4971.68,-207.062 5053.37,-193.657 5134.9,-180.181"/>
<polygon fill="black" stroke="black" points="5135.54,-183.622 5144.84,-178.537 5134.4,-176.716 5135.54,-183.622"/>
</g>
<!-- 104 -->
<g id="node104" class="node"><title>104</title>
<polygon fill="none" stroke="black" points="5641,-180 5361,-180 5361,-144 5641,-144 5641,-180"/>
<text text-anchor="middle" x="5501" y="-157.4" font-family="Times New Roman,serif" font-size="14.00">SSL_X509_ORGANIZATION_UNIT_NAME</text>
</g>
<!-- 56&#45;&gt;104 -->
<g id="edge206" class="edge"><title>56&#45;&gt;104</title>
<path fill="none" stroke="black" d="M4909.17,-217.124C4912.15,-216.731 4915.09,-216.356 4918,-216 5106.84,-192.893 5157.72,-199.376 5350.45,-180.133"/>
<polygon fill="black" stroke="black" points="5351.04,-183.591 5360.64,-179.105 5350.34,-176.627 5351.04,-183.591"/>
</g>
<!-- 57 -->
<g id="node57" class="node"><title>57</title>
<polygon fill="none" stroke="black" points="7187,-252 7123,-252 7123,-216 7187,-216 7187,-252"/>
<text text-anchor="middle" x="7155" y="-229.4" font-family="Times New Roman,serif" font-size="14.00">DEBUG</text>
</g>
<!-- 100 -->
<g id="node100" class="node"><title>100</title>
<polygon fill="none" stroke="black" points="7186,-180 6968,-180 6968,-144 7186,-144 7186,-180"/>
<text text-anchor="middle" x="7077" y="-157.4" font-family="Times New Roman,serif" font-size="14.00">STRIP_UNWANTED_SECTIONS</text>
</g>
<!-- 57&#45;&gt;100 -->
<g id="edge198" class="edge"><title>57&#45;&gt;100</title>
<path fill="none" stroke="black" d="M7135.32,-215.831C7125.89,-207.134 7114.46,-196.578 7104.22,-187.127"/>
<polygon fill="black" stroke="black" points="7106.4,-184.374 7096.68,-180.163 7101.65,-189.517 7106.4,-184.374"/>
</g>
<!-- 58 -->
<g id="node58" class="node"><title>58</title>
<polygon fill="none" stroke="black" points="2684,-108 2536,-108 2536,-72 2684,-72 2684,-108"/>
<text text-anchor="middle" x="2610" y="-85.4" font-family="Times New Roman,serif" font-size="14.00">HTTP_ENABLE_LUA</text>
</g>
<!-- 58&#45;&gt;30 -->
<g id="edge58" class="edge"><title>58&#45;&gt;30</title>
<path fill="none" stroke="black" d="M2562.81,-71.8314C2537.47,-62.0734 2506.05,-49.977 2479.42,-39.7242"/>
<polygon fill="black" stroke="black" points="2480.44,-36.3649 2469.85,-36.038 2477.92,-42.8974 2480.44,-36.3649"/>
</g>
<!-- 76 -->
<g id="node76" class="node"><title>76</title>
<polygon fill="none" stroke="black" points="2711,-36 2509,-36 2509,-1.06581e-014 2711,-0 2711,-36"/>
<text text-anchor="middle" x="2610" y="-13.4" font-family="Times New Roman,serif" font-size="14.00">HTTP_LUA_CGI_LAUNCHER</text>
</g>
<!-- 58&#45;&gt;76 -->
<g id="edge150" class="edge"><title>58&#45;&gt;76</title>
<path fill="none" stroke="black" d="M2610,-71.8314C2610,-64.131 2610,-54.9743 2610,-46.4166"/>
<polygon fill="black" stroke="black" points="2613.5,-46.4132 2610,-36.4133 2606.5,-46.4133 2613.5,-46.4132"/>
</g>
<!-- 78 -->
<g id="node78" class="node"><title>78</title>
<polygon fill="none" stroke="black" points="2873,-36 2729,-36 2729,-1.06581e-014 2873,-0 2873,-36"/>
<text text-anchor="middle" x="2801" y="-13.4" font-family="Times New Roman,serif" font-size="14.00">HTTP_LUA_PREFIX</text>
</g>
<!-- 58&#45;&gt;78 -->
<g id="edge154" class="edge"><title>58&#45;&gt;78</title>
<path fill="none" stroke="black" d="M2658.2,-71.8314C2684.2,-62.0306 2716.45,-49.8709 2743.73,-39.5894"/>
<polygon fill="black" stroke="black" points="2745.03,-42.8404 2753.15,-36.038 2742.56,-36.2904 2745.03,-42.8404"/>
</g>
<!-- 62 -->
<g id="node62" class="node"><title>62</title>
<polygon fill="none" stroke="black" points="7615,-108 7461,-108 7461,-72 7615,-72 7615,-108"/>
<text text-anchor="middle" x="7538" y="-85.4" font-family="Times New Roman,serif" font-size="14.00">VISUAL_STUDIO_8_0</text>
</g>
<!-- 63 -->
<g id="node63" class="node"><title>63</title>
<polygon fill="none" stroke="black" points="5009,-252 4927,-252 4927,-216 5009,-216 5009,-252"/>
<text text-anchor="middle" x="4968" y="-229.4" font-family="Times New Roman,serif" font-size="14.00">SSL_TEST</text>
</g>
<!-- 65&#45;&gt;3 -->
<g id="edge6" class="edge"><title>65&#45;&gt;3</title>
<path fill="none" stroke="black" d="M4843.85,-289.967C4840.88,-289.204 4837.91,-288.535 4835,-288 4573.42,-240.001 3908.35,-278.284 3625.53,-252.026"/>
<polygon fill="black" stroke="black" points="3625.52,-248.508 3615.22,-251.023 3624.84,-255.475 3625.52,-248.508"/>
</g>
<!-- 65&#45;&gt;5 -->
<g id="edge10" class="edge"><title>65&#45;&gt;5</title>
<path fill="none" stroke="black" d="M4843.85,-289.987C4840.88,-289.219 4837.91,-288.543 4835,-288 4397.11,-206.301 4274.01,-298.119 3827.07,-252.012"/>
<polygon fill="black" stroke="black" points="3827.43,-248.531 3817.12,-250.969 3826.7,-255.493 3827.43,-248.531"/>
</g>
<!-- 65&#45;&gt;10 -->
<g id="edge20" class="edge"><title>65&#45;&gt;10</title>
<path fill="none" stroke="black" d="M4843.84,-290.012C4840.88,-289.238 4837.91,-288.554 4835,-288 4473.4,-219.144 4370.48,-296.358 4001.32,-252.031"/>
<polygon fill="black" stroke="black" points="4001.51,-248.528 3991.16,-250.789 4000.66,-255.477 4001.51,-248.528"/>
</g>
<!-- 65&#45;&gt;31 -->
<g id="edge60" class="edge"><title>65&#45;&gt;31</title>
<path fill="none" stroke="black" d="M4843.84,-290.038C4840.87,-289.258 4837.91,-288.566 4835,-288 4530.34,-228.734 4441.61,-300.59 4131.39,-252.001"/>
<polygon fill="black" stroke="black" points="4131.63,-248.495 4121.2,-250.375 4130.53,-255.408 4131.63,-248.495"/>
</g>
<!-- 65&#45;&gt;43 -->
<g id="edge84" class="edge"><title>65&#45;&gt;43</title>
<path fill="none" stroke="black" d="M4843.83,-290.083C4840.87,-289.292 4837.9,-288.585 4835,-288 4594.16,-239.486 4523.9,-288.62 4277.34,-252.039"/>
<polygon fill="black" stroke="black" points="4277.77,-248.565 4267.36,-250.527 4276.72,-255.486 4277.77,-248.565"/>
</g>
<!-- 65&#45;&gt;44 -->
<g id="edge86" class="edge"><title>65&#45;&gt;44</title>
<path fill="none" stroke="black" d="M4843.82,-290.115C4840.86,-289.316 4837.9,-288.599 4835,-288 4625.66,-244.798 4559.25,-307.664 4348.88,-251.579"/>
<polygon fill="black" stroke="black" points="4349.64,-248.16 4339.08,-248.908 4347.8,-254.914 4349.64,-248.16"/>
</g>
<!-- 65&#45;&gt;48 -->
<g id="edge94" class="edge"><title>65&#45;&gt;48</title>
<path fill="none" stroke="black" d="M4843.8,-290.225C4840.84,-289.399 4837.89,-288.646 4835,-288 4691.15,-255.858 4648.27,-276.69 4499.14,-252.057"/>
<polygon fill="black" stroke="black" points="4499.6,-248.586 4489.16,-250.368 4498.43,-255.488 4499.6,-248.586"/>
</g>
<!-- 65&#45;&gt;51 -->
<g id="edge100" class="edge"><title>65&#45;&gt;51</title>
<path fill="none" stroke="black" d="M4843.99,-290.702C4840.96,-289.75 4837.94,-288.839 4835,-288 4790.12,-275.182 4739.79,-263.396 4697.01,-254.127"/>
<polygon fill="black" stroke="black" points="4697.67,-250.689 4687.16,-252.008 4696.2,-257.532 4697.67,-250.689"/>
</g>
<!-- 65&#45;&gt;56 -->
<g id="edge110" class="edge"><title>65&#45;&gt;56</title>
<path fill="none" stroke="black" d="M4866.81,-287.831C4857.15,-279.134 4845.42,-268.578 4834.92,-259.127"/>
<polygon fill="black" stroke="black" points="4836.96,-256.251 4827.18,-252.163 4832.27,-261.454 4836.96,-256.251"/>
</g>
<!-- 65&#45;&gt;63 -->
<g id="edge124" class="edge"><title>65&#45;&gt;63</title>
<path fill="none" stroke="black" d="M4907.44,-287.831C4917.32,-279.048 4929.33,-268.371 4940.05,-258.849"/>
<polygon fill="black" stroke="black" points="4942.42,-261.422 4947.57,-252.163 4937.77,-256.191 4942.42,-261.422"/>
</g>
<!-- 73 -->
<g id="node73" class="node"><title>73</title>
<polygon fill="none" stroke="black" points="5229,-252 5027,-252 5027,-216 5229,-216 5229,-252"/>
<text text-anchor="middle" x="5128" y="-229.4" font-family="Times New Roman,serif" font-size="14.00">SSL_X509_CERT_LOCATION</text>
</g>
<!-- 65&#45;&gt;73 -->
<g id="edge144" class="edge"><title>65&#45;&gt;73</title>
<path fill="none" stroke="black" d="M4930.07,-290.887C4933.09,-289.892 4936.08,-288.92 4939,-288 4975.73,-276.406 5016.8,-264.54 5051.26,-254.894"/>
<polygon fill="black" stroke="black" points="5052.57,-258.163 5061.26,-252.105 5050.68,-251.421 5052.57,-258.163"/>
</g>
<!-- 85 -->
<g id="node85" class="node"><title>85</title>
<polygon fill="none" stroke="black" points="5405,-252 5247,-252 5247,-216 5405,-216 5405,-252"/>
<text text-anchor="middle" x="5326" y="-229.4" font-family="Times New Roman,serif" font-size="14.00">SSL_CTX_MUTEXING</text>
</g>
<!-- 65&#45;&gt;85 -->
<g id="edge168" class="edge"><title>65&#45;&gt;85</title>
<path fill="none" stroke="black" d="M4930.21,-290.269C4933.16,-289.433 4936.11,-288.665 4939,-288 5066.24,-258.671 5104.04,-272.7 5236.76,-252.11"/>
<polygon fill="black" stroke="black" points="5237.58,-255.524 5246.9,-250.498 5236.48,-248.61 5237.58,-255.524"/>
</g>
<!-- 90 -->
<g id="node90" class="node"><title>90</title>
<polygon fill="none" stroke="black" points="5563,-252 5423,-252 5423,-216 5563,-216 5563,-252"/>
<text text-anchor="middle" x="5493" y="-229.4" font-family="Times New Roman,serif" font-size="14.00">SSL_EXPIRY_TIME</text>
</g>
<!-- 65&#45;&gt;90 -->
<g id="edge178" class="edge"><title>65&#45;&gt;90</title>
<path fill="none" stroke="black" d="M4930.18,-290.121C4933.14,-289.321 4936.1,-288.601 4939,-288 5143.07,-245.688 5202.8,-282.418 5412.78,-252.04"/>
<polygon fill="black" stroke="black" points="5413.51,-255.469 5422.89,-250.542 5412.49,-248.545 5413.51,-255.469"/>
</g>
<!-- 93 -->
<g id="node93" class="node"><title>93</title>
<polygon fill="none" stroke="black" points="5713,-252 5581,-252 5581,-216 5713,-216 5713,-252"/>
<text text-anchor="middle" x="5647" y="-229.4" font-family="Times New Roman,serif" font-size="14.00">SSL_MAX_CERTS</text>
</g>
<!-- 65&#45;&gt;93 -->
<g id="edge184" class="edge"><title>65&#45;&gt;93</title>
<path fill="none" stroke="black" d="M4930.16,-290.058C4933.13,-289.273 4936.09,-288.574 4939,-288 5212.21,-234.031 5291.37,-291.662 5570.84,-252.001"/>
<polygon fill="black" stroke="black" points="5571.48,-255.446 5580.87,-250.548 5570.47,-248.518 5571.48,-255.446"/>
</g>
<!-- 94 -->
<g id="node94" class="node"><title>94</title>
<polygon fill="none" stroke="black" points="5955,-252 5731,-252 5731,-216 5955,-216 5955,-252"/>
<text text-anchor="middle" x="5843" y="-229.4" font-family="Times New Roman,serif" font-size="14.00">SSL_ENABLE_V23_HANDSHAKE</text>
</g>
<!-- 65&#45;&gt;94 -->
<g id="edge186" class="edge"><title>65&#45;&gt;94</title>
<path fill="none" stroke="black" d="M4930.16,-290.021C4933.12,-289.245 4936.09,-288.558 4939,-288 5277.87,-222.972 5373.45,-284.479 5720.89,-252.036"/>
<polygon fill="black" stroke="black" points="5721.36,-255.507 5730.98,-251.074 5720.69,-248.539 5721.36,-255.507"/>
</g>
<!-- 96 -->
<g id="node96" class="node"><title>96</title>
<polygon fill="none" stroke="black" points="6137,-252 5973,-252 5973,-216 6137,-216 6137,-252"/>
<text text-anchor="middle" x="6055" y="-229.4" font-family="Times New Roman,serif" font-size="14.00">X509_MAX_CA_CERTS</text>
</g>
<!-- 65&#45;&gt;96 -->
<g id="edge190" class="edge"><title>65&#45;&gt;96</title>
<path fill="none" stroke="black" d="M4930.15,-289.985C4933.12,-289.217 4936.09,-288.542 4939,-288 5383.84,-205.131 5509.35,-302.941 5962.67,-252.033"/>
<polygon fill="black" stroke="black" points="5963.21,-255.493 5972.75,-250.882 5962.42,-248.538 5963.21,-255.493"/>
</g>
<!-- 102 -->
<g id="node102" class="node"><title>102</title>
<polygon fill="none" stroke="black" points="6329,-252 6155,-252 6155,-216 6329,-216 6329,-252"/>
<text text-anchor="middle" x="6242" y="-229.4" font-family="Times New Roman,serif" font-size="14.00">OPENSSL_COMPATIBLE</text>
</g>
<!-- 65&#45;&gt;102 -->
<g id="edge202" class="edge"><title>65&#45;&gt;102</title>
<path fill="none" stroke="black" d="M4930.15,-289.967C4933.12,-289.204 4936.09,-288.535 4939,-288 5199.71,-240.146 5862.76,-279.819 6144.69,-251.992"/>
<polygon fill="black" stroke="black" points="6145.38,-255.44 6154.97,-250.929 6144.66,-248.477 6145.38,-255.44"/>
</g>
<!-- 103 -->
<g id="node103" class="node"><title>103</title>
<polygon fill="none" stroke="black" points="6575,-252 6347,-252 6347,-216 6575,-216 6575,-252"/>
<text text-anchor="middle" x="6461" y="-229.4" font-family="Times New Roman,serif" font-size="14.00">SSL_PRIVATE_KEY_PASSWORD</text>
</g>
<!-- 65&#45;&gt;103 -->
<g id="edge204" class="edge"><title>65&#45;&gt;103</title>
<path fill="none" stroke="black" d="M4930.14,-289.953C4933.12,-289.193 4936.09,-288.529 4939,-288 5241.71,-233.077 6011.37,-277.585 6336.38,-252.042"/>
<polygon fill="black" stroke="black" points="6337.12,-255.493 6346.8,-251.185 6336.55,-248.516 6337.12,-255.493"/>
</g>
<!-- 67&#45;&gt;8 -->
<g id="edge16" class="edge"><title>67&#45;&gt;8</title>
<path fill="none" stroke="black" d="M726.309,-215.831C729.012,-208.046 732.232,-198.773 735.231,-190.135"/>
<polygon fill="black" stroke="black" points="738.633,-191.008 738.607,-180.413 732.02,-188.712 738.633,-191.008"/>
</g>
<!-- 70 -->
<g id="node70" class="node"><title>70</title>
<polygon fill="none" stroke="black" points="7269,-252 7205,-252 7205,-216 7269,-216 7269,-252"/>
<text text-anchor="middle" x="7237" y="-229.4" font-family="Times New Roman,serif" font-size="14.00">PREFIX</text>
</g>
<!-- 82 -->
<g id="node82" class="node"><title>82</title>
<polygon fill="none" stroke="black" points="2580,-180 2460,-180 2460,-144 2580,-144 2580,-180"/>
<text text-anchor="middle" x="2520" y="-157.4" font-family="Times New Roman,serif" font-size="14.00">HTTP_HAS_CGI</text>
</g>
<!-- 71&#45;&gt;82 -->
<g id="edge162" class="edge"><title>71&#45;&gt;82</title>
<path fill="none" stroke="black" d="M2520,-215.831C2520,-208.131 2520,-198.974 2520,-190.417"/>
<polygon fill="black" stroke="black" points="2523.5,-190.413 2520,-180.413 2516.5,-190.413 2523.5,-190.413"/>
</g>
<!-- 82&#45;&gt;38 -->
<g id="edge74" class="edge"><title>82&#45;&gt;38</title>
<path fill="none" stroke="black" d="M2497.04,-143.831C2485.83,-134.963 2472.18,-124.164 2460.06,-114.572"/>
<polygon fill="black" stroke="black" points="2461.97,-111.623 2451.96,-108.163 2457.63,-117.112 2461.97,-111.623"/>
</g>
<!-- 82&#45;&gt;58 -->
<g id="edge114" class="edge"><title>82&#45;&gt;58</title>
<path fill="none" stroke="black" d="M2542.71,-143.831C2553.8,-134.963 2567.3,-124.164 2579.29,-114.572"/>
<polygon fill="black" stroke="black" points="2581.67,-117.143 2587.3,-108.163 2577.3,-111.677 2581.67,-117.143"/>
</g>
<!-- 84 -->
<g id="node84" class="node"><title>84</title>
<polygon fill="none" stroke="black" points="7486,-180 7418,-180 7418,-144 7486,-144 7486,-180"/>
<text text-anchor="middle" x="7452" y="-157.4" font-family="Times New Roman,serif" font-size="14.00">Compiler</text>
</g>
<!-- 84&#45;&gt;50 -->
<g id="edge98" class="edge"><title>84&#45;&gt;50</title>
<path fill="none" stroke="black" d="M7430.3,-143.831C7419.81,-135.048 7407.05,-124.371 7395.68,-114.849"/>
<polygon fill="black" stroke="black" points="7397.61,-111.899 7387.69,-108.163 7393.12,-117.266 7397.61,-111.899"/>
</g>
<!-- 84&#45;&gt;62 -->
<g id="edge122" class="edge"><title>84&#45;&gt;62</title>
<path fill="none" stroke="black" d="M7473.7,-143.831C7484.19,-135.048 7496.95,-124.371 7508.32,-114.849"/>
<polygon fill="black" stroke="black" points="7510.88,-117.266 7516.31,-108.163 7506.39,-111.899 7510.88,-117.266"/>
</g>
<!-- 88&#45;&gt;23 -->
<g id="edge44" class="edge"><title>88&#45;&gt;23</title>
<path fill="none" stroke="black" d="M5911.1,-304.716C6028.37,-299.848 6434.01,-281.4 6583.03,-251.791"/>
<polygon fill="black" stroke="black" points="6583.81,-255.203 6592.89,-249.732 6582.38,-248.35 6583.81,-255.203"/>
</g>
<!-- 107 -->
<g id="node107" class="node"><title>107</title>
<polygon fill="none" stroke="black" points="506,-108 408,-108 408,-72 506,-72 506,-108"/>
<text text-anchor="middle" x="457" y="-85.4" font-family="Times New Roman,serif" font-size="14.00">JAVA_HOME</text>
</g>
<!-- 89&#45;&gt;107 -->
<g id="edge212" class="edge"><title>89&#45;&gt;107</title>
<path fill="none" stroke="black" d="M457,-143.831C457,-136.131 457,-126.974 457,-118.417"/>
<polygon fill="black" stroke="black" points="460.5,-118.413 457,-108.413 453.5,-118.413 460.5,-118.413"/>
</g>
<!-- 95&#45;&gt;9 -->
<g id="edge18" class="edge"><title>95&#45;&gt;9</title>
<path fill="none" stroke="black" d="M7008.93,-288.663C6967.26,-278.353 6914.18,-265.221 6870.5,-254.412"/>
<polygon fill="black" stroke="black" points="6871.31,-251.006 6860.76,-252.002 6869.62,-257.801 6871.31,-251.006"/>
</g>
<!-- 95&#45;&gt;34 -->
<g id="edge66" class="edge"><title>95&#45;&gt;34</title>
<path fill="none" stroke="black" d="M7060.07,-287.831C7051.01,-279.134 7040.02,-268.578 7030.17,-259.127"/>
<polygon fill="black" stroke="black" points="7032.56,-256.563 7022.92,-252.163 7027.71,-261.613 7032.56,-256.563"/>
</g>
<!-- 95&#45;&gt;57 -->
<g id="edge112" class="edge"><title>95&#45;&gt;57</title>
<path fill="none" stroke="black" d="M7098.18,-287.831C7107.36,-279.134 7118.5,-268.578 7128.48,-259.127"/>
<polygon fill="black" stroke="black" points="7130.98,-261.581 7135.83,-252.163 7126.16,-256.499 7130.98,-261.581"/>
</g>
<!-- 95&#45;&gt;70 -->
<g id="edge138" class="edge"><title>95&#45;&gt;70</title>
<path fill="none" stroke="black" d="M7118.87,-287.831C7142.36,-277.129 7172.01,-263.614 7195.74,-252.804"/>
<polygon fill="black" stroke="black" points="7197.19,-255.986 7204.84,-248.654 7194.29,-249.616 7197.19,-255.986"/>
</g>
<!-- 101 -->
<g id="node101" class="node"><title>101</title>
<polygon fill="none" stroke="black" points="7502,-252 7326,-252 7326,-216 7502,-216 7502,-252"/>
<text text-anchor="middle" x="7414" y="-229.4" font-family="Times New Roman,serif" font-size="14.00">Microsoft Compiler Options</text>
</g>
<!-- 95&#45;&gt;101 -->
<g id="edge200" class="edge"><title>95&#45;&gt;101</title>
<path fill="none" stroke="black" d="M7149.23,-290.906C7198.9,-280.231 7266.03,-265.802 7320.27,-254.145"/>
<polygon fill="black" stroke="black" points="7321.2,-257.525 7330.24,-252.002 7319.73,-250.682 7321.2,-257.525"/>
</g>
<!-- 97 -->
<g id="node97" class="node"><title>97</title>
<polygon fill="none" stroke="black" points="8534,-252 8406,-252 8406,-216 8534,-216 8534,-252"/>
<text text-anchor="middle" x="8470" y="-229.4" font-family="Times New Roman,serif" font-size="14.00">BIGINT_SQUARE</text>
</g>
<!-- 101&#45;&gt;25 -->
<g id="edge48" class="edge"><title>101&#45;&gt;25</title>
<path fill="none" stroke="black" d="M7385.74,-215.831C7371.54,-206.707 7354.17,-195.539 7338.94,-185.745"/>
<polygon fill="black" stroke="black" points="7340.56,-182.626 7330.25,-180.163 7336.77,-188.515 7340.56,-182.626"/>
</g>
<!-- 101&#45;&gt;84 -->
<g id="edge166" class="edge"><title>101&#45;&gt;84</title>
<path fill="none" stroke="black" d="M7423.59,-215.831C7427.83,-207.792 7432.91,-198.167 7437.6,-189.292"/>
<polygon fill="black" stroke="black" points="7440.71,-190.891 7442.28,-180.413 7434.52,-187.623 7440.71,-190.891"/>
</g>
<!-- 105 -->
<g id="node105" class="node"><title>105</title>
<polygon fill="none" stroke="black" points="7700,-180 7504,-180 7504,-144 7700,-144 7700,-180"/>
<text text-anchor="middle" x="7602" y="-157.4" font-family="Times New Roman,serif" font-size="14.00">VISUAL_STUDIO_8_0_BASE</text>
</g>
<!-- 101&#45;&gt;105 -->
<g id="edge208" class="edge"><title>101&#45;&gt;105</title>
<path fill="none" stroke="black" d="M7461.44,-215.831C7486.92,-206.073 7518.5,-193.977 7545.28,-183.724"/>
<polygon fill="black" stroke="black" points="7546.81,-186.883 7554.9,-180.038 7544.31,-180.346 7546.81,-186.883"/>
</g>
<!-- 106&#45;&gt;13 -->
<g id="edge26" class="edge"><title>106&#45;&gt;13</title>
<path fill="none" stroke="black" d="M7933.97,-294.272C7888.96,-283.506 7821.29,-267.318 7767.41,-254.429"/>
<polygon fill="black" stroke="black" points="7768.05,-250.986 7757.51,-252.063 7766.42,-257.793 7768.05,-250.986"/>
</g>
<!-- 106&#45;&gt;18 -->
<g id="edge34" class="edge"><title>106&#45;&gt;18</title>
<path fill="none" stroke="black" d="M7948.93,-287.831C7931.35,-278.452 7909.71,-266.911 7890.98,-256.924"/>
<polygon fill="black" stroke="black" points="7892.53,-253.781 7882.06,-252.163 7889.23,-259.957 7892.53,-253.781"/>
</g>
<!-- 106&#45;&gt;41 -->
<g id="edge80" class="edge"><title>106&#45;&gt;41</title>
<path fill="none" stroke="black" d="M7983,-287.831C7983,-280.131 7983,-270.974 7983,-262.417"/>
<polygon fill="black" stroke="black" points="7986.5,-262.413 7983,-252.413 7979.5,-262.413 7986.5,-262.413"/>
</g>
<!-- 106&#45;&gt;45 -->
<g id="edge88" class="edge"><title>106&#45;&gt;45</title>
<path fill="none" stroke="black" d="M8022.87,-287.831C8043.91,-278.245 8069.9,-266.401 8092.14,-256.266"/>
<polygon fill="black" stroke="black" points="8093.77,-259.37 8101.42,-252.038 8090.87,-253 8093.77,-259.37"/>
</g>
<!-- 106&#45;&gt;46 -->
<g id="edge90" class="edge"><title>106&#45;&gt;46</title>
<path fill="none" stroke="black" d="M8032.31,-295.143C8082.42,-284.109 8161.12,-266.782 8221.96,-253.386"/>
<polygon fill="black" stroke="black" points="8222.93,-256.755 8231.94,-251.187 8221.42,-249.919 8222.93,-256.755"/>
</g>
<!-- 106&#45;&gt;97 -->
<g id="edge192" class="edge"><title>106&#45;&gt;97</title>
<path fill="none" stroke="black" d="M8032.04,-301.401C8108,-293.884 8258.82,-277.392 8396.13,-252.052"/>
<polygon fill="black" stroke="black" points="8396.81,-255.487 8405.99,-250.212 8395.52,-248.606 8396.81,-255.487"/>
</g>
</g>
</svg>
