digraph {
graph [rankdir=TB]
node [shape=box]
1[label="Language Bindings"]
2[label="HTTP_SESSION_CACHE_SIZE"]
3[label="PERFORMANCE_TESTING"]
4[label="SSL_PROT_MEDIUM"]
5[label="WIN32_USE_CRYPTO_LIB"]
6[label="VBNET_BINDINGS"]
7[label="Axhttpd Configuration"]
8[label="DOT_NET_FRAMEWORK_BASE"]
9[label="EXTRA_CFLAGS_OPTIONS"]
10[label="USE_DEV_URANDOM"]
11[label="Perl Home"]
12[label="JAVA_SAMPLES"]
13[label="BIGINT_SLIDING_WINDOW"]
14[label="axTLS"]
15[label="HTTP_DIRECTORIES"]
16[label="SSL_SERVER_ONLY"]
17[label="HTTP_IS_DAEMON"]
18[label="BIGINT_CRT"]
19[label="SSL_CERT_VERIFICATION"]
20[label="HTTP_ENABLE_DIFFERENT_USER"]
21[label="KARATSUBA_THRESH"]
22[label="HTTP_HTTPS_PORT"]
23[label="SAMPLES"]
24[label="Platform"]
25[label="VISUAL_STUDIO_7_0_BASE"]
26[label="HTTP_WEBROOT"]
27[label="LUA_BINDINGS"]
28[label="BINDINGS"]
29[label="PERL_CORE"]
30[label="HTTP_BUILD_LUA"]
31[label="SSL_HAS_PEM"]
32[label="HTTP_USER"]
33[label="PERL_SAMPLES"]
34[label="EXTRA_LDFLAGS_OPTIONS"]
35[label="Lua Home"]
36[label="CSHARP_BINDINGS"]
37[label="PLATFORM_CYGWIN"]
38[label="HTTP_CGI_EXTENSIONS"]
39[label="LUA_CORE"]
40[label="SSL_PROT_HIGH"]
41[label="Reduction Algorithm"]
42[label="PLATFORM_WIN32"]
43[label="Protocol Preference"]
44[label="Mode"]
45[label="BIGINT_CHECK_ON"]
46[label="BIGINT_KARATSUBA"]
47[label="HTTP_STATIC_BUILD"]
48[label="SSL_USE_PKCS12"]
49[label="BIGINT_MONTGOMERY"]
50[label="VISUAL_STUDIO_7_0"]
51[label="SSL_USE_DEFAULT_KEY"]
52[label="HTTP_HAS_IPV6"]
53[label="JAVA_BINDINGS"]
54[label="KARATSUBA_THRESH"]
55[label="PERL_BINDINGS"]
56[label="SSL_GENERATE_X509_CERT"]
57[label="DEBUG"]
58[label="HTTP_ENABLE_LUA"]
59[label="BIGINT_CLASSICAL"]
60[label="SSL_PRIVATE_KEY_LOCATION"]
61[label="HTTP_VERBOSE"]
62[label="VISUAL_STUDIO_8_0"]
63[label="SSL_TEST"]
64[label="AXTLSWRAP"]
65[label="SSL Library"]
66[label="HTTP_PORT"]
67[label=".Net Framework"]
68[label="AXHTTPD"]
69[label="PERL_LIB"]
70[label="PREFIX"]
71[label="CGI"]
72[label="PLATFORM_LINUX"]
73[label="SSL_X509_CERT_LOCATION"]
74[label="HTTP_TIMEOUT"]
75[label="SSL_SKELETON_MODE"]
76[label="HTTP_LUA_CGI_LAUNCHER"]
77[label="VBNET_SAMPLES"]
78[label="HTTP_LUA_PREFIX"]
79[label="SSL_X509_ORGANIZATION_NAME"]
80[label="SSL_X509_COMMON_NAME"]
81[label="BIGINT_BARRETT"]
82[label="HTTP_HAS_CGI"]
83[label="SSL_PROT_LOW"]
84[label="Compiler"]
85[label="SSL_CTX_MUTEXING"]
86[label="HTTP_HAS_AUTHORIZATION"]
87[label="DOT_CONFIG"]
88[label="Samples"]
89[label="Java Home"]
90[label="SSL_EXPIRY_TIME"]
91[label="CSHARP_SAMPLES"]
92[label="SSL_ENABLE_CLIENT"]
93[label="SSL_MAX_CERTS"]
94[label="SSL_ENABLE_V23_HANDSHAKE"]
95[label="General Configuration"]
96[label="X509_MAX_CA_CERTS"]
97[label="BIGINT_SQUARE"]
98[label="SSL_FULL_MODE"]
99[label="C_SAMPLES"]
100[label="STRIP_UNWANTED_SECTIONS"]
101[label="Microsoft Compiler Options"]
102[label="OPENSSL_COMPATIBLE"]
103[label="SSL_PRIVATE_KEY_PASSWORD"]
104[label="SSL_X509_ORGANIZATION_UNIT_NAME"]
105[label="VISUAL_STUDIO_8_0_BASE"]
106[label="BigInt Options"]
107[label="JAVA_HOME"]
108[label="LUA_SAMPLES"]
14->1
7->2
65->3
43->4
65->5
28->6
14->7
67->8
95->9
65->10
55->11
23->12
106->13
7->15
44->16
7->17
106->18
44->19
7->20
46->21
7->22
88->23
14->24
101->25
7->26
1->27
1->28
11->29
58->30
65->31
20->32
23->33
95->34
27->35
28->36
24->37
82->38
35->39
43->40
106->41
24->42
65->43
65->44
106->45
106->46
7->47
65->48
41->49
84->50
65->51
7->52
1->53
46->54
1->55
65->56
95->57
82->58
41->59
51->60
7->61
84->62
65->63
14->64
14->65
7->66
1->67
14->68
11->69
95->70
7->71
24->72
65->73
7->74
44->75
58->76
23->77
58->78
56->79
56->80
41->81
71->82
43->83
101->84
65->85
7->86
14->87
14->88
53->89
65->90
23->91
44->92
65->93
65->94
14->95
65->96
106->97
44->98
23->99
57->100
95->101
65->102
65->103
56->104
101->105
14->106
89->107
23->108
}
