<?xml version="1.0" encoding="UTF-8" standalone="no"?>
<!DOCTYPE svg PUBLIC "-//W3C//DTD SVG 1.1//EN"
 "http://www.w3.org/Graphics/SVG/1.1/DTD/svg11.dtd">
<!-- Generated by graphviz version 2.26.3 (20100126.1600)
 -->
<!-- Title: _anonymous_0 Pages: 1 -->
<svg width="9290pt" height="260pt"
 viewBox="0.00 0.00 9290.00 260.00" xmlns="http://www.w3.org/2000/svg" xmlns:xlink="http://www.w3.org/1999/xlink">
<g id="graph1" class="graph" transform="scale(1 1) rotate(0) translate(4 256)">
<title>_anonymous_0</title>
<polygon fill="white" stroke="white" points="-4,5 -4,-256 9287,-256 9287,5 -4,5"/>
<!-- 1 -->
<g id="node1" class="node"><title>1</title>
<polygon fill="none" stroke="black" points="7132,-36 7078,-36 7078,-1.06581e-014 7132,-0 7132,-36"/>
<text text-anchor="middle" x="7105" y="-13.4" font-family="Times New Roman,serif" font-size="14.00">WFQ</text>
</g>
<!-- 2 -->
<g id="node2" class="node"><title>2</title>
<polygon fill="none" stroke="black" points="4932,-36 4878,-36 4878,-1.06581e-014 4932,-0 4932,-36"/>
<text text-anchor="middle" x="4905" y="-13.4" font-family="Times New Roman,serif" font-size="14.00">486</text>
</g>
<!-- 3 -->
<g id="node3" class="node"><title>3</title>
<polygon fill="none" stroke="black" points="7478,-36 7386,-36 7386,-1.06581e-014 7478,-0 7478,-36"/>
<text text-anchor="middle" x="7432" y="-13.4" font-family="Times New Roman,serif" font-size="14.00">MAX_CPUS</text>
</g>
<!-- 4 -->
<g id="node4" class="node"><title>4</title>
<polygon fill="none" stroke="black" points="320,-36 264,-36 264,-1.06581e-014 320,-0 320,-36"/>
<text text-anchor="middle" x="292" y="-13.4" font-family="Times New Roman,serif" font-size="14.00">OMAP</text>
</g>
<!-- 5 -->
<g id="node5" class="node"><title>5</title>
<polygon fill="none" stroke="black" points="5048,-36 4950,-36 4950,-1.06581e-014 5048,-0 5048,-36"/>
<text text-anchor="middle" x="4999" y="-13.4" font-family="Times New Roman,serif" font-size="14.00">CORTEX_A9</text>
</g>
<!-- 6 -->
<g id="node6" class="node"><title>6</title>
<polygon fill="none" stroke="black" points="6580,-108 6526,-108 6526,-72 6580,-72 6580,-108"/>
<text text-anchor="middle" x="6553" y="-85.4" font-family="Times New Roman,serif" font-size="14.00">4K</text>
</g>
<!-- 7 -->
<g id="node7" class="node"><title>7</title>
<polygon fill="none" stroke="black" points="339,-180 265,-180 265,-144 339,-144 339,-180"/>
<text text-anchor="middle" x="302" y="-157.4" font-family="Times New Roman,serif" font-size="14.00">Compiling</text>
</g>
<!-- 40 -->
<g id="node40" class="node"><title>40</title>
<polygon fill="none" stroke="black" points="54,-108 1.42109e-014,-108 0,-72 54,-72 54,-108"/>
<text text-anchor="middle" x="27" y="-85.4" font-family="Times New Roman,serif" font-size="14.00">CXX</text>
</g>
<!-- 7&#45;&gt;40 -->
<g id="edge78" class="edge"><title>7&#45;&gt;40</title>
<path fill="none" stroke="black" d="M264.778,-156.455C219.044,-149.024 139.2,-134.041 63.8573,-107.879"/>
<polygon fill="black" stroke="black" points="64.8126,-104.504 54.2179,-104.461 62.4729,-111.102 64.8126,-104.504"/>
</g>
<!-- 51 -->
<g id="node51" class="node"><title>51</title>
<polygon fill="none" stroke="black" points="126,-108 72,-108 72,-72 126,-72 126,-108"/>
<text text-anchor="middle" x="99" y="-85.4" font-family="Times New Roman,serif" font-size="14.00">CC</text>
</g>
<!-- 7&#45;&gt;51 -->
<g id="edge100" class="edge"><title>7&#45;&gt;51</title>
<path fill="none" stroke="black" d="M264.942,-151.764C232.788,-142.5 184.948,-127.795 135.829,-108.07"/>
<polygon fill="black" stroke="black" points="136.902,-104.727 126.32,-104.193 134.259,-111.209 136.902,-104.727"/>
</g>
<!-- 61 -->
<g id="node61" class="node"><title>61</title>
<polygon fill="none" stroke="black" points="200,-108 144,-108 144,-72 200,-72 200,-108"/>
<text text-anchor="middle" x="172" y="-85.4" font-family="Times New Roman,serif" font-size="14.00">MODE</text>
</g>
<!-- 7&#45;&gt;61 -->
<g id="edge120" class="edge"><title>7&#45;&gt;61</title>
<path fill="none" stroke="black" d="M269.196,-143.831C250.967,-133.736 228.219,-121.137 209.314,-110.666"/>
<polygon fill="black" stroke="black" points="210.822,-107.501 200.378,-105.717 207.431,-113.624 210.822,-107.501"/>
</g>
<!-- 91 -->
<g id="node91" class="node"><title>91</title>
<polygon fill="none" stroke="black" points="298,-108 218,-108 218,-72 298,-72 298,-108"/>
<text text-anchor="middle" x="258" y="-85.4" font-family="Times New Roman,serif" font-size="14.00">VERBOSE</text>
</g>
<!-- 7&#45;&gt;91 -->
<g id="edge180" class="edge"><title>7&#45;&gt;91</title>
<path fill="none" stroke="black" d="M290.897,-143.831C285.933,-135.708 279.978,-125.964 274.507,-117.012"/>
<polygon fill="black" stroke="black" points="277.454,-115.121 269.253,-108.413 271.481,-118.771 277.454,-115.121"/>
</g>
<!-- 94 -->
<g id="node94" class="node"><title>94</title>
<polygon fill="none" stroke="black" points="376,-108 316,-108 316,-72 376,-72 376,-108"/>
<text text-anchor="middle" x="346" y="-85.4" font-family="Times New Roman,serif" font-size="14.00">LABEL</text>
</g>
<!-- 7&#45;&gt;94 -->
<g id="edge186" class="edge"><title>7&#45;&gt;94</title>
<path fill="none" stroke="black" d="M313.103,-143.831C318.067,-135.708 324.022,-125.964 329.493,-117.012"/>
<polygon fill="black" stroke="black" points="332.519,-118.771 334.747,-108.413 326.546,-115.121 332.519,-118.771"/>
</g>
<!-- 103 -->
<g id="node103" class="node"><title>103</title>
<polygon fill="none" stroke="black" points="448,-108 394,-108 394,-72 448,-72 448,-108"/>
<text text-anchor="middle" x="421" y="-85.4" font-family="Times New Roman,serif" font-size="14.00">CXX</text>
</g>
<!-- 7&#45;&gt;103 -->
<g id="edge204" class="edge"><title>7&#45;&gt;103</title>
<path fill="none" stroke="black" d="M332.029,-143.831C348.211,-134.04 368.285,-121.895 385.268,-111.62"/>
<polygon fill="black" stroke="black" points="387.086,-114.611 393.83,-106.439 383.462,-108.621 387.086,-114.611"/>
</g>
<!-- 111 -->
<g id="node111" class="node"><title>111</title>
<polygon fill="none" stroke="black" points="520,-108 466,-108 466,-72 520,-72 520,-108"/>
<text text-anchor="middle" x="493" y="-85.4" font-family="Times New Roman,serif" font-size="14.00">CC</text>
</g>
<!-- 7&#45;&gt;111 -->
<g id="edge220" class="edge"><title>7&#45;&gt;111</title>
<path fill="none" stroke="black" d="M339.145,-150.544C368.82,-141.063 411.541,-126.683 456.362,-108.041"/>
<polygon fill="black" stroke="black" points="457.796,-111.235 465.652,-104.128 455.078,-104.784 457.796,-111.235"/>
</g>
<!-- 8 -->
<g id="node8" class="node"><title>8</title>
<polygon fill="none" stroke="black" points="1830,-36 1656,-36 1656,-1.06581e-014 1830,-0 1830,-36"/>
<text text-anchor="middle" x="1743" y="-13.4" font-family="Times New Roman,serif" font-size="14.00">OMAP3_BEAGLEBOARD</text>
</g>
<!-- 9 -->
<g id="node9" class="node"><title>9</title>
<polygon fill="none" stroke="black" points="3093,-180 3039,-180 3039,-144 3093,-144 3093,-180"/>
<text text-anchor="middle" x="3066" y="-157.4" font-family="Times New Roman,serif" font-size="14.00">V6</text>
</g>
<!-- 10 -->
<g id="node10" class="node"><title>10</title>
<polygon fill="none" stroke="black" points="658,-108 538,-108 538,-72 658,-72 658,-108"/>
<text text-anchor="middle" x="598" y="-85.4" font-family="Times New Roman,serif" font-size="14.00">ARM_CPU_920T</text>
</g>
<!-- 11 -->
<g id="node11" class="node"><title>11</title>
<polygon fill="none" stroke="black" points="2204,-36 2150,-36 2150,-1.06581e-014 2204,-0 2204,-36"/>
<text text-anchor="middle" x="2177" y="-13.4" font-family="Times New Roman,serif" font-size="14.00">RTC</text>
</g>
<!-- 12 -->
<g id="node12" class="node"><title>12</title>
<polygon fill="none" stroke="black" points="3165,-180 3111,-180 3111,-144 3165,-144 3165,-180"/>
<text text-anchor="middle" x="3138" y="-157.4" font-family="Times New Roman,serif" font-size="14.00">V7</text>
</g>
<!-- 13 -->
<g id="node13" class="node"><title>13</title>
<polygon fill="none" stroke="black" points="3751,-252 3697,-252 3697,-216 3751,-216 3751,-252"/>
<text text-anchor="middle" x="3724" y="-229.4" font-family="Times New Roman,serif" font-size="14.00">Fiasco</text>
</g>
<!-- 13&#45;&gt;7 -->
<g id="edge14" class="edge"><title>13&#45;&gt;7</title>
<path fill="none" stroke="black" d="M3696.95,-233.431C3399.26,-227.167 736.941,-171.151 349.057,-162.99"/>
<polygon fill="black" stroke="black" points="349.092,-159.49 339.02,-162.779 348.944,-166.489 349.092,-159.49"/>
</g>
<!-- 13&#45;&gt;9 -->
<g id="edge18" class="edge"><title>13&#45;&gt;9</title>
<path fill="none" stroke="black" d="M3696.65,-232.991C3594.58,-229.018 3235.38,-213.152 3102.97,-179.533"/>
<polygon fill="black" stroke="black" points="3103.65,-176.093 3093.09,-176.869 3101.83,-182.852 3103.65,-176.093"/>
</g>
<!-- 13&#45;&gt;12 -->
<g id="edge24" class="edge"><title>13&#45;&gt;12</title>
<path fill="none" stroke="black" d="M3696.89,-232.648C3603.15,-227.774 3292.44,-209.929 3174.87,-179.525"/>
<polygon fill="black" stroke="black" points="3175.67,-176.114 3165.1,-176.835 3173.81,-182.863 3175.67,-176.114"/>
</g>
<!-- 15 -->
<g id="node15" class="node"><title>15</title>
<polygon fill="none" stroke="black" points="3237,-180 3183,-180 3183,-144 3237,-144 3237,-180"/>
<text text-anchor="middle" x="3210" y="-157.4" font-family="Times New Roman,serif" font-size="14.00">BIT64</text>
</g>
<!-- 13&#45;&gt;15 -->
<g id="edge28" class="edge"><title>13&#45;&gt;15</title>
<path fill="none" stroke="black" d="M3696.85,-232.188C3611.62,-226.309 3349.44,-206.736 3246.82,-179.533"/>
<polygon fill="black" stroke="black" points="3247.69,-176.141 3237.11,-176.79 3245.78,-182.877 3247.69,-176.141"/>
</g>
<!-- 32 -->
<g id="node32" class="node"><title>32</title>
<polygon fill="none" stroke="black" points="3385,-180 3255,-180 3255,-144 3385,-144 3385,-180"/>
<text text-anchor="middle" x="3320" y="-157.4" font-family="Times New Roman,serif" font-size="14.00">KERNELVERSION</text>
</g>
<!-- 13&#45;&gt;32 -->
<g id="edge62" class="edge"><title>13&#45;&gt;32</title>
<path fill="none" stroke="black" d="M3696.92,-230.285C3641.94,-222.588 3513.09,-203.775 3395.22,-180.174"/>
<polygon fill="black" stroke="black" points="3395.8,-176.721 3385.31,-178.173 3394.42,-183.583 3395.8,-176.721"/>
</g>
<!-- 33 -->
<g id="node33" class="node"><title>33</title>
<polygon fill="none" stroke="black" points="3533,-180 3403,-180 3403,-144 3533,-144 3533,-180"/>
<text text-anchor="middle" x="3468" y="-157.4" font-family="Times New Roman,serif" font-size="14.00">Target configuration</text>
</g>
<!-- 13&#45;&gt;33 -->
<g id="edge64" class="edge"><title>13&#45;&gt;33</title>
<path fill="none" stroke="black" d="M3696.6,-226.295C3660.01,-216.002 3593.77,-197.374 3541.99,-182.809"/>
<polygon fill="black" stroke="black" points="3542.74,-179.385 3532.17,-180.047 3540.84,-186.123 3542.74,-179.385"/>
</g>
<!-- 37 -->
<g id="node37" class="node"><title>37</title>
<polygon fill="none" stroke="black" points="3605,-180 3551,-180 3551,-144 3605,-144 3605,-180"/>
<text text-anchor="middle" x="3578" y="-157.4" font-family="Times New Roman,serif" font-size="14.00">CNT</text>
</g>
<!-- 13&#45;&gt;37 -->
<g id="edge72" class="edge"><title>13&#45;&gt;37</title>
<path fill="none" stroke="black" d="M3696.85,-220.74C3676.4,-210.736 3647.45,-196.547 3614.15,-180.059"/>
<polygon fill="black" stroke="black" points="3615.63,-176.888 3605.12,-175.585 3612.52,-183.16 3615.63,-176.888"/>
</g>
<!-- 42 -->
<g id="node42" class="node"><title>42</title>
<polygon fill="none" stroke="black" points="3677,-180 3623,-180 3623,-144 3677,-144 3677,-180"/>
<text text-anchor="middle" x="3650" y="-157.4" font-family="Times New Roman,serif" font-size="14.00">BIT32</text>
</g>
<!-- 13&#45;&gt;42 -->
<g id="edge82" class="edge"><title>13&#45;&gt;42</title>
<path fill="none" stroke="black" d="M3705.33,-215.831C3696.48,-207.219 3685.75,-196.785 3676.11,-187.405"/>
<polygon fill="black" stroke="black" points="3678.28,-184.628 3668.67,-180.163 3673.39,-189.645 3678.28,-184.628"/>
</g>
<!-- 55 -->
<g id="node55" class="node"><title>55</title>
<polygon fill="none" stroke="black" points="3753,-180 3695,-180 3695,-144 3753,-144 3753,-180"/>
<text text-anchor="middle" x="3724" y="-157.4" font-family="Times New Roman,serif" font-size="14.00">LEVEL</text>
</g>
<!-- 13&#45;&gt;55 -->
<g id="edge108" class="edge"><title>13&#45;&gt;55</title>
<path fill="none" stroke="black" d="M3724,-215.831C3724,-208.131 3724,-198.974 3724,-190.417"/>
<polygon fill="black" stroke="black" points="3727.5,-190.413 3724,-180.413 3720.5,-190.413 3727.5,-190.413"/>
</g>
<!-- 58 -->
<g id="node58" class="node"><title>58</title>
<polygon fill="none" stroke="black" points="3827,-180 3771,-180 3771,-144 3827,-144 3827,-180"/>
<text text-anchor="middle" x="3799" y="-157.4" font-family="Times New Roman,serif" font-size="14.00">PPC32</text>
</g>
<!-- 13&#45;&gt;58 -->
<g id="edge114" class="edge"><title>13&#45;&gt;58</title>
<path fill="none" stroke="black" d="M3742.93,-215.831C3751.99,-207.134 3762.98,-196.578 3772.83,-187.127"/>
<polygon fill="black" stroke="black" points="3775.29,-189.613 3780.08,-180.163 3770.44,-184.563 3775.29,-189.613"/>
</g>
<!-- 70 -->
<g id="node70" class="node"><title>70</title>
<polygon fill="none" stroke="black" points="3967,-180 3845,-180 3845,-144 3967,-144 3967,-180"/>
<text text-anchor="middle" x="3906" y="-157.4" font-family="Times New Roman,serif" font-size="14.00">EXPERIMENTAL</text>
</g>
<!-- 13&#45;&gt;70 -->
<g id="edge138" class="edge"><title>13&#45;&gt;70</title>
<path fill="none" stroke="black" d="M3751.25,-223.221C3777.42,-212.866 3817.74,-196.918 3850.66,-183.895"/>
<polygon fill="black" stroke="black" points="3852.16,-187.065 3860.17,-180.132 3849.58,-180.556 3852.16,-187.065"/>
</g>
<!-- 75 -->
<g id="node75" class="node"><title>75</title>
<polygon fill="none" stroke="black" points="4049,-180 3985,-180 3985,-144 4049,-144 4049,-180"/>
<text text-anchor="middle" x="4017" y="-157.4" font-family="Times New Roman,serif" font-size="14.00">XARCH</text>
</g>
<!-- 13&#45;&gt;75 -->
<g id="edge148" class="edge"><title>13&#45;&gt;75</title>
<path fill="none" stroke="black" d="M3751.32,-230.008C3796.4,-223.028 3889.15,-206.998 3974.94,-180.032"/>
<polygon fill="black" stroke="black" points="3976.1,-183.335 3984.56,-176.953 3973.97,-176.669 3976.1,-183.335"/>
</g>
<!-- 86 -->
<g id="node86" class="node"><title>86</title>
<polygon fill="none" stroke="black" points="4121,-180 4067,-180 4067,-144 4121,-144 4121,-180"/>
<text text-anchor="middle" x="4094" y="-157.4" font-family="Times New Roman,serif" font-size="14.00">ABI</text>
</g>
<!-- 13&#45;&gt;86 -->
<g id="edge170" class="edge"><title>13&#45;&gt;86</title>
<path fill="none" stroke="black" d="M3751.06,-232.407C3807.17,-228.523 3940.06,-216.301 4057.02,-179.784"/>
<polygon fill="black" stroke="black" points="4058.38,-183.023 4066.85,-176.646 4056.25,-176.354 4058.38,-183.023"/>
</g>
<!-- 112 -->
<g id="node112" class="node"><title>112</title>
<polygon fill="none" stroke="black" points="4211,-180 4139,-180 4139,-144 4211,-144 4211,-180"/>
<text text-anchor="middle" x="4175" y="-157.4" font-family="Times New Roman,serif" font-size="14.00">TARGET</text>
</g>
<!-- 13&#45;&gt;112 -->
<g id="edge222" class="edge"><title>13&#45;&gt;112</title>
<path fill="none" stroke="black" d="M3751.05,-232.721C3815.41,-229.192 3982.63,-217.159 4128.87,-179.936"/>
<polygon fill="black" stroke="black" points="4130.11,-183.229 4138.91,-177.33 4128.35,-176.454 4130.11,-183.229"/>
</g>
<!-- 127 -->
<g id="node127" class="node"><title>127</title>
<polygon fill="none" stroke="black" points="6984,-180 6886,-180 6886,-144 6984,-144 6984,-180"/>
<text text-anchor="middle" x="6935" y="-157.4" font-family="Times New Roman,serif" font-size="14.00">Kernel options</text>
</g>
<!-- 13&#45;&gt;127 -->
<g id="edge252" class="edge"><title>13&#45;&gt;127</title>
<path fill="none" stroke="black" d="M3751.28,-233.388C4036.08,-227.002 6463.74,-172.567 6875.71,-163.33"/>
<polygon fill="black" stroke="black" points="6875.99,-166.824 6885.91,-163.101 6875.83,-159.826 6875.99,-166.824"/>
</g>
<!-- 128 -->
<g id="node128" class="node"><title>128</title>
<polygon fill="none" stroke="black" points="7070,-180 7002,-180 7002,-144 7070,-144 7070,-180"/>
<text text-anchor="middle" x="7036" y="-157.4" font-family="Times New Roman,serif" font-size="14.00">V6PLUS</text>
</g>
<!-- 13&#45;&gt;128 -->
<g id="edge254" class="edge"><title>13&#45;&gt;128</title>
<path fill="none" stroke="black" d="M3751.22,-233.846C4051.49,-232.115 6739.11,-215.708 6991.47,-179.45"/>
<polygon fill="black" stroke="black" points="6992.37,-182.849 7001.63,-177.709 6991.18,-175.949 6992.37,-182.849"/>
</g>
<!-- 161 -->
<g id="node161" class="node"><title>161</title>
<polygon fill="none" stroke="black" points="8429,-180 8353,-180 8353,-144 8429,-144 8429,-180"/>
<text text-anchor="middle" x="8391" y="-157.4" font-family="Times New Roman,serif" font-size="14.00">Debugging</text>
</g>
<!-- 13&#45;&gt;161 -->
<g id="edge320" class="edge"><title>13&#45;&gt;161</title>
<path fill="none" stroke="black" d="M3751.11,-233.582C4107.8,-228.079 7871.24,-170.019 8342.6,-162.747"/>
<polygon fill="black" stroke="black" points="8342.87,-166.243 8352.81,-162.589 8342.76,-159.244 8342.87,-166.243"/>
</g>
<!-- 14 -->
<g id="node14" class="node"><title>14</title>
<polygon fill="none" stroke="black" points="1474,-36 1410,-36 1410,-1.06581e-014 1474,-0 1474,-36"/>
<text text-anchor="middle" x="1442" y="-13.4" font-family="Times New Roman,serif" font-size="14.00">IMX_21</text>
</g>
<!-- 16 -->
<g id="node16" class="node"><title>16</title>
<polygon fill="none" stroke="black" points="7222,-36 7150,-36 7150,-1.06581e-014 7222,-0 7222,-36"/>
<text text-anchor="middle" x="7186" y="-13.4" font-family="Times New Roman,serif" font-size="14.00">FP_WFQ</text>
</g>
<!-- 17 -->
<g id="node17" class="node"><title>17</title>
<polygon fill="none" stroke="black" points="1556,-36 1492,-36 1492,-1.06581e-014 1556,-0 1556,-36"/>
<text text-anchor="middle" x="1524" y="-13.4" font-family="Times New Roman,serif" font-size="14.00">IMX_35</text>
</g>
<!-- 18 -->
<g id="node18" class="node"><title>18</title>
<polygon fill="none" stroke="black" points="848,-108 676,-108 676,-72 848,-72 848,-108"/>
<text text-anchor="middle" x="762" y="-85.4" font-family="Times New Roman,serif" font-size="14.00">ARM_CPU_CORTEX_A8</text>
</g>
<!-- 19 -->
<g id="node19" class="node"><title>19</title>
<polygon fill="none" stroke="black" points="400,-36 338,-36 338,-1.06581e-014 400,-0 400,-36"/>
<text text-anchor="middle" x="369" y="-13.4" font-family="Times New Roman,serif" font-size="14.00">SA1100</text>
</g>
<!-- 20 -->
<g id="node20" class="node"><title>20</title>
<polygon fill="none" stroke="black" points="5128,-36 5066,-36 5066,-1.06581e-014 5128,-0 5128,-36"/>
<text text-anchor="middle" x="5097" y="-13.4" font-family="Times New Roman,serif" font-size="14.00">CORE2</text>
</g>
<!-- 21 -->
<g id="node21" class="node"><title>21</title>
<polygon fill="none" stroke="black" points="7594,-108 7512,-108 7512,-72 7594,-72 7594,-108"/>
<text text-anchor="middle" x="7553" y="-85.4" font-family="Times New Roman,serif" font-size="14.00">Warn levels</text>
</g>
<!-- 39 -->
<g id="node39" class="node"><title>39</title>
<polygon fill="none" stroke="black" points="7550,-36 7496,-36 7496,-1.06581e-014 7550,-0 7550,-36"/>
<text text-anchor="middle" x="7523" y="-13.4" font-family="Times New Roman,serif" font-size="14.00">ANY</text>
</g>
<!-- 21&#45;&gt;39 -->
<g id="edge76" class="edge"><title>21&#45;&gt;39</title>
<path fill="none" stroke="black" d="M7545.43,-71.8314C7542.15,-63.9617 7538.24,-54.5712 7534.61,-45.8533"/>
<polygon fill="black" stroke="black" points="7537.75,-44.2979 7530.67,-36.4133 7531.29,-46.9902 7537.75,-44.2979"/>
</g>
<!-- 98 -->
<g id="node98" class="node"><title>98</title>
<polygon fill="none" stroke="black" points="7622,-36 7568,-36 7568,-1.06581e-014 7622,-0 7622,-36"/>
<text text-anchor="middle" x="7595" y="-13.4" font-family="Times New Roman,serif" font-size="14.00">NONE</text>
</g>
<!-- 21&#45;&gt;98 -->
<g id="edge194" class="edge"><title>21&#45;&gt;98</title>
<path fill="none" stroke="black" d="M7563.6,-71.8314C7568.29,-63.7925 7573.9,-54.1666 7579.08,-45.2918"/>
<polygon fill="black" stroke="black" points="7582.24,-46.8146 7584.26,-36.4133 7576.2,-43.2875 7582.24,-46.8146"/>
</g>
<!-- 150 -->
<g id="node150" class="node"><title>150</title>
<polygon fill="none" stroke="black" points="7724,-36 7640,-36 7640,-1.06581e-014 7724,-0 7724,-36"/>
<text text-anchor="middle" x="7682" y="-13.4" font-family="Times New Roman,serif" font-size="14.00">WARNING</text>
</g>
<!-- 21&#45;&gt;150 -->
<g id="edge298" class="edge"><title>21&#45;&gt;150</title>
<path fill="none" stroke="black" d="M7585.55,-71.8314C7602.2,-62.5368 7622.66,-51.1208 7640.44,-41.1971"/>
<polygon fill="black" stroke="black" points="7642.43,-44.0927 7649.46,-36.1628 7639.02,-37.9803 7642.43,-44.0927"/>
</g>
<!-- 22 -->
<g id="node22" class="node"><title>22</title>
<polygon fill="none" stroke="black" points="512,-36 418,-36 418,-1.06581e-014 512,-0 512,-36"/>
<text text-anchor="middle" x="465" y="-13.4" font-family="Times New Roman,serif" font-size="14.00">KIRKWOOD</text>
</g>
<!-- 23 -->
<g id="node23" class="node"><title>23</title>
<polygon fill="none" stroke="black" points="976,-108 866,-108 866,-72 976,-72 976,-108"/>
<text text-anchor="middle" x="921" y="-85.4" font-family="Times New Roman,serif" font-size="14.00">ARM_CPU_926</text>
</g>
<!-- 24 -->
<g id="node24" class="node"><title>24</title>
<polygon fill="none" stroke="black" points="2843,-36 2601,-36 2601,-1.06581e-014 2843,-0 2843,-36"/>
<text text-anchor="middle" x="2722" y="-13.4" font-family="Times New Roman,serif" font-size="14.00">REALVIEW_RAM_PHYS_BASE_0x6</text>
</g>
<!-- 25 -->
<g id="node25" class="node"><title>25</title>
<polygon fill="none" stroke="black" points="7060,-36 6954,-36 6954,-1.06581e-014 7060,-0 7060,-36"/>
<text text-anchor="middle" x="7007" y="-13.4" font-family="Times New Roman,serif" font-size="14.00">PROT_IOPL_3</text>
</g>
<!-- 26 -->
<g id="node26" class="node"><title>26</title>
<polygon fill="none" stroke="black" points="5200,-36 5146,-36 5146,-1.06581e-014 5200,-0 5200,-36"/>
<text text-anchor="middle" x="5173" y="-13.4" font-family="Times New Roman,serif" font-size="14.00">PM</text>
</g>
<!-- 27 -->
<g id="node27" class="node"><title>27</title>
<polygon fill="none" stroke="black" points="5272,-36 5218,-36 5218,-1.06581e-014 5272,-0 5272,-36"/>
<text text-anchor="middle" x="5245" y="-13.4" font-family="Times New Roman,serif" font-size="14.00">K10</text>
</g>
<!-- 28 -->
<g id="node28" class="node"><title>28</title>
<polygon fill="none" stroke="black" points="1058,-108 994,-108 994,-72 1058,-72 1058,-108"/>
<text text-anchor="middle" x="1026" y="-85.4" font-family="Times New Roman,serif" font-size="14.00">Platform</text>
</g>
<!-- 28&#45;&gt;4 -->
<g id="edge8" class="edge"><title>28&#45;&gt;4</title>
<path fill="none" stroke="black" d="M993.693,-74.5638C990.797,-73.5644 987.873,-72.6857 985,-72 704.171,-4.98361 613.671,-106.977 329.992,-35.6251"/>
<polygon fill="black" stroke="black" points="330.807,-32.2208 320.251,-33.1263 329.068,-39.0013 330.807,-32.2208"/>
</g>
<!-- 28&#45;&gt;19 -->
<g id="edge36" class="edge"><title>28&#45;&gt;19</title>
<path fill="none" stroke="black" d="M993.687,-74.5875C990.793,-73.583 987.871,-72.6966 985,-72 738.899,-12.2822 659.988,-95.4644 409.797,-35.6354"/>
<polygon fill="black" stroke="black" points="410.605,-32.23 400.06,-33.2559 408.944,-39.0299 410.605,-32.23"/>
</g>
<!-- 28&#45;&gt;22 -->
<g id="edge42" class="edge"><title>28&#45;&gt;22</title>
<path fill="none" stroke="black" d="M993.676,-74.6344C990.784,-73.6197 987.865,-72.7181 985,-72 787.596,-22.527 725.936,-74.2 522.274,-35.963"/>
<polygon fill="black" stroke="black" points="522.634,-32.468 512.153,-34.0112 521.309,-39.3414 522.634,-32.468"/>
</g>
<!-- 43 -->
<g id="node43" class="node"><title>43</title>
<polygon fill="none" stroke="black" points="618,-36 530,-36 530,-1.06581e-014 618,-0 618,-36"/>
<text text-anchor="middle" x="574" y="-13.4" font-family="Times New Roman,serif" font-size="14.00">REALVIEW</text>
</g>
<!-- 28&#45;&gt;43 -->
<g id="edge84" class="edge"><title>28&#45;&gt;43</title>
<path fill="none" stroke="black" d="M993.657,-74.7053C990.769,-73.6752 987.857,-72.7507 985,-72 833.509,-32.1935 785.248,-68.3826 628.053,-35.9213"/>
<polygon fill="black" stroke="black" points="628.544,-32.4475 618.035,-33.7908 627.088,-39.2944 628.544,-32.4475"/>
</g>
<!-- 59 -->
<g id="node59" class="node"><title>59</title>
<polygon fill="none" stroke="black" points="690,-36 636,-36 636,-1.06581e-014 690,-0 690,-36"/>
<text text-anchor="middle" x="663" y="-13.4" font-family="Times New Roman,serif" font-size="14.00">IMX</text>
</g>
<!-- 28&#45;&gt;59 -->
<g id="edge116" class="edge"><title>28&#45;&gt;59</title>
<path fill="none" stroke="black" d="M993.637,-74.7828C990.753,-73.7359 987.847,-72.7864 985,-72 864.644,-38.7615 823.681,-71.4312 699.963,-35.6872"/>
<polygon fill="black" stroke="black" points="700.705,-32.2563 690.122,-32.7519 698.704,-38.9643 700.705,-32.2563"/>
</g>
<!-- 69 -->
<g id="node69" class="node"><title>69</title>
<polygon fill="none" stroke="black" points="778,-36 708,-36 708,-1.06581e-014 778,-0 778,-36"/>
<text text-anchor="middle" x="743" y="-13.4" font-family="Times New Roman,serif" font-size="14.00">TEGRA2</text>
</g>
<!-- 28&#45;&gt;69 -->
<g id="edge136" class="edge"><title>28&#45;&gt;69</title>
<path fill="none" stroke="black" d="M993.587,-74.9514C990.715,-73.8679 987.825,-72.8639 985,-72 902.474,-46.7634 874.802,-60.0497 788.04,-35.9717"/>
<polygon fill="black" stroke="black" points="788.892,-32.5751 778.315,-33.1872 786.966,-39.3047 788.892,-32.5751"/>
</g>
<!-- 77 -->
<g id="node77" class="node"><title>77</title>
<polygon fill="none" stroke="black" points="850,-36 796,-36 796,-1.06581e-014 850,-0 850,-36"/>
<text text-anchor="middle" x="823" y="-13.4" font-family="Times New Roman,serif" font-size="14.00">PC</text>
</g>
<!-- 28&#45;&gt;77 -->
<g id="edge152" class="edge"><title>28&#45;&gt;77</title>
<path fill="none" stroke="black" d="M993.938,-75.4333C990.937,-74.219 987.925,-73.0545 985,-72 933.1,-53.2902 915.17,-56.669 859.874,-35.9812"/>
<polygon fill="black" stroke="black" points="860.87,-32.6142 850.28,-32.2944 858.359,-39.1484 860.87,-32.6142"/>
</g>
<!-- 97 -->
<g id="node97" class="node"><title>97</title>
<polygon fill="none" stroke="black" points="922,-36 868,-36 868,-1.06581e-014 922,-0 922,-36"/>
<text text-anchor="middle" x="895" y="-13.4" font-family="Times New Roman,serif" font-size="14.00">UX</text>
</g>
<!-- 28&#45;&gt;97 -->
<g id="edge192" class="edge"><title>28&#45;&gt;97</title>
<path fill="none" stroke="black" d="M993.954,-72.3868C974.99,-61.9642 950.913,-48.7309 931.257,-37.9276"/>
<polygon fill="black" stroke="black" points="932.738,-34.7478 922.289,-32.9984 929.366,-40.8823 932.738,-34.7478"/>
</g>
<!-- 108 -->
<g id="node108" class="node"><title>108</title>
<polygon fill="none" stroke="black" points="1020,-36 940,-36 940,-1.06581e-014 1020,-0 1020,-36"/>
<text text-anchor="middle" x="980" y="-13.4" font-family="Times New Roman,serif" font-size="14.00">MPC52XX</text>
</g>
<!-- 28&#45;&gt;108 -->
<g id="edge214" class="edge"><title>28&#45;&gt;108</title>
<path fill="none" stroke="black" d="M1014.39,-71.8314C1009.2,-63.7079 1002.98,-53.9637 997.258,-45.0118"/>
<polygon fill="black" stroke="black" points="1000.1,-42.9559 991.764,-36.4133 994.199,-46.7246 1000.1,-42.9559"/>
</g>
<!-- 119 -->
<g id="node119" class="node"><title>119</title>
<polygon fill="none" stroke="black" points="1106,-36 1038,-36 1038,-1.06581e-014 1106,-0 1106,-36"/>
<text text-anchor="middle" x="1072" y="-13.4" font-family="Times New Roman,serif" font-size="14.00">S3C2410</text>
</g>
<!-- 28&#45;&gt;119 -->
<g id="edge236" class="edge"><title>28&#45;&gt;119</title>
<path fill="none" stroke="black" d="M1037.61,-71.8314C1042.8,-63.7079 1049.02,-53.9637 1054.74,-45.0118"/>
<polygon fill="black" stroke="black" points="1057.8,-46.7246 1060.24,-36.4133 1051.9,-42.9559 1057.8,-46.7246"/>
</g>
<!-- 133 -->
<g id="node133" class="node"><title>133</title>
<polygon fill="none" stroke="black" points="1180,-36 1124,-36 1124,-1.06581e-014 1180,-0 1180,-36"/>
<text text-anchor="middle" x="1152" y="-13.4" font-family="Times New Roman,serif" font-size="14.00">QEMU</text>
</g>
<!-- 28&#45;&gt;133 -->
<g id="edge264" class="edge"><title>28&#45;&gt;133</title>
<path fill="none" stroke="black" d="M1057.8,-71.8314C1075.05,-61.9692 1096.49,-49.7186 1114.56,-39.3965"/>
<polygon fill="black" stroke="black" points="1116.71,-42.1978 1123.65,-34.1975 1113.24,-36.12 1116.71,-42.1978"/>
</g>
<!-- 140 -->
<g id="node140" class="node"><title>140</title>
<polygon fill="none" stroke="black" points="1268,-36 1198,-36 1198,-1.06581e-014 1268,-0 1268,-36"/>
<text text-anchor="middle" x="1233" y="-13.4" font-family="Times New Roman,serif" font-size="14.00">XSCALE</text>
</g>
<!-- 28&#45;&gt;140 -->
<g id="edge278" class="edge"><title>28&#45;&gt;140</title>
<path fill="none" stroke="black" d="M1058.08,-80.0858C1089.18,-70.3184 1137.86,-54.6201 1188.14,-36.2166"/>
<polygon fill="black" stroke="black" points="1189.37,-39.4928 1197.54,-32.7495 1186.95,-32.925 1189.37,-39.4928"/>
</g>
<!-- 152 -->
<g id="node152" class="node"><title>152</title>
<polygon fill="none" stroke="black" points="1392,-36 1286,-36 1286,-1.06581e-014 1392,-0 1392,-36"/>
<text text-anchor="middle" x="1339" y="-13.4" font-family="Times New Roman,serif" font-size="14.00">INTEGRATOR</text>
</g>
<!-- 28&#45;&gt;152 -->
<g id="edge302" class="edge"><title>28&#45;&gt;152</title>
<path fill="none" stroke="black" d="M1058.26,-83.8174C1104.43,-74.8061 1192.17,-57.0692 1276.26,-36.102"/>
<polygon fill="black" stroke="black" points="1277.12,-39.4951 1285.97,-33.6637 1275.42,-32.7061 1277.12,-39.4951"/>
</g>
<!-- 29 -->
<g id="node29" class="node"><title>29</title>
<polygon fill="none" stroke="black" points="2276,-36 2222,-36 2222,-1.06581e-014 2276,-0 2276,-36"/>
<text text-anchor="middle" x="2249" y="-13.4" font-family="Times New Roman,serif" font-size="14.00">HPET</text>
</g>
<!-- 30 -->
<g id="node30" class="node"><title>30</title>
<polygon fill="none" stroke="black" points="5344,-36 5290,-36 5290,-1.06581e-014 5344,-0 5344,-36"/>
<text text-anchor="middle" x="5317" y="-13.4" font-family="Times New Roman,serif" font-size="14.00">586</text>
</g>
<!-- 31 -->
<g id="node31" class="node"><title>31</title>
<polygon fill="none" stroke="black" points="8715,-36 8661,-36 8661,-1.06581e-014 8715,-0 8715,-36"/>
<text text-anchor="middle" x="8688" y="-13.4" font-family="Times New Roman,serif" font-size="14.00">MISC</text>
</g>
<!-- 33&#45;&gt;10 -->
<g id="edge20" class="edge"><title>33&#45;&gt;10</title>
<path fill="none" stroke="black" d="M3402.78,-145.292C3399.82,-144.801 3396.89,-144.365 3394,-144 2796.12,-68.3237 1284.7,-187.728 668.394,-107.946"/>
<polygon fill="black" stroke="black" points="668.412,-104.418 658.04,-106.576 667.494,-111.358 668.412,-104.418"/>
</g>
<!-- 33&#45;&gt;18 -->
<g id="edge34" class="edge"><title>33&#45;&gt;18</title>
<path fill="none" stroke="black" d="M3402.78,-145.295C3399.82,-144.803 3396.89,-144.367 3394,-144 2837.94,-73.3379 1434.55,-163.624 858.222,-107.989"/>
<polygon fill="black" stroke="black" points="858.414,-104.491 848.118,-106.99 857.726,-111.457 858.414,-104.491"/>
</g>
<!-- 33&#45;&gt;23 -->
<g id="edge44" class="edge"><title>33&#45;&gt;23</title>
<path fill="none" stroke="black" d="M3402.78,-145.298C3399.82,-144.805 3396.89,-144.368 3394,-144 2866.15,-76.7198 1531.23,-183.803 986.263,-107.922"/>
<polygon fill="black" stroke="black" points="986.707,-104.45 976.313,-106.503 985.719,-111.38 986.707,-104.45"/>
</g>
<!-- 33&#45;&gt;28 -->
<g id="edge54" class="edge"><title>33&#45;&gt;28</title>
<path fill="none" stroke="black" d="M3402.78,-145.308C3399.82,-144.813 3396.88,-144.372 3394,-144 2950.71,-86.8323 1829.7,-123.256 1383,-108 1269.38,-104.12 1135.55,-96.5749 1068.63,-92.5977"/>
<polygon fill="black" stroke="black" points="1068.66,-89.0938 1058.47,-91.9911 1068.25,-96.0813 1068.66,-89.0938"/>
</g>
<!-- 36 -->
<g id="node36" class="node"><title>36</title>
<polygon fill="none" stroke="black" points="1492,-108 1392,-108 1392,-72 1492,-72 1492,-108"/>
<text text-anchor="middle" x="1442" y="-85.4" font-family="Times New Roman,serif" font-size="14.00">Freescale i.MX</text>
</g>
<!-- 33&#45;&gt;36 -->
<g id="edge70" class="edge"><title>33&#45;&gt;36</title>
<path fill="none" stroke="black" d="M3402.78,-145.313C3399.82,-144.816 3396.88,-144.374 3394,-144 2980,-90.3752 1933.06,-172.715 1502.37,-107.911"/>
<polygon fill="black" stroke="black" points="1502.73,-104.425 1492.31,-106.352 1501.66,-111.342 1502.73,-104.425"/>
</g>
<!-- 41 -->
<g id="node41" class="node"><title>41</title>
<polygon fill="none" stroke="black" points="1632,-108 1510,-108 1510,-72 1632,-72 1632,-108"/>
<text text-anchor="middle" x="1571" y="-85.4" font-family="Times New Roman,serif" font-size="14.00">CACHE_L2CXX0</text>
</g>
<!-- 33&#45;&gt;41 -->
<g id="edge80" class="edge"><title>33&#45;&gt;41</title>
<path fill="none" stroke="black" d="M3402.78,-145.318C3399.82,-144.82 3396.88,-144.376 3394,-144 3010.84,-94.0732 2043.27,-159.763 1642.25,-107.943"/>
<polygon fill="black" stroke="black" points="1642.68,-104.469 1632.3,-106.617 1641.75,-111.407 1642.68,-104.469"/>
</g>
<!-- 49 -->
<g id="node49" class="node"><title>49</title>
<polygon fill="none" stroke="black" points="1768,-108 1650,-108 1650,-72 1768,-72 1768,-108"/>
<text text-anchor="middle" x="1709" y="-85.4" font-family="Times New Roman,serif" font-size="14.00">ARM_CPU_1136</text>
</g>
<!-- 33&#45;&gt;49 -->
<g id="edge96" class="edge"><title>33&#45;&gt;49</title>
<path fill="none" stroke="black" d="M3402.77,-145.324C3399.82,-144.825 3396.88,-144.378 3394,-144 2684.57,-50.9371 2490.56,-207.215 1778.16,-107.948"/>
<polygon fill="black" stroke="black" points="1778.56,-104.47 1768.17,-106.544 1777.58,-111.401 1778.56,-104.47"/>
</g>
<!-- 57 -->
<g id="node57" class="node"><title>57</title>
<polygon fill="none" stroke="black" points="1954,-108 1786,-108 1786,-72 1954,-72 1954,-108"/>
<text text-anchor="middle" x="1870" y="-85.4" font-family="Times New Roman,serif" font-size="14.00">IMX_RAM_PHYS_BASE</text>
</g>
<!-- 33&#45;&gt;57 -->
<g id="edge112" class="edge"><title>33&#45;&gt;57</title>
<path fill="none" stroke="black" d="M3402.77,-145.335C3399.82,-144.832 3396.88,-144.383 3394,-144 2766.71,-60.7897 2597.3,-175.439 1964.35,-108.025"/>
<polygon fill="black" stroke="black" points="1964.37,-104.507 1954.05,-106.917 1963.62,-111.467 1964.37,-104.507"/>
</g>
<!-- 64 -->
<g id="node64" class="node"><title>64</title>
<polygon fill="none" stroke="black" points="2080,-108 1972,-108 1972,-72 2080,-72 2080,-108"/>
<text text-anchor="middle" x="2026" y="-85.4" font-family="Times New Roman,serif" font-size="14.00">OMAP Platform</text>
</g>
<!-- 33&#45;&gt;64 -->
<g id="edge126" class="edge"><title>33&#45;&gt;64</title>
<path fill="none" stroke="black" d="M3402.77,-145.343C3399.82,-144.839 3396.88,-144.386 3394,-144 2822.28,-67.4549 2664.3,-194.884 2090.3,-107.949"/>
<polygon fill="black" stroke="black" points="2090.52,-104.442 2080.1,-106.39 2089.46,-111.362 2090.52,-104.442"/>
</g>
<!-- 66 -->
<g id="node66" class="node"><title>66</title>
<polygon fill="none" stroke="black" points="2212,-108 2098,-108 2098,-72 2212,-72 2212,-108"/>
<text text-anchor="middle" x="2155" y="-85.4" font-family="Times New Roman,serif" font-size="14.00">Timer tick source</text>
</g>
<!-- 33&#45;&gt;66 -->
<g id="edge130" class="edge"><title>33&#45;&gt;66</title>
<path fill="none" stroke="black" d="M3402.77,-145.355C3399.82,-144.847 3396.88,-144.39 3394,-144 2880.42,-74.4284 2738.64,-183.749 2222.01,-107.922"/>
<polygon fill="black" stroke="black" points="2222.47,-104.451 2212.06,-106.446 2221.44,-111.376 2222.47,-104.451"/>
</g>
<!-- 73 -->
<g id="node73" class="node"><title>73</title>
<polygon fill="none" stroke="black" points="2378,-108 2230,-108 2230,-72 2378,-72 2378,-108"/>
<text text-anchor="middle" x="2304" y="-85.4" font-family="Times New Roman,serif" font-size="14.00">ARM_CPU_MPCORE</text>
</g>
<!-- 33&#45;&gt;73 -->
<g id="edge144" class="edge"><title>33&#45;&gt;73</title>
<path fill="none" stroke="black" d="M3402.77,-145.373C3399.81,-144.86 3396.88,-144.398 3394,-144 2953.72,-83.2247 2833.19,-162.461 2388.33,-108.022"/>
<polygon fill="black" stroke="black" points="2388.45,-104.51 2378.1,-106.753 2387.59,-111.457 2388.45,-104.51"/>
</g>
<!-- 78 -->
<g id="node78" class="node"><title>78</title>
<polygon fill="none" stroke="black" points="2572,-108 2396,-108 2396,-72 2572,-72 2572,-108"/>
<text text-anchor="middle" x="2484" y="-85.4" font-family="Times New Roman,serif" font-size="14.00">1176_CACHE_ALIAS_FIX</text>
</g>
<!-- 33&#45;&gt;78 -->
<g id="edge154" class="edge"><title>33&#45;&gt;78</title>
<path fill="none" stroke="black" d="M3402.76,-145.404C3399.81,-144.883 3396.88,-144.41 3394,-144 3039.25,-93.4897 2942.14,-148.064 2582.39,-108.056"/>
<polygon fill="black" stroke="black" points="2582.54,-104.552 2572.21,-106.907 2581.75,-111.507 2582.54,-104.552"/>
</g>
<!-- 88 -->
<g id="node88" class="node"><title>88</title>
<polygon fill="none" stroke="black" points="2750,-108 2590,-108 2590,-72 2750,-72 2750,-108"/>
<text text-anchor="middle" x="2670" y="-85.4" font-family="Times New Roman,serif" font-size="14.00">ARM_CACHE_L2CXX0</text>
</g>
<!-- 33&#45;&gt;88 -->
<g id="edge174" class="edge"><title>33&#45;&gt;88</title>
<path fill="none" stroke="black" d="M3402.76,-145.448C3399.81,-144.915 3396.88,-144.428 3394,-144 3117.68,-102.91 3041.15,-143.144 2760.51,-108.085"/>
<polygon fill="black" stroke="black" points="2760.81,-104.594 2750.44,-106.806 2759.92,-111.538 2760.81,-104.594"/>
</g>
<!-- 89 -->
<g id="node89" class="node"><title>89</title>
<polygon fill="none" stroke="black" points="2908,-108 2768,-108 2768,-72 2908,-72 2908,-108"/>
<text text-anchor="middle" x="2838" y="-85.4" font-family="Times New Roman,serif" font-size="14.00">CA9_ENABLE_SWP</text>
</g>
<!-- 33&#45;&gt;89 -->
<g id="edge176" class="edge"><title>33&#45;&gt;89</title>
<path fill="none" stroke="black" d="M3402.75,-145.516C3399.8,-144.964 3396.87,-144.455 3394,-144 3187.29,-111.284 3129.04,-138.814 2918.26,-108.052"/>
<polygon fill="black" stroke="black" points="2918.51,-104.551 2908.11,-106.543 2917.48,-111.475 2918.51,-104.551"/>
</g>
<!-- 92 -->
<g id="node92" class="node"><title>92</title>
<polygon fill="none" stroke="black" points="2994,-108 2926,-108 2926,-72 2994,-72 2994,-108"/>
<text text-anchor="middle" x="2960" y="-85.4" font-family="Times New Roman,serif" font-size="14.00">ENDIAN</text>
</g>
<!-- 33&#45;&gt;92 -->
<g id="edge182" class="edge"><title>33&#45;&gt;92</title>
<path fill="none" stroke="black" d="M3402.74,-145.575C3399.79,-145.007 3396.87,-144.478 3394,-144 3225.06,-115.832 3174.22,-148.909 3004.2,-107.879"/>
<polygon fill="black" stroke="black" points="3004.97,-104.466 2994.42,-105.472 3003.3,-111.262 3004.97,-104.466"/>
</g>
<!-- 96 -->
<g id="node96" class="node"><title>96</title>
<polygon fill="none" stroke="black" points="3212,-108 3012,-108 3012,-72 3212,-72 3212,-108"/>
<text text-anchor="middle" x="3112" y="-85.4" font-family="Times New Roman,serif" font-size="14.00">Start of RAM (physical address)</text>
</g>
<!-- 33&#45;&gt;96 -->
<g id="edge190" class="edge"><title>33&#45;&gt;96</title>
<path fill="none" stroke="black" d="M3402.67,-145.924C3399.74,-145.262 3396.84,-144.617 3394,-144 3337.48,-131.723 3274.27,-119.483 3222.04,-109.767"/>
<polygon fill="black" stroke="black" points="3222.56,-106.303 3212.08,-107.921 3221.28,-113.185 3222.56,-106.303"/>
</g>
<!-- 101 -->
<g id="node101" class="node"><title>101</title>
<polygon fill="none" stroke="black" points="3382,-108 3230,-108 3230,-72 3382,-72 3382,-108"/>
<text text-anchor="middle" x="3306" y="-85.4" font-family="Times New Roman,serif" font-size="14.00">ALIGNMENT_CHECK</text>
</g>
<!-- 33&#45;&gt;101 -->
<g id="edge200" class="edge"><title>33&#45;&gt;101</title>
<path fill="none" stroke="black" d="M3427.12,-143.831C3405.45,-134.202 3378.66,-122.295 3355.79,-112.13"/>
<polygon fill="black" stroke="black" points="3357.15,-108.901 3346.59,-108.038 3354.3,-115.298 3357.15,-108.901"/>
</g>
<!-- 102 -->
<g id="node102" class="node"><title>102</title>
<polygon fill="none" stroke="black" points="3536,-108 3400,-108 3400,-72 3536,-72 3536,-108"/>
<text text-anchor="middle" x="3468" y="-85.4" font-family="Times New Roman,serif" font-size="14.00">ARM_CPU_SA1100</text>
</g>
<!-- 33&#45;&gt;102 -->
<g id="edge202" class="edge"><title>33&#45;&gt;102</title>
<path fill="none" stroke="black" d="M3468,-143.831C3468,-136.131 3468,-126.974 3468,-118.417"/>
<polygon fill="black" stroke="black" points="3471.5,-118.413 3468,-108.413 3464.5,-118.413 3471.5,-118.413"/>
</g>
<!-- 105 -->
<g id="node105" class="node"><title>105</title>
<polygon fill="none" stroke="black" points="3726,-108 3554,-108 3554,-72 3726,-72 3726,-108"/>
<text text-anchor="middle" x="3640" y="-85.4" font-family="Times New Roman,serif" font-size="14.00">ARM_CPU_CORTEX_A9</text>
</g>
<!-- 33&#45;&gt;105 -->
<g id="edge208" class="edge"><title>33&#45;&gt;105</title>
<path fill="none" stroke="black" d="M3511.4,-143.831C3534.51,-134.159 3563.1,-122.189 3587.46,-111.994"/>
<polygon fill="black" stroke="black" points="3589.04,-115.128 3596.91,-108.038 3586.33,-108.671 3589.04,-115.128"/>
</g>
<!-- 110 -->
<g id="node110" class="node"><title>110</title>
<polygon fill="none" stroke="black" points="3798,-108 3744,-108 3744,-72 3798,-72 3798,-108"/>
<text text-anchor="middle" x="3771" y="-85.4" font-family="Times New Roman,serif" font-size="14.00">VIRT</text>
</g>
<!-- 33&#45;&gt;110 -->
<g id="edge218" class="edge"><title>33&#45;&gt;110</title>
<path fill="none" stroke="black" d="M3533.33,-145.907C3536.25,-145.249 3539.16,-144.611 3542,-144 3624.23,-126.343 3650.4,-135.089 3734.15,-107.798"/>
<polygon fill="black" stroke="black" points="3735.44,-111.058 3743.82,-104.574 3733.23,-104.417 3735.44,-111.058"/>
</g>
<!-- 113 -->
<g id="node113" class="node"><title>113</title>
<polygon fill="none" stroke="black" points="3940,-108 3816,-108 3816,-72 3940,-72 3940,-108"/>
<text text-anchor="middle" x="3878" y="-85.4" font-family="Times New Roman,serif" font-size="14.00">AMD_FPU_LEAK</text>
</g>
<!-- 33&#45;&gt;113 -->
<g id="edge224" class="edge"><title>33&#45;&gt;113</title>
<path fill="none" stroke="black" d="M3533.29,-145.73C3536.23,-145.121 3539.14,-144.54 3542,-144 3655.6,-122.528 3688.53,-130.187 3805.67,-108.137"/>
<polygon fill="black" stroke="black" points="3806.59,-111.525 3815.75,-106.206 3805.27,-104.65 3806.59,-111.525"/>
</g>
<!-- 115 -->
<g id="node115" class="node"><title>115</title>
<polygon fill="none" stroke="black" points="4172,-108 3958,-108 3958,-72 4172,-72 4172,-108"/>
<text text-anchor="middle" x="4065" y="-85.4" font-family="Times New Roman,serif" font-size="14.00">REALVIEW_RAM_PHYS_BASE</text>
</g>
<!-- 33&#45;&gt;115 -->
<g id="edge228" class="edge"><title>33&#45;&gt;115</title>
<path fill="none" stroke="black" d="M3533.26,-145.562C3536.21,-144.998 3539.13,-144.473 3542,-144 3717.94,-114.99 3766.97,-129.39 3947.79,-108.093"/>
<polygon fill="black" stroke="black" points="3948.39,-111.545 3957.91,-106.88 3947.56,-104.595 3948.39,-111.545"/>
</g>
<!-- 116 -->
<g id="node116" class="node"><title>116</title>
<polygon fill="none" stroke="black" points="4282,-108 4190,-108 4190,-72 4282,-72 4282,-108"/>
<text text-anchor="middle" x="4236" y="-85.4" font-family="Times New Roman,serif" font-size="14.00">REGPARM3</text>
</g>
<!-- 33&#45;&gt;116 -->
<g id="edge230" class="edge"><title>33&#45;&gt;116</title>
<path fill="none" stroke="black" d="M3533.24,-145.447C3536.19,-144.914 3539.12,-144.427 3542,-144 3820.07,-102.701 3899.61,-159.326 4179.66,-107.96"/>
<polygon fill="black" stroke="black" points="4180.52,-111.36 4189.71,-106.087 4179.24,-104.479 4180.52,-111.36"/>
</g>
<!-- 124 -->
<g id="node124" class="node"><title>124</title>
<polygon fill="none" stroke="black" points="4354,-108 4300,-108 4300,-72 4354,-72 4354,-108"/>
<text text-anchor="middle" x="4327" y="-85.4" font-family="Times New Roman,serif" font-size="14.00">VF</text>
</g>
<!-- 33&#45;&gt;124 -->
<g id="edge246" class="edge"><title>33&#45;&gt;124</title>
<path fill="none" stroke="black" d="M3533.24,-145.417C3536.19,-144.892 3539.12,-144.415 3542,-144 3703.87,-120.641 4114.18,-149.075 4290.22,-107.425"/>
<polygon fill="black" stroke="black" points="4291.1,-110.813 4299.94,-104.987 4289.39,-104.023 4291.1,-110.813"/>
</g>
<!-- 125 -->
<g id="node125" class="node"><title>125</title>
<polygon fill="none" stroke="black" points="4428,-108 4372,-108 4372,-72 4428,-72 4428,-108"/>
<text text-anchor="middle" x="4400" y="-85.4" font-family="Times New Roman,serif" font-size="14.00">NAME</text>
</g>
<!-- 33&#45;&gt;125 -->
<g id="edge248" class="edge"><title>33&#45;&gt;125</title>
<path fill="none" stroke="black" d="M3533.24,-145.402C3536.19,-144.881 3539.12,-144.409 3542,-144 3719.71,-118.736 4170.23,-151.715 4361.99,-107.535"/>
<polygon fill="black" stroke="black" points="4362.87,-110.924 4371.76,-105.16 4361.21,-104.122 4362.87,-110.924"/>
</g>
<!-- 129 -->
<g id="node129" class="node"><title>129</title>
<polygon fill="none" stroke="black" points="4564,-108 4446,-108 4446,-72 4564,-72 4564,-108"/>
<text text-anchor="middle" x="4505" y="-85.4" font-family="Times New Roman,serif" font-size="14.00">ARM_CPU_1176</text>
</g>
<!-- 33&#45;&gt;129 -->
<g id="edge256" class="edge"><title>33&#45;&gt;129</title>
<path fill="none" stroke="black" d="M3533.23,-145.389C3536.19,-144.872 3539.12,-144.404 3542,-144 3932.96,-89.1415 4041.54,-165.993 4435.86,-107.965"/>
<polygon fill="black" stroke="black" points="4436.45,-111.416 4445.82,-106.48 4435.41,-104.493 4436.45,-111.416"/>
</g>
<!-- 135 -->
<g id="node135" class="node"><title>135</title>
<polygon fill="none" stroke="black" points="4636,-108 4582,-108 4582,-72 4636,-72 4636,-108"/>
<text text-anchor="middle" x="4609" y="-85.4" font-family="Times New Roman,serif" font-size="14.00">TZ</text>
</g>
<!-- 33&#45;&gt;135 -->
<g id="edge268" class="edge"><title>33&#45;&gt;135</title>
<path fill="none" stroke="black" d="M3533.23,-145.37C3536.19,-144.858 3539.12,-144.397 3542,-144 3765.89,-113.189 4334.43,-163.106 4571.93,-107.489"/>
<polygon fill="black" stroke="black" points="4573.08,-110.811 4581.95,-105.027 4571.41,-104.013 4573.08,-110.811"/>
</g>
<!-- 142 -->
<g id="node142" class="node"><title>142</title>
<polygon fill="none" stroke="black" points="4772,-108 4654,-108 4654,-72 4772,-72 4772,-108"/>
<text text-anchor="middle" x="4713" y="-85.4" font-family="Times New Roman,serif" font-size="14.00">Realview Platform</text>
</g>
<!-- 33&#45;&gt;142 -->
<g id="edge282" class="edge"><title>33&#45;&gt;142</title>
<path fill="none" stroke="black" d="M3533.23,-145.362C3536.18,-144.852 3539.12,-144.393 3542,-144 4024.66,-78.1387 4157.9,-177.83 4643.74,-107.973"/>
<polygon fill="black" stroke="black" points="4644.43,-111.41 4653.83,-106.507 4643.43,-104.483 4644.43,-111.41"/>
</g>
<!-- 144 -->
<g id="node144" class="node"><title>144</title>
<polygon fill="none" stroke="black" points="4874,-108 4790,-108 4790,-72 4874,-72 4874,-108"/>
<text text-anchor="middle" x="4832" y="-85.4" font-family="Times New Roman,serif" font-size="14.00">Architecture</text>
</g>
<!-- 33&#45;&gt;144 -->
<g id="edge286" class="edge"><title>33&#45;&gt;144</title>
<path fill="none" stroke="black" d="M3533.23,-145.349C3536.18,-144.842 3539.12,-144.388 3542,-144 3811.79,-107.678 4493.97,-157.255 4779.97,-107.765"/>
<polygon fill="black" stroke="black" points="4780.76,-111.18 4789.98,-105.963 4779.51,-104.291 4780.76,-111.18"/>
</g>
<!-- 146 -->
<g id="node146" class="node"><title>146</title>
<polygon fill="none" stroke="black" points="5798,-108 5744,-108 5744,-72 5798,-72 5798,-108"/>
<text text-anchor="middle" x="5771" y="-85.4" font-family="Times New Roman,serif" font-size="14.00">CPU</text>
</g>
<!-- 33&#45;&gt;146 -->
<g id="edge290" class="edge"><title>33&#45;&gt;146</title>
<path fill="none" stroke="black" d="M3533.23,-145.331C3536.18,-144.83 3539.12,-144.381 3542,-144 3598.63,-136.515 5446.56,-96.909 5733.67,-90.7933"/>
<polygon fill="black" stroke="black" points="5734.05,-94.2863 5743.97,-90.5742 5733.9,-87.2879 5734.05,-94.2863"/>
</g>
<!-- 154 -->
<g id="node154" class="node"><title>154</title>
<polygon fill="none" stroke="black" points="5960,-108 5816,-108 5816,-72 5960,-72 5960,-108"/>
<text text-anchor="middle" x="5888" y="-85.4" font-family="Times New Roman,serif" font-size="14.00">ARM_CPU_XSCALE</text>
</g>
<!-- 33&#45;&gt;154 -->
<g id="edge306" class="edge"><title>33&#45;&gt;154</title>
<path fill="none" stroke="black" d="M3533.22,-145.301C3536.18,-144.808 3539.11,-144.369 3542,-144 4038.04,-80.5361 5290.41,-165.766 5805.54,-107.997"/>
<polygon fill="black" stroke="black" points="5806.17,-111.449 5815.7,-106.828 5805.37,-104.494 5806.17,-111.449"/>
</g>
<!-- 158 -->
<g id="node158" class="node"><title>158</title>
<polygon fill="none" stroke="black" points="6032,-108 5978,-108 5978,-72 6032,-72 6032,-108"/>
<text text-anchor="middle" x="6005" y="-85.4" font-family="Times New Roman,serif" font-size="14.00">FPU</text>
</g>
<!-- 33&#45;&gt;158 -->
<g id="edge314" class="edge"><title>33&#45;&gt;158</title>
<path fill="none" stroke="black" d="M3533.22,-145.297C3536.18,-144.805 3539.11,-144.368 3542,-144 3806.4,-110.315 5662.74,-170.469 5967.78,-107.385"/>
<polygon fill="black" stroke="black" points="5968.98,-110.701 5977.97,-105.089 5967.45,-103.872 5968.98,-110.701"/>
</g>
<!-- 159 -->
<g id="node159" class="node"><title>159</title>
<polygon fill="none" stroke="black" points="6196,-108 6050,-108 6050,-72 6196,-72 6196,-108"/>
<text text-anchor="middle" x="6123" y="-85.4" font-family="Times New Roman,serif" font-size="14.00">ARM_MP_CAPABLE</text>
</g>
<!-- 33&#45;&gt;159 -->
<g id="edge316" class="edge"><title>33&#45;&gt;159</title>
<path fill="none" stroke="black" d="M3533.22,-145.296C3536.18,-144.804 3539.11,-144.367 3542,-144 4089.72,-74.337 5472.96,-170.722 6039.87,-107.959"/>
<polygon fill="black" stroke="black" points="6040.26,-111.437 6049.81,-106.833 6039.48,-104.481 6040.26,-111.437"/>
</g>
<!-- 34 -->
<g id="node34" class="node"><title>34</title>
<polygon fill="none" stroke="black" points="7710,-108 7612,-108 7612,-72 7710,-72 7710,-108"/>
<text text-anchor="middle" x="7661" y="-85.4" font-family="Times New Roman,serif" font-size="14.00">FRAME_PTR</text>
</g>
<!-- 35 -->
<g id="node35" class="node"><title>35</title>
<polygon fill="none" stroke="black" points="6746,-108 6598,-108 6598,-72 6746,-72 6746,-108"/>
<text text-anchor="middle" x="6672" y="-85.4" font-family="Times New Roman,serif" font-size="14.00">GRAINED_CPUTIME</text>
</g>
<!-- 36&#45;&gt;14 -->
<g id="edge26" class="edge"><title>36&#45;&gt;14</title>
<path fill="none" stroke="black" d="M1442,-71.8314C1442,-64.131 1442,-54.9743 1442,-46.4166"/>
<polygon fill="black" stroke="black" points="1445.5,-46.4132 1442,-36.4133 1438.5,-46.4133 1445.5,-46.4132"/>
</g>
<!-- 36&#45;&gt;17 -->
<g id="edge32" class="edge"><title>36&#45;&gt;17</title>
<path fill="none" stroke="black" d="M1462.69,-71.8314C1472.69,-63.0485 1484.86,-52.3712 1495.7,-42.8489"/>
<polygon fill="black" stroke="black" points="1498.11,-45.3909 1503.31,-36.1628 1493.49,-40.1308 1498.11,-45.3909"/>
</g>
<!-- 68 -->
<g id="node68" class="node"><title>68</title>
<polygon fill="none" stroke="black" points="1638,-36 1574,-36 1574,-1.06581e-014 1638,-0 1638,-36"/>
<text text-anchor="middle" x="1606" y="-13.4" font-family="Times New Roman,serif" font-size="14.00">IMX_51</text>
</g>
<!-- 36&#45;&gt;68 -->
<g id="edge134" class="edge"><title>36&#45;&gt;68</title>
<path fill="none" stroke="black" d="M1483.38,-71.8314C1508.29,-60.8972 1539.88,-47.0269 1564.76,-36.1043"/>
<polygon fill="black" stroke="black" points="1566.19,-39.2994 1573.94,-32.0747 1563.38,-32.8899 1566.19,-39.2994"/>
</g>
<!-- 38 -->
<g id="node38" class="node"><title>38</title>
<polygon fill="none" stroke="black" points="5416,-36 5362,-36 5362,-1.06581e-014 5416,-0 5416,-36"/>
<text text-anchor="middle" x="5389" y="-13.4" font-family="Times New Roman,serif" font-size="14.00">K8</text>
</g>
<!-- 44 -->
<g id="node44" class="node"><title>44</title>
<polygon fill="none" stroke="black" points="8843,-36 8733,-36 8733,-1.06581e-014 8843,-0 8843,-36"/>
<text text-anchor="middle" x="8788" y="-13.4" font-family="Times New Roman,serif" font-size="14.00">ACCOUNTING</text>
</g>
<!-- 45 -->
<g id="node45" class="node"><title>45</title>
<polygon fill="none" stroke="black" points="5488,-36 5434,-36 5434,-1.06581e-014 5488,-0 5488,-36"/>
<text text-anchor="middle" x="5461" y="-13.4" font-family="Times New Roman,serif" font-size="14.00">P4</text>
</g>
<!-- 46 -->
<g id="node46" class="node"><title>46</title>
<polygon fill="none" stroke="black" points="5560,-36 5506,-36 5506,-1.06581e-014 5560,-0 5560,-36"/>
<text text-anchor="middle" x="5533" y="-13.4" font-family="Times New Roman,serif" font-size="14.00">926</text>
</g>
<!-- 47 -->
<g id="node47" class="node"><title>47</title>
<polygon fill="none" stroke="black" points="5632,-36 5578,-36 5578,-1.06581e-014 5632,-0 5632,-36"/>
<text text-anchor="middle" x="5605" y="-13.4" font-family="Times New Roman,serif" font-size="14.00">603e</text>
</g>
<!-- 48 -->
<g id="node48" class="node"><title>48</title>
<polygon fill="none" stroke="black" points="6818,-108 6764,-108 6764,-72 6818,-72 6818,-108"/>
<text text-anchor="middle" x="6791" y="-85.4" font-family="Times New Roman,serif" font-size="14.00">TSC</text>
</g>
<!-- 50 -->
<g id="node50" class="node"><title>50</title>
<polygon fill="none" stroke="black" points="5704,-36 5650,-36 5650,-1.06581e-014 5704,-0 5704,-36"/>
<text text-anchor="middle" x="5677" y="-13.4" font-family="Times New Roman,serif" font-size="14.00">K7</text>
</g>
<!-- 52 -->
<g id="node52" class="node"><title>52</title>
<polygon fill="none" stroke="black" points="5820,-36 5722,-36 5722,-1.06581e-014 5820,-0 5820,-36"/>
<text text-anchor="middle" x="5771" y="-13.4" font-family="Times New Roman,serif" font-size="14.00">CORTEX_A8</text>
</g>
<!-- 53 -->
<g id="node53" class="node"><title>53</title>
<polygon fill="none" stroke="black" points="5892,-36 5838,-36 5838,-1.06581e-014 5892,-0 5892,-36"/>
<text text-anchor="middle" x="5865" y="-13.4" font-family="Times New Roman,serif" font-size="14.00">P2</text>
</g>
<!-- 54 -->
<g id="node54" class="node"><title>54</title>
<polygon fill="none" stroke="black" points="5964,-36 5910,-36 5910,-1.06581e-014 5964,-0 5964,-36"/>
<text text-anchor="middle" x="5937" y="-13.4" font-family="Times New Roman,serif" font-size="14.00">P3</text>
</g>
<!-- 56 -->
<g id="node56" class="node"><title>56</title>
<polygon fill="none" stroke="black" points="6890,-108 6836,-108 6836,-72 6890,-72 6890,-108"/>
<text text-anchor="middle" x="6863" y="-85.4" font-family="Times New Roman,serif" font-size="14.00">NET</text>
</g>
<!-- 60 -->
<g id="node60" class="node"><title>60</title>
<polygon fill="none" stroke="black" points="7810,-108 7728,-108 7728,-72 7810,-72 7810,-108"/>
<text text-anchor="middle" x="7769" y="-85.4" font-family="Times New Roman,serif" font-size="14.00">GETCHAR</text>
</g>
<!-- 62 -->
<g id="node62" class="node"><title>62</title>
<polygon fill="none" stroke="black" points="4634,-36 4580,-36 4580,-1.06581e-014 4634,-0 4634,-36"/>
<text text-anchor="middle" x="4607" y="-13.4" font-family="Times New Roman,serif" font-size="14.00">IA32</text>
</g>
<!-- 63 -->
<g id="node63" class="node"><title>63</title>
<polygon fill="none" stroke="black" points="7890,-108 7828,-108 7828,-72 7890,-72 7890,-108"/>
<text text-anchor="middle" x="7859" y="-85.4" font-family="Times New Roman,serif" font-size="14.00">DEPTH</text>
</g>
<!-- 64&#45;&gt;8 -->
<g id="edge16" class="edge"><title>64&#45;&gt;8</title>
<path fill="none" stroke="black" d="M1971.74,-74.357C1968.79,-73.5493 1965.86,-72.7589 1963,-72 1919.1,-60.3466 1870.05,-48.2186 1829.41,-38.4155"/>
<polygon fill="black" stroke="black" points="1830.08,-34.9769 1819.54,-36.0397 1828.44,-41.7826 1830.08,-34.9769"/>
</g>
<!-- 82 -->
<g id="node82" class="node"><title>82</title>
<polygon fill="none" stroke="black" points="2014,-36 1848,-36 1848,-1.06581e-014 2014,-0 2014,-36"/>
<text text-anchor="middle" x="1931" y="-13.4" font-family="Times New Roman,serif" font-size="14.00">OMAP4_PANDABOARD</text>
</g>
<!-- 64&#45;&gt;82 -->
<g id="edge162" class="edge"><title>64&#45;&gt;82</title>
<path fill="none" stroke="black" d="M2002.03,-71.8314C1990.21,-62.8779 1975.8,-51.9558 1963.06,-42.2955"/>
<polygon fill="black" stroke="black" points="1965.05,-39.4137 1954.96,-36.1628 1960.82,-44.9925 1965.05,-39.4137"/>
</g>
<!-- 100 -->
<g id="node100" class="node"><title>100</title>
<polygon fill="none" stroke="black" points="2132,-36 2032,-36 2032,-1.06581e-014 2132,-0 2132,-36"/>
<text text-anchor="middle" x="2082" y="-13.4" font-family="Times New Roman,serif" font-size="14.00">OMAP3_EVM</text>
</g>
<!-- 64&#45;&gt;100 -->
<g id="edge198" class="edge"><title>64&#45;&gt;100</title>
<path fill="none" stroke="black" d="M2040.13,-71.8314C2046.58,-63.5386 2054.34,-53.557 2061.43,-44.4533"/>
<polygon fill="black" stroke="black" points="2064.3,-46.4556 2067.68,-36.4133 2058.78,-42.158 2064.3,-46.4556"/>
</g>
<!-- 65 -->
<g id="node65" class="node"><title>65</title>
<polygon fill="none" stroke="black" points="4074,-36 3962,-36 3962,-1.06581e-014 4074,-0 4074,-36"/>
<text text-anchor="middle" x="4018" y="-13.4" font-family="Times New Roman,serif" font-size="14.00">REALVIEW_EB</text>
</g>
<!-- 66&#45;&gt;11 -->
<g id="edge22" class="edge"><title>66&#45;&gt;11</title>
<path fill="none" stroke="black" d="M2160.55,-71.8314C2162.93,-64.0463 2165.76,-54.7729 2168.4,-46.1347"/>
<polygon fill="black" stroke="black" points="2171.8,-46.9996 2171.37,-36.4133 2165.1,-44.954 2171.8,-46.9996"/>
</g>
<!-- 66&#45;&gt;29 -->
<g id="edge56" class="edge"><title>66&#45;&gt;29</title>
<path fill="none" stroke="black" d="M2178.72,-71.8314C2190.41,-62.8779 2204.67,-51.9558 2217.28,-42.2955"/>
<polygon fill="black" stroke="black" points="2219.48,-45.0222 2225.29,-36.1628 2215.22,-39.4651 2219.48,-45.0222"/>
</g>
<!-- 95 -->
<g id="node95" class="node"><title>95</title>
<polygon fill="none" stroke="black" points="2348,-36 2294,-36 2294,-1.06581e-014 2348,-0 2348,-36"/>
<text text-anchor="middle" x="2321" y="-13.4" font-family="Times New Roman,serif" font-size="14.00">PIT</text>
</g>
<!-- 66&#45;&gt;95 -->
<g id="edge188" class="edge"><title>66&#45;&gt;95</title>
<path fill="none" stroke="black" d="M2200.76,-71.9041C2223.67,-62.6363 2251.96,-50.8799 2284.64,-36.0369"/>
<polygon fill="black" stroke="black" points="2286.33,-39.1106 2293.97,-31.7681 2283.42,-32.7449 2286.33,-39.1106"/>
</g>
<!-- 139 -->
<g id="node139" class="node"><title>139</title>
<polygon fill="none" stroke="black" points="2420,-36 2366,-36 2366,-1.06581e-014 2420,-0 2420,-36"/>
<text text-anchor="middle" x="2393" y="-13.4" font-family="Times New Roman,serif" font-size="14.00">APIC</text>
</g>
<!-- 66&#45;&gt;139 -->
<g id="edge276" class="edge"><title>66&#45;&gt;139</title>
<path fill="none" stroke="black" d="M2212.23,-74.3636C2215.2,-73.5622 2218.13,-72.7705 2221,-72 2278.44,-56.5663 2296.73,-57.9145 2356.24,-35.928"/>
<polygon fill="black" stroke="black" points="2357.62,-39.1503 2365.74,-32.3521 2355.15,-32.5989 2357.62,-39.1503"/>
</g>
<!-- 67 -->
<g id="node67" class="node"><title>67</title>
<polygon fill="none" stroke="black" points="4706,-36 4652,-36 4652,-1.06581e-014 4706,-0 4706,-36"/>
<text text-anchor="middle" x="4679" y="-13.4" font-family="Times New Roman,serif" font-size="14.00">ARM</text>
</g>
<!-- 71 -->
<g id="node71" class="node"><title>71</title>
<polygon fill="none" stroke="black" points="7338,-36 7240,-36 7240,-1.06581e-014 7338,-0 7338,-36"/>
<text text-anchor="middle" x="7289" y="-13.4" font-family="Times New Roman,serif" font-size="14.00">FIXED_PRIO</text>
</g>
<!-- 72 -->
<g id="node72" class="node"><title>72</title>
<polygon fill="none" stroke="black" points="4258,-36 4092,-36 4092,-1.06581e-014 4258,-0 4258,-36"/>
<text text-anchor="middle" x="4175" y="-13.4" font-family="Times New Roman,serif" font-size="14.00">REALVIEW_VEXPRESS</text>
</g>
<!-- 74 -->
<g id="node74" class="node"><title>74</title>
<polygon fill="none" stroke="black" points="6040,-36 5982,-36 5982,-1.06581e-014 6040,-0 6040,-36"/>
<text text-anchor="middle" x="6011" y="-13.4" font-family="Times New Roman,serif" font-size="14.00">ATOM</text>
</g>
<!-- 76 -->
<g id="node76" class="node"><title>76</title>
<polygon fill="none" stroke="black" points="6962,-108 6908,-108 6908,-72 6962,-72 6962,-108"/>
<text text-anchor="middle" x="6935" y="-85.4" font-family="Times New Roman,serif" font-size="14.00">RTC</text>
</g>
<!-- 79 -->
<g id="node79" class="node"><title>79</title>
<polygon fill="none" stroke="black" points="8941,-36 8861,-36 8861,-1.06581e-014 8941,-0 8941,-36"/>
<text text-anchor="middle" x="8901" y="-13.4" font-family="Times New Roman,serif" font-size="14.00">LOGGING</text>
</g>
<!-- 80 -->
<g id="node80" class="node"><title>80</title>
<polygon fill="none" stroke="black" points="4422,-36 4276,-36 4276,-1.06581e-014 4422,-0 4422,-36"/>
<text text-anchor="middle" x="4349" y="-13.4" font-family="Times New Roman,serif" font-size="14.00">REALVIEW_PB11MP</text>
</g>
<!-- 81 -->
<g id="node81" class="node"><title>81</title>
<polygon fill="none" stroke="black" points="7034,-108 6980,-108 6980,-72 7034,-72 7034,-108"/>
<text text-anchor="middle" x="7007" y="-85.4" font-family="Times New Roman,serif" font-size="14.00">PROT</text>
</g>
<!-- 81&#45;&gt;25 -->
<g id="edge48" class="edge"><title>81&#45;&gt;25</title>
<path fill="none" stroke="black" d="M7007,-71.8314C7007,-64.131 7007,-54.9743 7007,-46.4166"/>
<polygon fill="black" stroke="black" points="7010.5,-46.4132 7007,-36.4133 7003.5,-46.4133 7010.5,-46.4132"/>
</g>
<!-- 83 -->
<g id="node83" class="node"><title>83</title>
<polygon fill="none" stroke="black" points="6112,-36 6058,-36 6058,-1.06581e-014 6112,-0 6112,-36"/>
<text text-anchor="middle" x="6085" y="-13.4" font-family="Times New Roman,serif" font-size="14.00">PXA</text>
</g>
<!-- 84 -->
<g id="node84" class="node"><title>84</title>
<polygon fill="none" stroke="black" points="6184,-36 6130,-36 6130,-1.06581e-014 6184,-0 6184,-36"/>
<text text-anchor="middle" x="6157" y="-13.4" font-family="Times New Roman,serif" font-size="14.00">1176</text>
</g>
<!-- 85 -->
<g id="node85" class="node"><title>85</title>
<polygon fill="none" stroke="black" points="6256,-36 6202,-36 6202,-1.06581e-014 6256,-0 6256,-36"/>
<text text-anchor="middle" x="6229" y="-13.4" font-family="Times New Roman,serif" font-size="14.00">K8</text>
</g>
<!-- 87 -->
<g id="node87" class="node"><title>87</title>
<polygon fill="none" stroke="black" points="7124,-108 7052,-108 7052,-72 7124,-72 7124,-108"/>
<text text-anchor="middle" x="7088" y="-85.4" font-family="Times New Roman,serif" font-size="14.00">Scheduler</text>
</g>
<!-- 87&#45;&gt;1 -->
<g id="edge2" class="edge"><title>87&#45;&gt;1</title>
<path fill="none" stroke="black" d="M7092.29,-71.8314C7094.11,-64.131 7096.27,-54.9743 7098.29,-46.4166"/>
<polygon fill="black" stroke="black" points="7101.76,-46.95 7100.65,-36.4133 7094.95,-45.3414 7101.76,-46.95"/>
</g>
<!-- 87&#45;&gt;16 -->
<g id="edge30" class="edge"><title>87&#45;&gt;16</title>
<path fill="none" stroke="black" d="M7112.73,-71.8314C7124.92,-62.8779 7139.78,-51.9558 7152.93,-42.2955"/>
<polygon fill="black" stroke="black" points="7155.29,-44.9042 7161.28,-36.1628 7151.15,-39.263 7155.29,-44.9042"/>
</g>
<!-- 87&#45;&gt;71 -->
<g id="edge140" class="edge"><title>87&#45;&gt;71</title>
<path fill="none" stroke="black" d="M7124.29,-75.3123C7127.23,-74.1748 7130.16,-73.0582 7133,-72 7164.97,-60.081 7200.94,-47.5702 7230.28,-37.5954"/>
<polygon fill="black" stroke="black" points="7231.61,-40.8394 7239.95,-34.3143 7229.36,-34.2099 7231.61,-40.8394"/>
</g>
<!-- 90 -->
<g id="node90" class="node"><title>90</title>
<polygon fill="none" stroke="black" points="6348,-36 6274,-36 6274,-1.06581e-014 6348,-0 6348,-36"/>
<text text-anchor="middle" x="6311" y="-13.4" font-family="Times New Roman,serif" font-size="14.00">MPCORE</text>
</g>
<!-- 93 -->
<g id="node93" class="node"><title>93</title>
<polygon fill="none" stroke="black" points="8012,-108 7908,-108 7908,-72 8012,-72 8012,-108"/>
<text text-anchor="middle" x="7960" y="-85.4" font-family="Times New Roman,serif" font-size="14.00">ALLOC_TEST</text>
</g>
<!-- 96&#45;&gt;24 -->
<g id="edge46" class="edge"><title>96&#45;&gt;24</title>
<path fill="none" stroke="black" d="M3014.34,-71.9707C2958.14,-61.5951 2887.43,-48.5409 2829.63,-37.8702"/>
<polygon fill="black" stroke="black" points="2830.2,-34.4169 2819.73,-36.0432 2828.93,-41.3006 2830.2,-34.4169"/>
</g>
<!-- 143 -->
<g id="node143" class="node"><title>143</title>
<polygon fill="none" stroke="black" points="3103,-36 2861,-36 2861,-1.06581e-014 3103,-0 3103,-36"/>
<text text-anchor="middle" x="2982" y="-13.4" font-family="Times New Roman,serif" font-size="14.00">REALVIEW_RAM_PHYS_BASE_0x7</text>
</g>
<!-- 96&#45;&gt;143 -->
<g id="edge284" class="edge"><title>96&#45;&gt;143</title>
<path fill="none" stroke="black" d="M3079.2,-71.8314C3062.41,-62.5368 3041.8,-51.1208 3023.88,-41.1971"/>
<polygon fill="black" stroke="black" points="3025.24,-37.9461 3014.79,-36.1628 3021.85,-44.0696 3025.24,-37.9461"/>
</g>
<!-- 145 -->
<g id="node145" class="node"><title>145</title>
<polygon fill="none" stroke="black" points="3363,-36 3121,-36 3121,-1.06581e-014 3363,-0 3363,-36"/>
<text text-anchor="middle" x="3242" y="-13.4" font-family="Times New Roman,serif" font-size="14.00">REALVIEW_RAM_PHYS_BASE_0x2</text>
</g>
<!-- 96&#45;&gt;145 -->
<g id="edge288" class="edge"><title>96&#45;&gt;145</title>
<path fill="none" stroke="black" d="M3144.8,-71.8314C3161.59,-62.5368 3182.2,-51.1208 3200.12,-41.1971"/>
<polygon fill="black" stroke="black" points="3202.15,-44.0696 3209.21,-36.1628 3198.76,-37.9461 3202.15,-44.0696"/>
</g>
<!-- 149 -->
<g id="node149" class="node"><title>149</title>
<polygon fill="none" stroke="black" points="3623,-36 3381,-36 3381,-1.06581e-014 3623,-0 3623,-36"/>
<text text-anchor="middle" x="3502" y="-13.4" font-family="Times New Roman,serif" font-size="14.00">REALVIEW_RAM_PHYS_BASE_0x0</text>
</g>
<!-- 96&#45;&gt;149 -->
<g id="edge296" class="edge"><title>96&#45;&gt;149</title>
<path fill="none" stroke="black" d="M3209.66,-71.9707C3265.86,-61.5951 3336.57,-48.5409 3394.37,-37.8702"/>
<polygon fill="black" stroke="black" points="3395.07,-41.3006 3404.27,-36.0432 3393.8,-34.4169 3395.07,-41.3006"/>
</g>
<!-- 99 -->
<g id="node99" class="node"><title>99</title>
<polygon fill="none" stroke="black" points="6420,-36 6366,-36 6366,-1.06581e-014 6420,-0 6420,-36"/>
<text text-anchor="middle" x="6393" y="-13.4" font-family="Times New Roman,serif" font-size="14.00">K6</text>
</g>
<!-- 104 -->
<g id="node104" class="node"><title>104</title>
<polygon fill="none" stroke="black" points="8206,-108 8030,-108 8030,-72 8206,-72 8206,-108"/>
<text text-anchor="middle" x="8118" y="-85.4" font-family="Times New Roman,serif" font-size="14.00">KERNEL_PAGE_FAULTS</text>
</g>
<!-- 106 -->
<g id="node106" class="node"><title>106</title>
<polygon fill="none" stroke="black" points="6500,-36 6438,-36 6438,-1.06581e-014 6500,-0 6500,-36"/>
<text text-anchor="middle" x="6469" y="-13.4" font-family="Times New Roman,serif" font-size="14.00">CORE2</text>
</g>
<!-- 107 -->
<g id="node107" class="node"><title>107</title>
<polygon fill="none" stroke="black" points="8298,-108 8224,-108 8224,-72 8298,-72 8298,-108"/>
<text text-anchor="middle" x="8261" y="-85.4" font-family="Times New Roman,serif" font-size="14.00">PROFILE</text>
</g>
<!-- 109 -->
<g id="node109" class="node"><title>109</title>
<polygon fill="none" stroke="black" points="8378,-108 8316,-108 8316,-72 8378,-72 8378,-108"/>
<text text-anchor="middle" x="8347" y="-85.4" font-family="Times New Roman,serif" font-size="14.00">INLINE</text>
</g>
<!-- 114 -->
<g id="node114" class="node"><title>114</title>
<polygon fill="none" stroke="black" points="8476,-108 8396,-108 8396,-72 8476,-72 8476,-108"/>
<text text-anchor="middle" x="8436" y="-85.4" font-family="Times New Roman,serif" font-size="14.00">RO_TEXT</text>
</g>
<!-- 117 -->
<g id="node117" class="node"><title>117</title>
<polygon fill="none" stroke="black" points="6572,-36 6518,-36 6518,-1.06581e-014 6572,-0 6572,-36"/>
<text text-anchor="middle" x="6545" y="-13.4" font-family="Times New Roman,serif" font-size="14.00">SA</text>
</g>
<!-- 118 -->
<g id="node118" class="node"><title>118</title>
<polygon fill="none" stroke="black" points="6644,-36 6590,-36 6590,-1.06581e-014 6644,-0 6644,-36"/>
<text text-anchor="middle" x="6617" y="-13.4" font-family="Times New Roman,serif" font-size="14.00">920T</text>
</g>
<!-- 120 -->
<g id="node120" class="node"><title>120</title>
<polygon fill="none" stroke="black" points="4786,-36 4724,-36 4724,-1.06581e-014 4786,-0 4786,-36"/>
<text text-anchor="middle" x="4755" y="-13.4" font-family="Times New Roman,serif" font-size="14.00">AMD64</text>
</g>
<!-- 121 -->
<g id="node121" class="node"><title>121</title>
<polygon fill="none" stroke="black" points="6720,-36 6662,-36 6662,-1.06581e-014 6720,-0 6720,-36"/>
<text text-anchor="middle" x="6691" y="-13.4" font-family="Times New Roman,serif" font-size="14.00">ATOM</text>
</g>
<!-- 122 -->
<g id="node122" class="node"><title>122</title>
<polygon fill="none" stroke="black" points="6792,-36 6738,-36 6738,-1.06581e-014 6792,-0 6792,-36"/>
<text text-anchor="middle" x="6765" y="-13.4" font-family="Times New Roman,serif" font-size="14.00">686</text>
</g>
<!-- 123 -->
<g id="node123" class="node"><title>123</title>
<polygon fill="none" stroke="black" points="7276,-108 7142,-108 7142,-72 7276,-72 7276,-108"/>
<text text-anchor="middle" x="7209" y="-85.4" font-family="Times New Roman,serif" font-size="14.00">VIRT_OBJ_SPACE</text>
</g>
<!-- 126 -->
<g id="node126" class="node"><title>126</title>
<polygon fill="none" stroke="black" points="8600,-108 8494,-108 8494,-72 8600,-72 8600,-108"/>
<text text-anchor="middle" x="8547" y="-85.4" font-family="Times New Roman,serif" font-size="14.00">IRET_SANITY</text>
</g>
<!-- 127&#45;&gt;6 -->
<g id="edge12" class="edge"><title>127&#45;&gt;6</title>
<path fill="none" stroke="black" d="M6885.77,-159.103C6819.66,-154.175 6698.85,-141.52 6589.97,-107.776"/>
<polygon fill="black" stroke="black" points="6590.74,-104.347 6580.15,-104.663 6588.62,-111.02 6590.74,-104.347"/>
</g>
<!-- 127&#45;&gt;35 -->
<g id="edge68" class="edge"><title>127&#45;&gt;35</title>
<path fill="none" stroke="black" d="M6885.84,-148.542C6847,-137.909 6792.12,-122.885 6747.69,-110.72"/>
<polygon fill="black" stroke="black" points="6748.36,-107.277 6737.8,-108.012 6746.52,-114.029 6748.36,-107.277"/>
</g>
<!-- 127&#45;&gt;48 -->
<g id="edge94" class="edge"><title>127&#45;&gt;48</title>
<path fill="none" stroke="black" d="M6898.66,-143.831C6876.79,-132.896 6849.05,-119.024 6827.2,-108.1"/>
<polygon fill="black" stroke="black" points="6828.74,-104.958 6818.23,-103.617 6825.61,-111.219 6828.74,-104.958"/>
</g>
<!-- 127&#45;&gt;56 -->
<g id="edge110" class="edge"><title>127&#45;&gt;56</title>
<path fill="none" stroke="black" d="M6916.83,-143.831C6908.28,-135.285 6897.94,-124.944 6888.62,-115.62"/>
<polygon fill="black" stroke="black" points="6890.96,-113.009 6881.41,-108.413 6886.01,-117.959 6890.96,-113.009"/>
</g>
<!-- 127&#45;&gt;76 -->
<g id="edge150" class="edge"><title>127&#45;&gt;76</title>
<path fill="none" stroke="black" d="M6935,-143.831C6935,-136.131 6935,-126.974 6935,-118.417"/>
<polygon fill="black" stroke="black" points="6938.5,-118.413 6935,-108.413 6931.5,-118.413 6938.5,-118.413"/>
</g>
<!-- 127&#45;&gt;81 -->
<g id="edge160" class="edge"><title>127&#45;&gt;81</title>
<path fill="none" stroke="black" d="M6953.17,-143.831C6961.72,-135.285 6972.06,-124.944 6981.38,-115.62"/>
<polygon fill="black" stroke="black" points="6983.99,-117.959 6988.59,-108.413 6979.04,-113.009 6983.99,-117.959"/>
</g>
<!-- 127&#45;&gt;87 -->
<g id="edge172" class="edge"><title>127&#45;&gt;87</title>
<path fill="none" stroke="black" d="M6973.61,-143.831C6994.6,-133.953 7020.68,-121.678 7042.64,-111.345"/>
<polygon fill="black" stroke="black" points="7044.21,-114.474 7051.77,-107.049 7041.23,-108.14 7044.21,-114.474"/>
</g>
<!-- 127&#45;&gt;123 -->
<g id="edge244" class="edge"><title>127&#45;&gt;123</title>
<path fill="none" stroke="black" d="M6984.31,-146.493C6987.24,-145.633 6990.16,-144.796 6993,-144 7019,-136.722 7080.94,-121.309 7131.85,-108.805"/>
<polygon fill="black" stroke="black" points="7133,-112.128 7141.87,-106.347 7131.33,-105.33 7133,-112.128"/>
</g>
<!-- 132 -->
<g id="node132" class="node"><title>132</title>
<polygon fill="none" stroke="black" points="7348,-108 7294,-108 7294,-72 7348,-72 7348,-108"/>
<text text-anchor="middle" x="7321" y="-85.4" font-family="Times New Roman,serif" font-size="14.00">CON</text>
</g>
<!-- 127&#45;&gt;132 -->
<g id="edge262" class="edge"><title>127&#45;&gt;132</title>
<path fill="none" stroke="black" d="M6984.2,-146.076C6987.17,-145.321 6990.11,-144.621 6993,-144 7117.72,-117.183 7157.86,-144.391 7284.23,-107.641"/>
<polygon fill="black" stroke="black" points="7285.3,-110.974 7293.88,-104.76 7283.3,-104.266 7285.3,-110.974"/>
</g>
<!-- 141 -->
<g id="node141" class="node"><title>141</title>
<polygon fill="none" stroke="black" points="7420,-108 7366,-108 7366,-72 7420,-72 7420,-108"/>
<text text-anchor="middle" x="7393" y="-85.4" font-family="Times New Roman,serif" font-size="14.00">SHOT</text>
</g>
<!-- 127&#45;&gt;141 -->
<g id="edge280" class="edge"><title>127&#45;&gt;141</title>
<path fill="none" stroke="black" d="M6984.18,-145.993C6987.15,-145.259 6990.11,-144.586 6993,-144 7149.07,-112.404 7198.78,-151.435 7355.89,-107.691"/>
<polygon fill="black" stroke="black" points="7357.25,-110.943 7365.9,-104.833 7355.33,-104.212 7357.25,-110.943"/>
</g>
<!-- 157 -->
<g id="node157" class="node"><title>157</title>
<polygon fill="none" stroke="black" points="7492,-108 7438,-108 7438,-72 7492,-72 7492,-108"/>
<text text-anchor="middle" x="7465" y="-85.4" font-family="Times New Roman,serif" font-size="14.00">MP</text>
</g>
<!-- 127&#45;&gt;157 -->
<g id="edge312" class="edge"><title>127&#45;&gt;157</title>
<path fill="none" stroke="black" d="M6984.17,-145.937C6987.14,-145.217 6990.1,-144.562 6993,-144 7180.71,-107.578 7239.81,-158.677 7428.26,-107.559"/>
<polygon fill="black" stroke="black" points="7429.21,-110.927 7437.92,-104.882 7427.34,-104.181 7429.21,-110.927"/>
</g>
<!-- 130 -->
<g id="node130" class="node"><title>130</title>
<polygon fill="none" stroke="black" points="6864,-36 6810,-36 6810,-1.06581e-014 6864,-0 6864,-36"/>
<text text-anchor="middle" x="6837" y="-13.4" font-family="Times New Roman,serif" font-size="14.00">K10</text>
</g>
<!-- 131 -->
<g id="node131" class="node"><title>131</title>
<polygon fill="none" stroke="black" points="8716,-108 8618,-108 8618,-72 8716,-72 8716,-108"/>
<text text-anchor="middle" x="8667" y="-85.4" font-family="Times New Roman,serif" font-size="14.00">WATCHDOG</text>
</g>
<!-- 134 -->
<g id="node134" class="node"><title>134</title>
<polygon fill="none" stroke="black" points="8856,-108 8734,-108 8734,-72 8856,-72 8856,-108"/>
<text text-anchor="middle" x="8795" y="-85.4" font-family="Times New Roman,serif" font-size="14.00">ALLOC_SANITY</text>
</g>
<!-- 136 -->
<g id="node136" class="node"><title>136</title>
<polygon fill="none" stroke="black" points="4562,-36 4440,-36 4440,-1.06581e-014 4562,-0 4562,-36"/>
<text text-anchor="middle" x="4501" y="-13.4" font-family="Times New Roman,serif" font-size="14.00">REALVIEW_PBX</text>
</g>
<!-- 137 -->
<g id="node137" class="node"><title>137</title>
<polygon fill="none" stroke="black" points="8928,-108 8874,-108 8874,-72 8928,-72 8928,-108"/>
<text text-anchor="middle" x="8901" y="-85.4" font-family="Times New Roman,serif" font-size="14.00">JDB</text>
</g>
<!-- 137&#45;&gt;31 -->
<g id="edge60" class="edge"><title>137&#45;&gt;31</title>
<path fill="none" stroke="black" d="M8873.75,-75.6219C8870.84,-74.3104 8867.88,-73.0739 8865,-72 8807.24,-50.4679 8786.55,-57.8 8724.68,-35.8379"/>
<polygon fill="black" stroke="black" points="8725.84,-32.5347 8715.25,-32.3781 8723.43,-39.1068 8725.84,-32.5347"/>
</g>
<!-- 137&#45;&gt;44 -->
<g id="edge86" class="edge"><title>137&#45;&gt;44</title>
<path fill="none" stroke="black" d="M8873.93,-72.7542C8859.28,-63.417 8840.96,-51.7445 8825,-41.5783"/>
<polygon fill="black" stroke="black" points="8826.74,-38.5317 8816.42,-36.1098 8822.98,-44.4352 8826.74,-38.5317"/>
</g>
<!-- 137&#45;&gt;79 -->
<g id="edge156" class="edge"><title>137&#45;&gt;79</title>
<path fill="none" stroke="black" d="M8901,-71.8314C8901,-64.131 8901,-54.9743 8901,-46.4166"/>
<polygon fill="black" stroke="black" points="8904.5,-46.4132 8901,-36.4133 8897.5,-46.4133 8904.5,-46.4132"/>
</g>
<!-- 155 -->
<g id="node155" class="node"><title>155</title>
<polygon fill="none" stroke="black" points="9027,-36 8959,-36 8959,-1.06581e-014 9027,-0 9027,-36"/>
<text text-anchor="middle" x="8993" y="-13.4" font-family="Times New Roman,serif" font-size="14.00">DISASM</text>
</g>
<!-- 137&#45;&gt;155 -->
<g id="edge308" class="edge"><title>137&#45;&gt;155</title>
<path fill="none" stroke="black" d="M8924.22,-71.8314C8935.55,-62.9632 8949.35,-52.1637 8961.6,-42.5718"/>
<polygon fill="black" stroke="black" points="8964.07,-45.0822 8969.79,-36.1628 8959.76,-39.5697 8964.07,-45.0822"/>
</g>
<!-- 160 -->
<g id="node160" class="node"><title>160</title>
<polygon fill="none" stroke="black" points="9099,-36 9045,-36 9045,-1.06581e-014 9099,-0 9099,-36"/>
<text text-anchor="middle" x="9072" y="-13.4" font-family="Times New Roman,serif" font-size="14.00">GZIP</text>
</g>
<!-- 137&#45;&gt;160 -->
<g id="edge318" class="edge"><title>137&#45;&gt;160</title>
<path fill="none" stroke="black" d="M8928.36,-75.9119C8931.26,-74.5439 8934.18,-73.2149 8937,-72 8977.32,-54.6567 8991.25,-54.4508 9035.39,-36.0264"/>
<polygon fill="black" stroke="black" points="9036.81,-39.2267 9044.64,-32.0881 9034.06,-32.7864 9036.81,-39.2267"/>
</g>
<!-- 138 -->
<g id="node138" class="node"><title>138</title>
<polygon fill="none" stroke="black" points="9020,-108 8946,-108 8946,-72 9020,-72 9020,-108"/>
<text text-anchor="middle" x="8983" y="-85.4" font-family="Times New Roman,serif" font-size="14.00">NDEBUG</text>
</g>
<!-- 142&#45;&gt;65 -->
<g id="edge128" class="edge"><title>142&#45;&gt;65</title>
<path fill="none" stroke="black" d="M4653.81,-73.6052C4650.84,-73.0117 4647.89,-72.4709 4645,-72 4401.22,-32.3159 4331.63,-76.426 4084.22,-35.9956"/>
<polygon fill="black" stroke="black" points="4084.65,-32.5186 4074.21,-34.3295 4083.5,-39.4236 4084.65,-32.5186"/>
</g>
<!-- 142&#45;&gt;72 -->
<g id="edge142" class="edge"><title>142&#45;&gt;72</title>
<path fill="none" stroke="black" d="M4653.79,-73.7155C4650.83,-73.0929 4647.89,-72.5157 4645,-72 4482.04,-42.8736 4435.76,-59.5658 4268.09,-36.0693"/>
<polygon fill="black" stroke="black" points="4268.58,-32.6039 4258.18,-34.6549 4267.59,-39.5336 4268.58,-32.6039"/>
</g>
<!-- 142&#45;&gt;80 -->
<g id="edge158" class="edge"><title>142&#45;&gt;80</title>
<path fill="none" stroke="black" d="M4653.74,-73.9695C4650.79,-73.2797 4647.86,-72.6188 4645,-72 4553.86,-52.3144 4527.43,-54.1908 4432.33,-36.1996"/>
<polygon fill="black" stroke="black" points="4432.76,-32.719 4422.28,-34.2739 4431.44,-39.5939 4432.76,-32.719"/>
</g>
<!-- 142&#45;&gt;136 -->
<g id="edge270" class="edge"><title>142&#45;&gt;136</title>
<path fill="none" stroke="black" d="M4659.78,-71.9243C4630.67,-62.0387 4594.43,-49.7321 4563.93,-39.3726"/>
<polygon fill="black" stroke="black" points="4564.84,-35.9849 4554.24,-36.0831 4562.59,-42.6131 4564.84,-35.9849"/>
</g>
<!-- 144&#45;&gt;62 -->
<g id="edge122" class="edge"><title>144&#45;&gt;62</title>
<path fill="none" stroke="black" d="M4789.79,-74.7947C4786.82,-73.8212 4783.87,-72.88 4781,-72 4723.35,-54.342 4704.2,-57.8759 4643.88,-35.9474"/>
<polygon fill="black" stroke="black" points="4644.85,-32.5727 4634.25,-32.3627 4642.4,-39.1326 4644.85,-32.5727"/>
</g>
<!-- 144&#45;&gt;67 -->
<g id="edge132" class="edge"><title>144&#45;&gt;67</title>
<path fill="none" stroke="black" d="M4792.05,-71.9366C4771.41,-62.5181 4745.64,-50.6303 4715.23,-36.0508"/>
<polygon fill="black" stroke="black" points="4716.61,-32.8335 4706.08,-31.6544 4713.58,-39.1421 4716.61,-32.8335"/>
</g>
<!-- 144&#45;&gt;120 -->
<g id="edge238" class="edge"><title>144&#45;&gt;120</title>
<path fill="none" stroke="black" d="M4812.57,-71.8314C4803.27,-63.1337 4791.98,-52.5783 4781.87,-43.1265"/>
<polygon fill="black" stroke="black" points="4784.12,-40.4363 4774.42,-36.1628 4779.34,-45.5493 4784.12,-40.4363"/>
</g>
<!-- 156 -->
<g id="node156" class="node"><title>156</title>
<polygon fill="none" stroke="black" points="4860,-36 4804,-36 4804,-1.06581e-014 4860,-0 4860,-36"/>
<text text-anchor="middle" x="4832" y="-13.4" font-family="Times New Roman,serif" font-size="14.00">PPC32</text>
</g>
<!-- 144&#45;&gt;156 -->
<g id="edge310" class="edge"><title>144&#45;&gt;156</title>
<path fill="none" stroke="black" d="M4832,-71.8314C4832,-64.131 4832,-54.9743 4832,-46.4166"/>
<polygon fill="black" stroke="black" points="4835.5,-46.4132 4832,-36.4133 4828.5,-46.4133 4835.5,-46.4132"/>
</g>
<!-- 146&#45;&gt;2 -->
<g id="edge4" class="edge"><title>146&#45;&gt;2</title>
<path fill="none" stroke="black" d="M5743.92,-89.6775C5621.35,-88.0032 5117.35,-78.754 4941.91,-35.4931"/>
<polygon fill="black" stroke="black" points="4942.63,-32.0636 4932.07,-32.9351 4940.87,-38.8385 4942.63,-32.0636"/>
</g>
<!-- 146&#45;&gt;5 -->
<g id="edge10" class="edge"><title>146&#45;&gt;5</title>
<path fill="none" stroke="black" d="M5743.74,-88.7616C5632.5,-83.5852 5212.04,-62.7808 5058.33,-35.946"/>
<polygon fill="black" stroke="black" points="5058.64,-32.4431 5048.17,-34.0868 5057.38,-39.3289 5058.64,-32.4431"/>
</g>
<!-- 146&#45;&gt;20 -->
<g id="edge38" class="edge"><title>146&#45;&gt;20</title>
<path fill="none" stroke="black" d="M5743.89,-88.9076C5640.88,-84.5736 5273.19,-67.3915 5137.8,-35.5991"/>
<polygon fill="black" stroke="black" points="5138.63,-32.1987 5128.08,-33.1848 5136.94,-38.9922 5138.63,-32.1987"/>
</g>
<!-- 146&#45;&gt;26 -->
<g id="edge50" class="edge"><title>146&#45;&gt;26</title>
<path fill="none" stroke="black" d="M5743.98,-88.7169C5649.02,-84.0105 5330.34,-66.4952 5210.09,-35.5786"/>
<polygon fill="black" stroke="black" points="5210.66,-32.1064 5200.1,-32.8412 5208.82,-38.8579 5210.66,-32.1064"/>
</g>
<!-- 146&#45;&gt;27 -->
<g id="edge52" class="edge"><title>146&#45;&gt;27</title>
<path fill="none" stroke="black" d="M5743.8,-88.2699C5657.02,-82.5588 5386.77,-63.2476 5281.74,-35.5092"/>
<polygon fill="black" stroke="black" points="5282.68,-32.1372 5272.11,-32.7987 5280.79,-38.8758 5282.68,-32.1372"/>
</g>
<!-- 146&#45;&gt;30 -->
<g id="edge58" class="edge"><title>146&#45;&gt;30</title>
<path fill="none" stroke="black" d="M5743.92,-87.6938C5666.47,-80.9158 5444.27,-60.1692 5353.96,-35.5992"/>
<polygon fill="black" stroke="black" points="5354.7,-32.1702 5344.12,-32.742 5352.75,-38.8924 5354.7,-32.1702"/>
</g>
<!-- 146&#45;&gt;38 -->
<g id="edge74" class="edge"><title>146&#45;&gt;38</title>
<path fill="none" stroke="black" d="M5743.87,-88.6095C5686.23,-85.0609 5547.53,-73.3662 5425.98,-35.774"/>
<polygon fill="black" stroke="black" points="5426.74,-32.3419 5416.15,-32.6625 5424.63,-39.0159 5426.74,-32.3419"/>
</g>
<!-- 146&#45;&gt;45 -->
<g id="edge88" class="edge"><title>146&#45;&gt;45</title>
<path fill="none" stroke="black" d="M5743.93,-87.1127C5695.68,-81.453 5591.83,-66.9382 5497.84,-35.8094"/>
<polygon fill="black" stroke="black" points="5498.78,-32.435 5488.19,-32.5431 5496.54,-39.0653 5498.78,-32.435"/>
</g>
<!-- 146&#45;&gt;46 -->
<g id="edge90" class="edge"><title>146&#45;&gt;46</title>
<path fill="none" stroke="black" d="M5743.99,-84.6047C5706.49,-76.7266 5636.58,-60.6345 5569.68,-35.8934"/>
<polygon fill="black" stroke="black" points="5570.85,-32.5962 5560.26,-32.3448 5568.38,-39.1465 5570.85,-32.5962"/>
</g>
<!-- 146&#45;&gt;47 -->
<g id="edge92" class="edge"><title>146&#45;&gt;47</title>
<path fill="none" stroke="black" d="M5743.87,-79.3747C5719.27,-69.5977 5681.85,-54.3829 5641.28,-35.9939"/>
<polygon fill="black" stroke="black" points="5642.58,-32.7379 5632.03,-31.7681 5639.67,-39.1056 5642.58,-32.7379"/>
</g>
<!-- 146&#45;&gt;50 -->
<g id="edge98" class="edge"><title>146&#45;&gt;50</title>
<path fill="none" stroke="black" d="M5747.28,-71.8314C5735.59,-62.8779 5721.33,-51.9558 5708.72,-42.2955"/>
<polygon fill="black" stroke="black" points="5710.78,-39.4651 5700.71,-36.1628 5706.52,-45.0222 5710.78,-39.4651"/>
</g>
<!-- 146&#45;&gt;52 -->
<g id="edge102" class="edge"><title>146&#45;&gt;52</title>
<path fill="none" stroke="black" d="M5771,-71.8314C5771,-64.131 5771,-54.9743 5771,-46.4166"/>
<polygon fill="black" stroke="black" points="5774.5,-46.4132 5771,-36.4133 5767.5,-46.4133 5774.5,-46.4132"/>
</g>
<!-- 146&#45;&gt;53 -->
<g id="edge104" class="edge"><title>146&#45;&gt;53</title>
<path fill="none" stroke="black" d="M5794.72,-71.8314C5806.41,-62.8779 5820.67,-51.9558 5833.28,-42.2955"/>
<polygon fill="black" stroke="black" points="5835.48,-45.0222 5841.29,-36.1628 5831.22,-39.4651 5835.48,-45.0222"/>
</g>
<!-- 146&#45;&gt;54 -->
<g id="edge106" class="edge"><title>146&#45;&gt;54</title>
<path fill="none" stroke="black" d="M5798.39,-75.9611C5801.28,-74.5835 5804.19,-73.2388 5807,-72 5845.23,-55.1719 5858.32,-54.0981 5900.22,-36.1392"/>
<polygon fill="black" stroke="black" points="5901.85,-39.2461 5909.61,-32.0389 5899.05,-32.8303 5901.85,-39.2461"/>
</g>
<!-- 146&#45;&gt;74 -->
<g id="edge146" class="edge"><title>146&#45;&gt;74</title>
<path fill="none" stroke="black" d="M5798.21,-75.5136C5801.13,-74.2232 5804.1,-73.0213 5807,-72 5875.29,-47.952 5899.54,-59.2837 5972.22,-35.8395"/>
<polygon fill="black" stroke="black" points="5973.44,-39.1216 5981.82,-32.6351 5971.22,-32.4819 5973.44,-39.1216"/>
</g>
<!-- 146&#45;&gt;83 -->
<g id="edge164" class="edge"><title>146&#45;&gt;83</title>
<path fill="none" stroke="black" d="M5798.14,-75.316C5801.08,-74.0641 5804.07,-72.9252 5807,-72 5907.66,-40.2363 5943.21,-67.0504 6048.16,-35.6861"/>
<polygon fill="black" stroke="black" points="6049.34,-38.9853 6057.86,-32.684 6047.27,-32.2984 6049.34,-38.9853"/>
</g>
<!-- 146&#45;&gt;84 -->
<g id="edge166" class="edge"><title>146&#45;&gt;84</title>
<path fill="none" stroke="black" d="M5798.11,-75.2146C5801.06,-73.9825 5804.05,-72.8759 5807,-72 5938.49,-32.9185 5984.21,-74.0013 6119.96,-35.6837"/>
<polygon fill="black" stroke="black" points="6121.27,-38.9467 6129.89,-32.7854 6119.31,-32.2269 6121.27,-38.9467"/>
</g>
<!-- 146&#45;&gt;85 -->
<g id="edge168" class="edge"><title>146&#45;&gt;85</title>
<path fill="none" stroke="black" d="M5798.09,-75.1503C5801.04,-73.9308 5804.04,-72.8447 5807,-72 5969.43,-25.5865 6025.15,-81.0865 6191.81,-35.6846"/>
<polygon fill="black" stroke="black" points="6193.23,-38.9234 6201.91,-32.8497 6191.33,-32.1842 6193.23,-38.9234"/>
</g>
<!-- 146&#45;&gt;90 -->
<g id="edge178" class="edge"><title>146&#45;&gt;90</title>
<path fill="none" stroke="black" d="M5798.08,-75.106C5801.03,-73.8951 5804.04,-72.8232 5807,-72 6000.56,-18.2132 6063.95,-79.6535 6263.95,-35.82"/>
<polygon fill="black" stroke="black" points="6264.9,-39.1936 6273.88,-33.5808 6263.36,-32.3648 6264.9,-39.1936"/>
</g>
<!-- 146&#45;&gt;99 -->
<g id="edge196" class="edge"><title>146&#45;&gt;99</title>
<path fill="none" stroke="black" d="M5798.07,-75.0661C5801.02,-73.863 5804.03,-72.8038 5807,-72 6040.22,-8.83347 6118.41,-97.5534 6355.96,-35.5979"/>
<polygon fill="black" stroke="black" points="6357.17,-38.8966 6365.93,-32.9339 6355.37,-32.1338 6357.17,-38.8966"/>
</g>
<!-- 146&#45;&gt;106 -->
<g id="edge210" class="edge"><title>146&#45;&gt;106</title>
<path fill="none" stroke="black" d="M5798.06,-75.0431C5801.02,-73.8445 5804.03,-72.7926 5807,-72 6071.28,-1.4885 6157.94,-99.464 6427.85,-35.7088"/>
<polygon fill="black" stroke="black" points="6429.04,-39.0213 6437.94,-33.2705 6427.4,-32.2171 6429.04,-39.0213"/>
</g>
<!-- 146&#45;&gt;117 -->
<g id="edge232" class="edge"><title>146&#45;&gt;117</title>
<path fill="none" stroke="black" d="M5798.06,-75.023C5801.01,-73.8283 5804.03,-72.7828 5807,-72 6105.87,6.68765 6204.76,-112.921 6507.99,-35.5671"/>
<polygon fill="black" stroke="black" points="6509.15,-38.8832 6517.94,-32.977 6507.38,-32.1089 6509.15,-38.8832"/>
</g>
<!-- 146&#45;&gt;118 -->
<g id="edge234" class="edge"><title>146&#45;&gt;118</title>
<path fill="none" stroke="black" d="M5798.05,-75.0084C5801.01,-73.8166 5804.02,-72.7757 5807,-72 6136.98,14.0387 6245.65,-120.218 6579.99,-35.5605"/>
<polygon fill="black" stroke="black" points="6581.14,-38.8787 6589.95,-32.9916 6579.39,-32.1006 6581.14,-38.8787"/>
</g>
<!-- 146&#45;&gt;121 -->
<g id="edge240" class="edge"><title>146&#45;&gt;121</title>
<path fill="none" stroke="black" d="M5798.05,-74.9963C5801.01,-73.8068 5804.02,-72.7699 5807,-72 6168.15,21.4053 6285.6,-123.76 6652.16,-35.5638"/>
<polygon fill="black" stroke="black" points="6653.09,-38.9399 6661.97,-33.1624 6651.43,-32.1406 6653.09,-38.9399"/>
</g>
<!-- 146&#45;&gt;122 -->
<g id="edge242" class="edge"><title>146&#45;&gt;122</title>
<path fill="none" stroke="black" d="M5798.05,-74.9856C5801,-73.7982 5804.02,-72.7646 5807,-72 6201.01,29.1672 6329.72,-135.3 6728.19,-35.4988"/>
<polygon fill="black" stroke="black" points="6729.12,-38.8725 6737.95,-33.0144 6727.4,-32.0887 6729.12,-38.8725"/>
</g>
<!-- 146&#45;&gt;130 -->
<g id="edge258" class="edge"><title>146&#45;&gt;130</title>
<path fill="none" stroke="black" d="M5798.05,-74.9769C5801,-73.7912 5804.02,-72.7604 5807,-72 6018.03,-18.1324 6570.34,-88.5474 6799.93,-35.4728"/>
<polygon fill="black" stroke="black" points="6801.07,-38.7972 6809.95,-33.0231 6799.41,-31.9973 6801.07,-38.7972"/>
</g>
<!-- 147 -->
<g id="node147" class="node"><title>147</title>
<polygon fill="none" stroke="black" points="6936,-36 6882,-36 6882,-1.06581e-014 6936,-0 6936,-36"/>
<text text-anchor="middle" x="6909" y="-13.4" font-family="Times New Roman,serif" font-size="14.00">1136</text>
</g>
<!-- 146&#45;&gt;147 -->
<g id="edge292" class="edge"><title>146&#45;&gt;147</title>
<path fill="none" stroke="black" d="M5798.04,-74.9695C5801,-73.7852 5804.02,-72.7568 5807,-72 6033.59,-14.4549 6626.75,-92.1625 6871.96,-35.4664"/>
<polygon fill="black" stroke="black" points="6873.07,-38.799 6881.96,-33.0305 6871.41,-31.9981 6873.07,-38.799"/>
</g>
<!-- 148 -->
<g id="node148" class="node"><title>148</title>
<polygon fill="none" stroke="black" points="9102,-108 9038,-108 9038,-72 9102,-72 9102,-108"/>
<text text-anchor="middle" x="9070" y="-85.4" font-family="Times New Roman,serif" font-size="14.00">SERIAL</text>
</g>
<!-- 151 -->
<g id="node151" class="node"><title>151</title>
<polygon fill="none" stroke="black" points="9190,-108 9120,-108 9120,-72 9190,-72 9190,-108"/>
<text text-anchor="middle" x="9155" y="-85.4" font-family="Times New Roman,serif" font-size="14.00">GSTABS</text>
</g>
<!-- 153 -->
<g id="node153" class="node"><title>153</title>
<polygon fill="none" stroke="black" points="9282,-108 9208,-108 9208,-72 9282,-72 9282,-108"/>
<text text-anchor="middle" x="9245" y="-85.4" font-family="Times New Roman,serif" font-size="14.00">SPINNER</text>
</g>
<!-- 157&#45;&gt;3 -->
<g id="edge6" class="edge"><title>157&#45;&gt;3</title>
<path fill="none" stroke="black" d="M7456.67,-71.8314C7453.03,-63.8771 7448.67,-54.369 7444.64,-45.5723"/>
<polygon fill="black" stroke="black" points="7447.79,-44.0456 7440.44,-36.4133 7441.42,-46.9622 7447.79,-44.0456"/>
</g>
<!-- 161&#45;&gt;21 -->
<g id="edge40" class="edge"><title>161&#45;&gt;21</title>
<path fill="none" stroke="black" d="M8352.8,-160.783C8218.51,-156.291 7767.95,-139.362 7604.12,-107.833"/>
<polygon fill="black" stroke="black" points="7604.71,-104.381 7594.22,-105.833 7603.33,-111.242 7604.71,-104.381"/>
</g>
<!-- 161&#45;&gt;34 -->
<g id="edge66" class="edge"><title>161&#45;&gt;34</title>
<path fill="none" stroke="black" d="M8352.6,-160.032C8231.96,-153.677 7860.71,-132.775 7720.27,-107.942"/>
<polygon fill="black" stroke="black" points="7720.64,-104.451 7710.17,-106.071 7719.37,-111.334 7720.64,-104.451"/>
</g>
<!-- 161&#45;&gt;60 -->
<g id="edge118" class="edge"><title>161&#45;&gt;60</title>
<path fill="none" stroke="black" d="M8352.93,-159.659C8245.3,-152.847 7939.45,-132.115 7820.18,-107.876"/>
<polygon fill="black" stroke="black" points="7820.74,-104.418 7810.23,-105.748 7819.28,-111.263 7820.74,-104.418"/>
</g>
<!-- 161&#45;&gt;63 -->
<g id="edge124" class="edge"><title>161&#45;&gt;63</title>
<path fill="none" stroke="black" d="M8352.89,-159.367C8256.2,-152.446 8002.33,-132.728 7900.08,-107.705"/>
<polygon fill="black" stroke="black" points="7900.66,-104.238 7890.1,-105.108 7898.9,-111.012 7900.66,-104.238"/>
</g>
<!-- 161&#45;&gt;93 -->
<g id="edge184" class="edge"><title>161&#45;&gt;93</title>
<path fill="none" stroke="black" d="M8352.86,-158.241C8287.12,-151.372 8148.13,-135.14 8021.95,-108.048"/>
<polygon fill="black" stroke="black" points="8022.63,-104.614 8012.12,-105.908 8021.14,-111.454 8022.63,-104.614"/>
</g>
<!-- 161&#45;&gt;104 -->
<g id="edge206" class="edge"><title>161&#45;&gt;104</title>
<path fill="none" stroke="black" d="M8352.75,-151.913C8312.36,-141.26 8247.55,-124.166 8196.25,-110.637"/>
<polygon fill="black" stroke="black" points="8197.07,-107.234 8186.51,-108.068 8195.28,-114.002 8197.07,-107.234"/>
</g>
<!-- 161&#45;&gt;107 -->
<g id="edge212" class="edge"><title>161&#45;&gt;107</title>
<path fill="none" stroke="black" d="M8358.2,-143.831C8341.41,-134.537 8320.8,-123.121 8302.88,-113.197"/>
<polygon fill="black" stroke="black" points="8304.24,-109.946 8293.79,-108.163 8300.85,-116.07 8304.24,-109.946"/>
</g>
<!-- 161&#45;&gt;109 -->
<g id="edge216" class="edge"><title>161&#45;&gt;109</title>
<path fill="none" stroke="black" d="M8379.9,-143.831C8374.93,-135.708 8368.98,-125.964 8363.51,-117.012"/>
<polygon fill="black" stroke="black" points="8366.45,-115.121 8358.25,-108.413 8360.48,-118.771 8366.45,-115.121"/>
</g>
<!-- 161&#45;&gt;114 -->
<g id="edge226" class="edge"><title>161&#45;&gt;114</title>
<path fill="none" stroke="black" d="M8402.36,-143.831C8407.43,-135.708 8413.52,-125.964 8419.12,-117.012"/>
<polygon fill="black" stroke="black" points="8422.16,-118.748 8424.49,-108.413 8416.22,-115.038 8422.16,-118.748"/>
</g>
<!-- 161&#45;&gt;126 -->
<g id="edge250" class="edge"><title>161&#45;&gt;126</title>
<path fill="none" stroke="black" d="M8429.16,-144.387C8450.08,-134.733 8476.22,-122.669 8498.56,-112.357"/>
<polygon fill="black" stroke="black" points="8500.26,-115.426 8507.88,-108.057 8497.33,-109.07 8500.26,-115.426"/>
</g>
<!-- 161&#45;&gt;131 -->
<g id="edge260" class="edge"><title>161&#45;&gt;131</title>
<path fill="none" stroke="black" d="M8429.37,-153.207C8471.01,-143.509 8539.65,-127.067 8607.67,-108.3"/>
<polygon fill="black" stroke="black" points="8609,-111.563 8617.7,-105.515 8607.12,-104.819 8609,-111.563"/>
</g>
<!-- 161&#45;&gt;134 -->
<g id="edge266" class="edge"><title>161&#45;&gt;134</title>
<path fill="none" stroke="black" d="M8429.02,-157.006C8489.47,-148.817 8611.33,-131.286 8724.15,-108.081"/>
<polygon fill="black" stroke="black" points="8724.91,-111.498 8733.99,-106.037 8723.49,-104.644 8724.91,-111.498"/>
</g>
<!-- 161&#45;&gt;137 -->
<g id="edge272" class="edge"><title>161&#45;&gt;137</title>
<path fill="none" stroke="black" d="M8429.18,-159.378C8523.42,-152.638 8765.96,-133.608 8864.03,-107.577"/>
<polygon fill="black" stroke="black" points="8865.22,-110.879 8873.89,-104.788 8863.31,-104.143 8865.22,-110.879"/>
</g>
<!-- 161&#45;&gt;138 -->
<g id="edge274" class="edge"><title>161&#45;&gt;138</title>
<path fill="none" stroke="black" d="M8429.28,-159.584C8533.67,-152.786 8822.5,-132.517 8936.07,-107.768"/>
<polygon fill="black" stroke="black" points="8936.91,-111.167 8945.87,-105.515 8935.34,-104.346 8936.91,-111.167"/>
</g>
<!-- 161&#45;&gt;148 -->
<g id="edge294" class="edge"><title>161&#45;&gt;148</title>
<path fill="none" stroke="black" d="M8429.24,-160.411C8545.75,-155.319 8895.87,-138.088 9027.81,-107.742"/>
<polygon fill="black" stroke="black" points="9028.78,-111.108 9037.67,-105.344 9027.13,-104.307 9028.78,-111.108"/>
</g>
<!-- 161&#45;&gt;151 -->
<g id="edge300" class="edge"><title>161&#45;&gt;151</title>
<path fill="none" stroke="black" d="M8429.04,-160.717C8555.32,-156.217 8960.62,-139.798 9109.89,-107.755"/>
<polygon fill="black" stroke="black" points="9110.79,-111.141 9119.77,-105.521 9109.25,-104.313 9110.79,-111.141"/>
</g>
<!-- 161&#45;&gt;153 -->
<g id="edge304" class="edge"><title>161&#45;&gt;153</title>
<path fill="none" stroke="black" d="M8429.24,-160.993C8565.88,-157.159 9030.33,-142.044 9198,-107.745"/>
<polygon fill="black" stroke="black" points="9198.85,-111.141 9207.89,-105.619 9197.38,-104.297 9198.85,-111.141"/>
</g>
</g>
</svg>
