digraph {
graph [rankdir=TB]
node [shape=box]
1[label="WFQ"]
2[label="486"]
3[label="MAX_CPUS"]
4[label="OMAP"]
5[label="CORTEX_A9"]
6[label="4K"]
7[label="Compiling"]
8[label="OMAP3_BEAGLEBOARD"]
9[label="V6"]
10[label="ARM_CPU_920T"]
11[label="RTC"]
12[label="V7"]
13[label="Fiasco"]
14[label="IMX_21"]
15[label="BIT64"]
16[label="FP_WFQ"]
17[label="IMX_35"]
18[label="ARM_CPU_CORTEX_A8"]
19[label="SA1100"]
20[label="CORE2"]
21[label="Warn levels"]
22[label="KIRKWOOD"]
23[label="ARM_CPU_926"]
24[label="REALVIEW_RAM_PHYS_BASE_0x6"]
25[label="PROT_IOPL_3"]
26[label="PM"]
27[label="K10"]
28[label="Platform"]
29[label="HPET"]
30[label="586"]
31[label="MISC"]
32[label="KERNELVERSION"]
33[label="Target configuration"]
34[label="FRAME_PTR"]
35[label="GRAINED_CPUTIME"]
36[label="Freescale i.MX"]
37[label="CNT"]
38[label="K8"]
39[label="ANY"]
40[label="CXX"]
41[label="CACHE_L2CXX0"]
42[label="BIT32"]
43[label="REALVIEW"]
44[label="ACCOUNTING"]
45[label="P4"]
46[label="926"]
47[label="603e"]
48[label="TSC"]
49[label="ARM_CPU_1136"]
50[label="K7"]
51[label="CC"]
52[label="CORTEX_A8"]
53[label="P2"]
54[label="P3"]
55[label="LEVEL"]
56[label="NET"]
57[label="IMX_RAM_PHYS_BASE"]
58[label="PPC32"]
59[label="IMX"]
60[label="GETCHAR"]
61[label="MODE"]
62[label="IA32"]
63[label="DEPTH"]
64[label="OMAP Platform"]
65[label="REALVIEW_EB"]
66[label="Timer tick source"]
67[label="ARM"]
68[label="IMX_51"]
69[label="TEGRA2"]
70[label="EXPERIMENTAL"]
71[label="FIXED_PRIO"]
72[label="REALVIEW_VEXPRESS"]
73[label="ARM_CPU_MPCORE"]
74[label="ATOM"]
75[label="XARCH"]
76[label="RTC"]
77[label="PC"]
78[label="1176_CACHE_ALIAS_FIX"]
79[label="LOGGING"]
80[label="REALVIEW_PB11MP"]
81[label="PROT"]
82[label="OMAP4_PANDABOARD"]
83[label="PXA"]
84[label="1176"]
85[label="K8"]
86[label="ABI"]
87[label="Scheduler"]
88[label="ARM_CACHE_L2CXX0"]
89[label="CA9_ENABLE_SWP"]
90[label="MPCORE"]
91[label="VERBOSE"]
92[label="ENDIAN"]
93[label="ALLOC_TEST"]
94[label="LABEL"]
95[label="PIT"]
96[label="Start of RAM (physical address)"]
97[label="UX"]
98[label="NONE"]
99[label="K6"]
100[label="OMAP3_EVM"]
101[label="ALIGNMENT_CHECK"]
102[label="ARM_CPU_SA1100"]
103[label="CXX"]
104[label="KERNEL_PAGE_FAULTS"]
105[label="ARM_CPU_CORTEX_A9"]
106[label="CORE2"]
107[label="PROFILE"]
108[label="MPC52XX"]
109[label="INLINE"]
110[label="VIRT"]
111[label="CC"]
112[label="TARGET"]
113[label="AMD_FPU_LEAK"]
114[label="RO_TEXT"]
115[label="REALVIEW_RAM_PHYS_BASE"]
116[label="REGPARM3"]
117[label="SA"]
118[label="920T"]
119[label="S3C2410"]
120[label="AMD64"]
121[label="ATOM"]
122[label="686"]
123[label="VIRT_OBJ_SPACE"]
124[label="VF"]
125[label="NAME"]
126[label="IRET_SANITY"]
127[label="Kernel options"]
128[label="V6PLUS"]
129[label="ARM_CPU_1176"]
130[label="K10"]
131[label="WATCHDOG"]
132[label="CON"]
133[label="QEMU"]
134[label="ALLOC_SANITY"]
135[label="TZ"]
136[label="REALVIEW_PBX"]
137[label="JDB"]
138[label="NDEBUG"]
139[label="APIC"]
140[label="XSCALE"]
141[label="SHOT"]
142[label="Realview Platform"]
143[label="REALVIEW_RAM_PHYS_BASE_0x7"]
144[label="Architecture"]
145[label="REALVIEW_RAM_PHYS_BASE_0x2"]
146[label="CPU"]
147[label="1136"]
148[label="SERIAL"]
149[label="REALVIEW_RAM_PHYS_BASE_0x0"]
150[label="WARNING"]
151[label="GSTABS"]
152[label="INTEGRATOR"]
153[label="SPINNER"]
154[label="ARM_CPU_XSCALE"]
155[label="DISASM"]
156[label="PPC32"]
157[label="MP"]
158[label="FPU"]
159[label="ARM_MP_CAPABLE"]
160[label="GZIP"]
161[label="Debugging"]
87->1
146->2
157->3
28->4
146->5
127->6
13->7
64->8
13->9
33->10
66->11
13->12
36->14
13->15
87->16
36->17
33->18
28->19
146->20
161->21
28->22
33->23
96->24
81->25
146->26
146->27
33->28
66->29
146->30
137->31
13->32
13->33
161->34
127->35
33->36
13->37
146->38
21->39
7->40
33->41
13->42
28->43
137->44
146->45
146->46
146->47
127->48
33->49
146->50
7->51
146->52
146->53
146->54
13->55
127->56
33->57
13->58
28->59
161->60
7->61
144->62
161->63
33->64
142->65
33->66
144->67
36->68
28->69
13->70
87->71
142->72
33->73
146->74
13->75
127->76
28->77
33->78
137->79
142->80
127->81
64->82
146->83
146->84
146->85
13->86
127->87
33->88
33->89
146->90
7->91
33->92
161->93
7->94
66->95
33->96
28->97
21->98
146->99
64->100
33->101
33->102
7->103
161->104
33->105
146->106
161->107
28->108
161->109
33->110
7->111
13->112
33->113
161->114
33->115
33->116
146->117
146->118
28->119
144->120
146->121
146->122
127->123
33->124
33->125
161->126
13->127
13->128
33->129
146->130
161->131
127->132
28->133
161->134
33->135
142->136
161->137
161->138
66->139
28->140
127->141
33->142
96->143
33->144
96->145
33->146
146->147
161->148
96->149
21->150
161->151
28->152
161->153
33->154
137->155
144->156
127->157
33->158
33->159
137->160
13->161
}
