digraph {
graph [rankdir=TB]
node [shape=box]
1[label="ONEIT"]
2[label="GEN"]
3[label="DIRNAME"]
4[label="PIPES"]
5[label="MKFIFO"]
6[label="PATCH"]
7[label="F"]
8[label="TTY"]
9[label="ToyBox"]
10[label="TOYSH"]
11[label="BASENAME"]
12[label="UNAME"]
13[label="MKSWAP"]
14[label="FLOWCTL"]
15[label="LOCALS"]
16[label="JOBCTL"]
17[label="BZCAT"]
18[label="SLEEP"]
19[label="CKSUM"]
20[label="CHROOT"]
21[label="CONF"]
22[label="LONG"]
23[label="CD"]
24[label="TEE"]
25[label="ECHO"]
26[label="SED"]
27[label="WILDCARDS"]
28[label="LISTEN"]
29[label="CP"]
30[label="DEBUG"]
31[label="WHICH"]
32[label="PWD"]
33[label="SEQ"]
34[label="EXIT"]
35[label="RMDIR"]
36[label="BIG"]
37[label="PEDANTIC"]
38[label="MKE2FS"]
39[label="FALSE"]
40[label="FREE"]
41[label="COUNT"]
42[label="Global settings"]
43[label="Toys"]
44[label="EXTENDED"]
45[label="SHA1SUM"]
46[label="TRUE"]
47[label="PROCARGS"]
48[label="ENVVARS"]
49[label="TOUCH"]
50[label="DF"]
51[label="JOURNAL"]
52[label="PROFILE"]
53[label="CAT"]
54[label="CHVT"]
55[label="LABEL"]
56[label="HELP"]
57[label="SORT"]
58[label="READLINK"]
59[label="P"]
60[label="DMESG"]
61[label="HELLO"]
62[label="NETCAT"]
63[label="YES"]
64[label="QUOTES"]
65[label="SYNC"]
66[label="BUILTINS"]
67[label="MDEV"]
68[label="ARRAYS"]
69[label="TOYBOX"]
70[label="CATV"]
71[label="TTY"]
43->1
38->2
43->3
10->4
43->5
43->6
58->7
43->8
43->10
43->11
43->12
43->13
10->14
48->15
71->16
43->17
43->18
43->19
43->20
67->21
56->22
10->23
43->24
43->25
43->26
64->27
62->28
43->29
42->30
43->31
43->32
43->33
10->34
43->35
57->36
50->37
43->38
43->39
42->40
43->41
9->42
9->43
38->44
43->45
43->46
64->47
64->48
43->49
43->50
38->51
71->52
43->53
43->54
38->55
43->56
43->57
43->58
10->59
43->60
43->61
43->62
43->63
10->64
43->65
10->66
43->67
15->68
42->69
43->70
10->71
}
