digraph {
graph [rankdir=TB]
node [shape=box]
1[label="BUSYBOX_FEATURE_VI_8BIT"]
2[label="CRAMFS_TEST"]
3[label="IPREDIR_IPREDIR"]
4[label="BUSYBOX_ROUTE"]
5[label="BUSYBOX_EJECT"]
6[label="TCPWRAP_TRYFROM"]
7[label="DEMO_R2100"]
8[label="BUSYBOX_LPR"]
9[label="BUSYBOX_FEATURE_XARGS_SUPPORT_TERMOPT"]
10[label="NETFLASH_HMACMD5_KEY"]
11[label="BUSYBOX_FEATURE_AR_LONG_FILENAMES"]
12[label="WLAN_NG_WLAND"]
13[label="KLAXON_SNMP"]
14[label="FILEUTILS_MKDIR"]
15[label="BUSYBOX_FEATURE_SUID"]
16[label="PWLIB"]
17[label="BUSYBOX_UUENCODE"]
18[label="MICROWIN_MWPF_PALETTE"]
19[label="BUSYBOX_DC"]
20[label="NETFLASH_WITH_FTP"]
21[label="FNORD_PAM"]
22[label="MTDUTILS_FTL_CHECK"]
23[label="BUSYBOX_FEATURE_DEVFS"]
24[label="BUSYBOX_FEATURE_SH_IS_MSH"]
25[label="VERSION_VERSION"]
26[label="WIRELESS_TOOLS_IWLIST"]
27[label="BUSYBOX_FEATURE_VI_SEARCH"]
28[label="BUSYBOX_MATCHPATHCON"]
29[label="VPLAY_VREC"]
30[label="TINYLOGIN_GETTY"]
31[label="MTDUTILS_MKFSJFFS2"]
32[label="NTPD_NTPDC"]
33[label="Miscellaneous Configuration"]
34[label="MICROWIN_SCANKBD"]
35[label="BUSYBOX_BASENAME"]
36[label="NETSNMP_SNMPD_MINI"]
37[label="BUSYBOX_MKFS_MINIX"]
38[label="BUSYBOX_FEATURE_LS_FILETYPES"]
39[label="BUSYBOX_FEATURE_EDITING_SAVEHISTORY"]
40[label="STRACE_STRACE"]
41[label="BUSYBOX_FEATURE_SH_IS_HUSH"]
42[label="BUSYBOX_FEATURE_MDEV_CONF"]
43[label="SHUTILS_WHICH"]
44[label="E2FSPROGS_MISC_LSATTR"]
45[label="LISSA_LISSA"]
46[label="MICROWIN_NANOX"]
47[label="REISERFSPROGS_UNPACK"]
48[label="RECOVER_STATIC_SERVER"]
49[label="BUSYBOX_LOGGER"]
50[label="BUSYBOX_UNLZMA"]
51[label="FREESWAN"]
52[label="BUSYBOX_FEATURE_IFUPDOWN_IFCONFIG_BUILTIN"]
53[label="HTTPTUNNEL_CLIENT"]
54[label="BUSYBOX_AWK"]
55[label="GDB_GDBREPLAY"]
56[label="BUSYBOX_FEATURE_INETD_RPC"]
57[label="MINIUPNPD"]
58[label="LUA_WSAPI_XAVANTE"]
59[label="BUSYBOX_ASH_OPTIMIZE_FOR_SIZE"]
60[label="BUSYBOX_READAHEAD"]
61[label="FILEUTILS_CHMOD"]
62[label="LUA_WSAPI"]
63[label="BUSYBOX_LOADFONT"]
64[label="BUSYBOX_FEATURE_IFUPDOWN_IP_BUILTIN"]
65[label="FILEUTILS_RM"]
66[label="NETFLASH_CRYPTO"]
67[label="MICROWIN_BIN_MTEST"]
68[label="BUSYBOX_ASH_MAIL"]
69[label="LIBPNG"]
70[label="SHUTILS_LOGNAME"]
71[label="NESSUS_PLUGINS"]
72[label="BUSYBOX_FIND"]
73[label="BUSYBOX_FEATURE_READLINK_FOLLOW"]
74[label="RECOVER_RECOVER"]
75[label="FLATFSD_CONFIG_BLOBS"]
76[label="BUSYBOX_FEATURE_EDITING_HISTORY"]
77[label="BUSYBOX_DEVFSD_VERBOSE"]
78[label="BUSYBOX_IOCTL_HEX2STR_ERROR"]
79[label="KLAXON_TELNET"]
80[label="BUSYBOX_FEATURE_HTTPD_ERROR_PAGES"]
81[label="BUSYBOX_FEATURE_TAR_OLDGNU_COMPATIBILITY"]
82[label="ZLIB"]
83[label="BUSYBOX_MICROCOM"]
84[label="BUSYBOX_FEATURE_VI_SET"]
85[label="SYSUTILS_SHUTDOWN"]
86[label="MICROWIN_PSIONMOUSE"]
87[label="PPPD_NO_AT_REDIRECTION"]
88[label="BUSYBOX_FEATURE_INIT_SCTTY"]
89[label="FREESWAN_UTILS_RANBITS"]
90[label="NOOOM_NOOOM"]
91[label="BUSYBOX_TFTPD"]
92[label="NETSNMP_APPS_NETSTAT"]
93[label="BUSYBOX_SETSID"]
94[label="BUSYBOX_FEATURE_XARGS_SUPPORT_ZERO_TERM"]
95[label="LANBYPASS_LANBYPASS"]
96[label="MICROWIN_MWPF_TRUECOLOR565"]
97[label="BUSYBOX_AR"]
98[label="BUSYBOX_HAVE_DOT_CONFIG"]
99[label="WLAN_NG"]
100[label="BUSYBOX_FEATURE_CHAT_TTY_HIFI"]
101[label="SAMBA_SMBD"]
102[label="BUSYBOX_FEATURE_TRACEROUTE_USE_ICMP"]
103[label="OPENSWAN_UTILS_RSASIGKEY"]
104[label="BUSYBOX_FEATURE_MOUNT_CIFS"]
105[label="FAKEIDENTD_IDENTD"]
106[label="BUSYBOX_DELUSER"]
107[label="BFD"]
108[label="BUSYBOX_ED"]
109[label="/bin/sh applet link"]
110[label="POTRACE_POTRACE"]
111[label="BUSYBOX_LOGREAD"]
112[label="INIT_EXPAND_NOZEROES"]
113[label="BUSYBOX_FEATURE_INSMOD_KSYMOOPS_SYMBOLS"]
114[label="Installation Options"]
115[label="BUSYBOX_FETCHMAIL"]
116[label="Linux Kernel Configuration"]
117[label="FREESWAN_KLIPS_KLIPSDEBUG"]
118[label="BUSYBOX_FEATURE_WGET_AUTHENTICATION"]
119[label="BUSYBOX_FEATURE_VI_SETOPTS"]
120[label="DEBUG"]
121[label="BUSYBOX_FEATURE_INETD_SUPPORT_BUILTIN_DISCARD"]
122[label="PROCPS_TLOAD"]
123[label="BUSYBOX_FEATURE_FIND_NOT"]
124[label="BUSYBOX_FEATURE_MOUNT_FLAGS"]
125[label="BUSYBOX_FEATURE_RPM_BZ2"]
126[label="BUSYBOX_FEATURE_IFUPDOWN_IP"]
127[label="BUSYBOX_SWITCH_ROOT"]
128[label="MICROWIN_HAVE_HZK_SUPPORT"]
129[label="BUSYBOX_FEATURE_DD_SIGNAL_HANDLING"]
130[label="BUSYBOX_NO_DEBUG_LIB"]
131[label="FNORD_NOAUTH"]
132[label="DNSMASQ_DNSMASQ"]
133[label="SHADOW_SHAREDLIB"]
134[label="NTPCLIENT_NTPCLIENT"]
135[label="PAM_TACACS"]
136[label="BUSYBOX_FEATURE_RESIZE_PRINT"]
137[label="BUSYBOX_FEATURE_FIND_PATH"]
138[label="BUSYBOX_SHOW_USAGE"]
139[label="MICROWIN_HAVE_FILEIO"]
140[label="TIMEOUT"]
141[label="MTDUTILS_ERASE"]
142[label="BUSYBOX_TOUCH"]
143[label="BUSYBOX_RPM"]
144[label="STP_STP"]
145[label="KLAXON_SMTP"]
146[label="MAWK_AWK"]
147[label="NETSNMP_APPS_USM"]
148[label="IPUTILS_PING6"]
149[label="NESSUS_CORE"]
150[label="BUSYBOX_SULOGIN"]
151[label="BUSYBOX_FEATURE_SYSLOG"]
152[label="Debugging Options"]
153[label="CLAMAV_TESTS"]
154[label="BUSYBOX_LSATTR"]
155[label="PPPD_WITH_RADIUS"]
156[label="BUSYBOX_FEATURE_SHARED_BUSYBOX"]
157[label="LILO_LILO"]
158[label="NETSNMP_APPS_BULKWALK"]
159[label="BUSYBOX_DMALLOC"]
160[label="BUSYBOX_FEATURE_HAVE_RPC"]
161[label="BUSYBOX_FEATURE_VOLUMEID_UDF"]
162[label="DISCARD_NO_INSTALL"]
163[label="LUA_LUAROCKS"]
164[label="NETSNMP_APPS_TRAP"]
165[label="BUSYBOX_CP"]
166[label="BUSYBOX_VERBOSE_RESOLUTION_ERRORS"]
167[label="UC_LIBC_TIMEZONE"]
168[label="EZIPUPDATE_EZIPUPDATE"]
169[label="BZIP2_BZIP2"]
170[label="BUSYBOX_MORE"]
171[label="Automake Applications"]
172[label="LIBNL_COMPONENTS"]
173[label="BUSYBOX_HEAD"]
174[label="BUSYBOX_FEATURE_MODPROBE_FANCY_ALIAS"]
175[label="GAMES_DUNGEON"]
176[label="LIBNL_ROUTE_ROUTE"]
177[label="BUSYBOX_LOCALE_SUPPORT"]
178[label="BUSYBOX_READPROFILE"]
179[label="KLAXON_RFC931"]
180[label="BUSYBOX_FEATURE_UDHCP_DEBUG"]
181[label="BUSYBOX_ASH"]
182[label="BUSYBOX_FEATURE_FANCY_SLEEP"]
183[label="BUSYBOX_IPCALC"]
184[label="BUSYBOX_FEATURE_MV_LONG_OPTIONS"]
185[label="BUSYBOX_STAT"]
186[label="Build Options"]
187[label="AT_ATRUN"]
188[label="BUSYBOX_SWAPONOFF"]
189[label="PROCPS_VMSTAT"]
190[label="NETFLASH_VERSION_ALLOW_CURRENT"]
191[label="LIRC_LIRCD"]
192[label="MICROWIN_HAVE_GB2312_SUPPORT"]
193[label="Debug Builds"]
194[label="PERL_PERL"]
195[label="LRZSZ_LRZ"]
196[label="BUSYBOX_COMM"]
197[label="PPPD_WITH_WINBIND"]
198[label="SHADOW_GRPCK"]
199[label="BUSYBOX_FEATURE_SH_EXTRA_QUIET"]
200[label="AT_ATD"]
201[label="APPWEB_APPWEB"]
202[label="BUSYBOX_BUSYBOX"]
203[label="BUSYBOX_FEATURE_GREP_FGREP_ALIAS"]
204[label="BUSYBOX_HUSH"]
205[label="BUSYBOX_FEATURE_CLEAN_UP"]
206[label="REISERFSPROGS_RESIZE_REISERFS"]
207[label="IPUTILS_TFTPD"]
208[label="MTDUTILS_DOC_LOADIPL"]
209[label="BUSYBOX_WHICH"]
210[label="BUSYBOX_ZCIP"]
211[label="BUSYBOX_DEBUG_CROND_OPTION"]
212[label="RECOVER_BIOS"]
213[label="BUSYBOX_SHA1SUM"]
214[label="NETSNMP_MIBS"]
215[label="DEBUG"]
216[label="NET_TOOLS_MII_TOOL"]
217[label="SSLWRAP_SSLWRAP"]
218[label="BUSYBOX_MD5SUM"]
219[label="Linux Module Utilities"]
220[label="BUSYBOX_FEATURE_IPCALC_FANCY"]
221[label="LANG_A60_EGS"]
222[label="HOSTAP_PCI"]
223[label="BASH_BASH"]
224[label="WATCHDOGD"]
225[label="ROUTED_ROUTED"]
226[label="MICROWIN_NANOWM"]
227[label="WGET"]
228[label="GDB_GDBSERVER"]
229[label="BUSYBOX_FEATURE_FANCY_HEAD"]
230[label="BUSYBOX_INSTALL"]
231[label="L2TPD_L2TPD"]
232[label="BUSYBOX_FEATURE_SUID_CONFIG"]
233[label="FREESWAN_UTILS_RSASIGKEY"]
234[label="NETPERF_NETPERF"]
235[label="Network Applications"]
236[label="MICROWIN_DEBUG"]
237[label="LIBCRYPT_OLD"]
238[label="IPUTILS_TRACEROUTE6"]
239[label="BUSYBOX_SELINUX"]
240[label="BUSYBOX_FEATURE_FIND_TYPE"]
241[label="NWSH_SH"]
242[label="IPSENTINEL_IPSENTINEL"]
243[label="BUSYBOX_FEATURE_INSTALL_LONG_OPTIONS"]
244[label="Debian Utilities"]
245[label="BUSYBOX_DESKTOP"]
246[label="PORTMAP_PMAP_DUMP"]
247[label="CONNTRACK_CONNTRACK"]
248[label="BUSYBOX_FEATURE_UDHCP_PORT"]
249[label="SHADOW_SU"]
250[label="IPSET_IPSET"]
251[label="BUSYBOX_INCLUDE_SUSv2"]
252[label="OPENSWAN"]
253[label="BUSYBOX_ARP"]
254[label="PPPD_WITH_PPPOE"]
255[label="CRON_CRON"]
256[label="TINYPROXY_TINYPROXY"]
257[label="WHETSTONE_WHETSTONE"]
258[label="ENTROPY"]
259[label="REISERFSPROGS"]
260[label="BUSYBOX_FEATURE_SU_SYSLOG"]
261[label="BUSYBOX_TR"]
262[label="BUSYBOX_PING"]
263[label="Buffer allocation policy"]
264[label="BUSYBOX_ASH_ALIAS"]
265[label="GAMES_RUBIK"]
266[label="FREESWAN_PLUTO_PLUTO"]
267[label="CLAMAV_FRESHCLAM"]
268[label="MTDUTILS_NANDDUMP"]
269[label="PROCPS_PMAP"]
270[label="BUSYBOX_FEATURE_BUFFERS_USE_MALLOC"]
271[label="BUSYBOX_SELINUXENABLED"]
272[label="BOOTTOOLS_RESET"]
273[label="MP3PLAY_SWAP_WD"]
274[label="MICROWIN_FBVGA"]
275[label="BUSYBOX_FEATURE_IFUPDOWN_MAPPING"]
276[label="ASTERISK_MYSQL"]
277[label="SSH_SSHD"]
278[label="ZEBRA_RIPD_RIPD"]
279[label="BUSYBOX_FEATURE_IFUPDOWN_IPV6"]
280[label="BUSYBOX_FEATURE_VOLUMEID_LINUXSWAP"]
281[label="DHCPCD_DHCPCD"]
282[label="BUSYBOX_SETENFORCE"]
283[label="BUSYBOX_CRONTAB"]
284[label="CAL_CAL"]
285[label="SHUTILS_DIRNAME"]
286[label="BUSYBOX_FEATURE_USE_TERMIOS"]
287[label="BOOTTOOLS_MD5SUM"]
288[label="BUSYBOX_SVLOGD"]
289[label="IPUTILS_TRACEPATH6"]
290[label="SQUASHFS_MKSQUASHFS"]
291[label="BUSYBOX_FEATURE_TOP_DECIMALS"]
292[label="BUSYBOX_RMDIR"]
293[label="LIBNL_ROUTE_ADDR"]
294[label="BUSYBOX_INETD"]
295[label="BUSYBOX_DHCPC_DEFAULT_SCRIPT"]
296[label="TFTPD_TFTPD"]
297[label="NET_TOOLS_NAMEIF"]
298[label="RAMIMAGE_RAMFS512"]
299[label="BUSYBOX_FEATURE_LSMOD_PRETTY_2_6_OUTPUT"]
300[label="BUSYBOX_FEATURE_SECURETTY"]
301[label="DHCPD_DHCPD"]
302[label="LIBOPENH323"]
303[label="BUSYBOX_HUSH_JOB"]
304[label="IPROUTE2"]
305[label="Linux System Utilities"]
306[label="CHAT_CHAT"]
307[label="W3CAM_VIDCAT"]
308[label="Flash Tools"]
309[label="MSNTP_MSNTP"]
310[label="TCPWRAP_FINGER"]
311[label="GDBSERVER_GDBREPLAY"]
312[label="FREESWAN_KLIPS_SPI"]
313[label="BUSYBOX_MV"]
314[label="BUSYBOX_FEATURE_IFUPDOWN_EXTERNAL_DHCP"]
315[label="WLAN_NG_USB"]
316[label="BUSYBOX_TAC"]
317[label="FILEUTILS_CHGRP"]
318[label="BUSYBOX_SYSLOGD"]
319[label="SHADOW_NEWUSERS"]
320[label="BUSYBOX_OD"]
321[label="BUSYBOX_TELNET"]
322[label="BUSYBOX_APP_DHCPRELAY"]
323[label="IPSEC_KEEPALIVE"]
324[label="LIBATM"]
325[label="NET_TOOLS_SLATTACH"]
326[label="KLAXON_DISCARD"]
327[label="BUSYBOX_FEATURE_LS_RECURSIVE"]
328[label="PALMBOT_PALMBOT"]
329[label="LANG_A60"]
330[label="QUAGGA_RIPD_RIPD"]
331[label="BUSYBOX_DIFF"]
332[label="MICROWIN"]
333[label="BUSYBOX_FDISK"]
334[label="NETSNMP_NOV1"]
335[label="INIT_RUN_FIREWALL"]
336[label="BUSYBOX_FEATURE_INSMOD_LOAD_MAP"]
337[label="BUSYBOX_FEATURE_USE_INITTAB"]
338[label="TCPWRAP_TCPDMATCH"]
339[label="SAMBA_UMOUNT_CIFS"]
340[label="PING_PING"]
341[label="BUSYBOX_MT"]
342[label="LIBNETOLD"]
343[label="VPLAY_VPLAY"]
344[label="NETSNMP_ADDITIONALMIBS"]
345[label="BUSYBOX_DEBUG_TFTP"]
346[label="HPING_HPING"]
347[label="BUSYBOX_FEATURE_VOLUMEID_EXT"]
348[label="BUSYBOX_PGREP"]
349[label="NETFILTER_CONNTRACK"]
350[label="IPUTILS_RARPD"]
351[label="TINYLOGIN_ADDUSER"]
352[label="Games"]
353[label="Tinylogin"]
354[label="MTDUTILS_NANDWRITE"]
355[label="BOA_SRC_BOA"]
356[label="LOAD_LOAD"]
357[label="BOOTTOOLS_LOADER"]
358[label="BUSYBOX_MSH"]
359[label="Editors"]
360[label="MICROWIN_HAVE_PNG_SUPPORT"]
361[label="IPROUTE2_IP_ROUTEL"]
362[label="CLAMAV_CLAMSMTP"]
363[label="OPENSWAN_KLIPS_EROUTE"]
364[label="PROFTPD_PROFTPD"]
365[label="HASERL_HASERL"]
366[label="HDPARM_HDPARM"]
367[label="BUSYBOX_BUSYBOX_EXEC_PATH"]
368[label="BUSYBOX_INSTALL_APPLET_SCRIPT_WRAPPERS"]
369[label="BUSYBOX_IPRULE"]
370[label="OPROFILE"]
371[label="LIBIBERTY"]
372[label="BUSYBOX_UNZIP"]
373[label="QUAGGA_OSPF6D_OSPF6D"]
374[label="BUSYBOX_FEATURE_STAT_FORMAT"]
375[label="BOA_WITH_SSL"]
376[label="CAN_EXAMPLES"]
377[label="LIBLZO"]
378[label="BUSYBOX_LOAD_POLICY"]
379[label="NETFLASH_CRYPTO_OPTIONAL"]
380[label="BUSYBOX_FEATURE_INSTALLER"]
381[label="Runit Utilities"]
382[label="BUSYBOX_CAT"]
383[label="NETCAT_NETCAT"]
384[label="BUSYBOX_HDPARM"]
385[label="BUSYBOX_BRCTL"]
386[label="BUSYBOX_BBCONFIG"]
387[label="BUSYBOX_FEATURE_PS_UNUSUAL_SYSTEMS"]
388[label="BUSYBOX_OPENVT"]
389[label="SETHDLC_SETHDLC"]
390[label="TRIPWIRE_TRIPWIRE"]
391[label="BUSYBOX_PATCH"]
392[label="BUSYBOX_FEATURE_EJECT_SCSI"]
393[label="LIBPCAP"]
394[label="BUSYBOX_FEATURE_TEST_64"]
395[label="BUSYBOX_LPQ"]
396[label="MICROWIN_MWPF_TRUECOLOR888"]
397[label="MTDUTILS_MKFSJFFS"]
398[label="BUSYBOX_FEATURE_INIT_SYSLOG"]
399[label="SYSUTILS_FREE"]
400[label="CYRUSSASL"]
401[label="BUSYBOX_CTTYHACK"]
402[label="BUSYBOX_UNCOMPRESS"]
403[label="BUSYBOX_FEATURE_INITRD"]
404[label="NETSNMP_APPS_BULKGET"]
405[label="BUSYBOX_FEATURE_TAR_UNAME_GNAME"]
406[label="FLATFSD_USE_FLASH_FS"]
407[label="BUSYBOX_FEATURE_PIDOF_OMIT"]
408[label="BUSYBOX_FEATURE_INETD_SUPPORT_BUILTIN_DAYTIME"]
409[label="MICROWIN_TPMOUSE"]
410[label="BUSYBOX_FEATURE_FIND_DELETE"]
411[label="SYSUTILS_DF"]
412[label="LINUXIGD_DEFAULT"]
413[label="BUSYBOX_FEATURE_ROTATE_LOGFILE"]
414[label="NETSNMP_MIBLOADING"]
415[label="BUSYBOX_FSCK_MINIX"]
416[label="IPROUTE2_IP_IFCFG"]
417[label="BUSYBOX_FEATURE_TAR_FROM"]
418[label="HOSTAP_HOSTAPD"]
419[label="CONNECTION_LIMIT"]
420[label="MP3PLAY_MP3PLAY"]
421[label="NETSNMP_APPS_GETNEXT"]
422[label="BUSYBOX_DPKG_DEB"]
423[label="TINYLOGIN_SU"]
424[label="IPFWADM_IPFWADM"]
425[label="BUSYBOX_FEATURE_EDITING_MAX_LEN"]
426[label="BUSYBOX_FEATURE_TRACEROUTE_SOURCE_ROUTE"]
427[label="BUSYBOX_FEATURE_CHCON_LONG_OPTIONS"]
428[label="SH_SH"]
429[label="BUSYBOX_TFTP"]
430[label="CAN_HORCH"]
431[label="NETFILTER_LOG"]
432[label="MICROWIN_HAVE_XPM_SUPPORT"]
433[label="KLAXON_TFTP"]
434[label="FLATFSD_EXTERNAL_INIT"]
435[label="ARES"]
436[label="Miscellaneous Applications"]
437[label="LIBJPEG"]
438[label="NETSNMP_DEFPERSISDIR"]
439[label="BUSYBOX_TEE"]
440[label="MATH_TEST"]
441[label="MSH_SH"]
442[label="CGI_GENERIC"]
443[label="BUSYBOX_MODPROBE"]
444[label="BUSYBOX_FEATURE_CHAT_CLR_ABORT"]
445[label="TERMCAP"]
446[label="BUSYBOX_ASH_MATH_SUPPORT_64"]
447[label="FLASHW_FLASHW"]
448[label="BUSYBOX_FEATURE_2_6_MODULES"]
449[label="BUSYBOX_RMMOD"]
450[label="FILEUTILS_CP"]
451[label="NETSNMP_DEFSYSLOCATION"]
452[label="TELNET_TELNET"]
453[label="TINYTCL_TCLSH"]
454[label="BUSYBOX_PKILL"]
455[label="STLPORT_SHARED"]
456[label="NETSNMP_ADDMIBS"]
457[label="BUSYBOX_FEATURE_LESS_MARKS"]
458[label="PORTMAP_PORTMAP"]
459[label="REISERFSPROGS_MKREISERFS"]
460[label="flatfsd storage type"]
461[label="LIBGMP"]
462[label="BUSYBOX_FEATURE_KILL_REMOVED"]
463[label="MICROWIN_BIN_NANO_X"]
464[label="BUSYBOX_NMETER"]
465[label="BUSYBOX_FEATURE_LESS_FLAGS"]
466[label="LIBBSC"]
467[label="Screeen PixType"]
468[label="BUSYBOX_DF"]
469[label="MICROWIN_BIN_LAUNCHER"]
470[label="SAMBA_SHARED"]
471[label="BUSYBOX_FEATURE_INSMOD_VERSION_CHECKING"]
472[label="BUSYBOX_DEVFSD_MODLOAD"]
473[label="SHADOW_CHPASSWD"]
474[label="BUSYBOX_FSCK"]
475[label="RAMIMAGE_RAMFS8192"]
476[label="BUSYBOX_NITPICK"]
477[label="BUSYBOX_VOLUMEID"]
478[label="PAM_SMB"]
479[label="BUSYBOX_INSTALL_APPLET_SYMLINKS"]
480[label="BUSYBOX_BUNZIP2"]
481[label="IPPORTFW_IPPORTFW"]
482[label="BUSYBOX_ENV"]
483[label="BUSYBOX_ASH_EXPAND_PRMT"]
484[label="KLAXON_FTP"]
485[label="DEBUG_DEBUG"]
486[label="USBISO_USBISO"]
487[label="BUSYBOX_CHVT"]
488[label="MTDUTILS"]
489[label="SHADOW_PAM"]
490[label="Process Utilities"]
491[label="AT_AT"]
492[label="PROCPS_PKILL"]
493[label="FREESWAN_PLUTO_WHACK"]
494[label="CPU_CPU"]
495[label="BUSYBOX_FEATURE_MKSWAP_V0"]
496[label="BUSYBOX_USLEEP"]
497[label="BOOTTOOLS_HIMEMLOADER"]
498[label="NET_TOOLS_MII_TOOL_FEC"]
499[label="SHADOW_SULOGIN"]
500[label="BOA_LOGGING"]
501[label="BUSYBOX_FEATURE_VI_WIN_RESIZE"]
502[label="BUSYBOX_FEATURE_MOUNT_FSTAB"]
503[label="MICROWIN_MWPF_TRUECOLOR0888"]
504[label="BUSYBOX_FEATURE_MOUNT_NFS"]
505[label="DISCARD_INETD_ECHO"]
506[label="BUSYBOX_FEATURE_TRACEROUTE_VERBOSE"]
507[label="LEDCMD_LEDCMD"]
508[label="DNSMASQ2_DNSMASQ2"]
509[label="BUSYBOX_FEATURE_FIND_INUM"]
510[label="BUSYBOX_FEATURE_FIND_DEPTH"]
511[label="PAM_KRB5"]
512[label="PROCPS_SYSCTL"]
513[label="LRZSZ_LSZ"]
514[label="TCPWRAP_TCPD"]
515[label="BUSYBOX_MKNOD"]
516[label="NET_TOOLS_ROUTE"]
517[label="BUSYBOX_FDFORMAT"]
518[label="NETSNMP_APPS_TRAPD"]
519[label="BUSYBOX_FEATURE_TELNET_TTYPE"]
520[label="BUSYBOX_FEATURE_FANCY_PING"]
521[label="CTORRENT_CTORRENT"]
522[label="FLATFSD_AUTO"]
523[label="BUSYBOX_FEATURE_HDPARM_HDIO_SCAN_HWIF"]
524[label="BUSYBOX_FEATURE_UDHCPD_WRITE_LEASES_EARLY"]
525[label="NTPD_NTPD"]
526[label="RAMFS Image"]
527[label="BUSYBOX_UNAME"]
528[label="SHADOW_CHAGE"]
529[label="ELVISTINY_VI"]
530[label="SHADOW_CHSH"]
531[label="BUSYBOX_HD"]
532[label="BUSYBOX_MOUNTPOINT"]
533[label="BUSYBOX_CAL"]
534[label="LOGIN_PASSWD"]
535[label="BUSYBOX_ADDUSER"]
536[label="BUSYBOX_FEATURE_VOLUMEID_OCFS2"]
537[label="NETSNMP_APPS_VACM"]
538[label="RECOVER_USE_STATIC_SERVER"]
539[label="WIRELESS_TOOLS"]
540[label="BUSYBOX_FEATURE_UDHCPC_ARPING"]
541[label="SQUID_SQUID"]
542[label="SPEEDTOUCH_MODEM_RUN"]
543[label="BUSYBOX_TTYSIZE"]
544[label="BUSYBOX_ASH_BUILTIN_ECHO"]
545[label="LHA_LHA"]
546[label="BUSYBOX_FEATURE_SPLIT_FANCY"]
547[label="PYTHON"]
548[label="SSH_SSH"]
549[label="NETFLASH_HMACMD5"]
550[label="BUSYBOX_FEATURE_INETD_SUPPORT_BUILTIN_CHARGEN"]
551[label="SAMBA_SMBMOUNT"]
552[label="SASH_REBOOT"]
553[label="TINYLOGIN_PASSWD"]
554[label="BUSYBOX_NICE"]
555[label="BUSYBOX_IPROUTE"]
556[label="TRACEROUTE_TRACEROUTE"]
557[label="PROCPS_PWDX"]
558[label="BUSYBOX_MKDIR"]
559[label="EXPECT_EXPECT"]
560[label="BUSYBOX_RESIZE"]
561[label="MICROWIN_HAVE_SHAREDMEM_SUPPORT"]
562[label="NETFLASH_WITH_FILE"]
563[label="LIRC_IRRECORD"]
564[label="BUSYBOX_FREERAMDISK"]
565[label="TCPDUMP_TCPDUMP"]
566[label="BUSYBOX_FEATURE_TAR_AUTODETECT"]
567[label="BUSYBOX_MDEV"]
568[label="SHADOW_LOGIN"]
569[label="BUSYBOX_FEATURE_SGI_LABEL"]
570[label="MICROWIN_MICROWINDEMO"]
571[label="RP_PPPOE_PPPOE"]
572[label="POP3PROXY_POP3PROXY"]
573[label="DISCARD_DISCARD"]
574[label="FERRET_FERRET"]
575[label="BUSYBOX_PIPE_PROGRESS"]
576[label="Filesystem Applications"]
577[label="ARJ_ARJ"]
578[label="RADAUTH_RADAUTH"]
579[label="BUSYBOX_FEATURE_START_STOP_DAEMON_FANCY"]
580[label="UNZIP_FUNZIP"]
581[label="KISMET"]
582[label="MICROWIN_HAVE_BIG5_SUPPORT"]
583[label="BUSYBOX_WHOAMI"]
584[label="APPWEB_MULTITHREAD"]
585[label="LIBUPNP"]
586[label="BUSYBOX_FEATURE_LESS_FLAGCS"]
587[label="PPTPD_PPTPCTRL"]
588[label="BUSYBOX_FEATURE_TR_CLASSES"]
589[label="MTDUTILS_NFTL_FORMAT"]
590[label="NETSNMP_APPS"]
591[label="WLAN_NG_PLX"]
592[label="BUSYBOX_STRINGS"]
593[label="TINYLOGIN_DELGROUP"]
594[label="LIBNL_NETFILTER_CT"]
595[label="TINYLOGIN_SECURETTY"]
596[label="FREESWAN_KLIPS_SPIGRP"]
597[label="SASH_SHUTDOWN"]
598[label="BUSYBOX_INSTALL_APPLET_DONT"]
599[label="APPWEB_CGI"]
600[label="BusyBox"]
601[label="NMAP_NMAP"]
602[label="BUSYBOX_FEATURE_TFTP_GET"]
603[label="BUSYBOX_FEATURE_MOUNT_LABEL"]
604[label="Coreutils"]
605[label="LIBNL_NETFILTER_QUEUE"]
606[label="BUSYBOX_FEATURE_IPC_SYSLOG_BUFFER_SIZE"]
607[label="GAMES_TAMA"]
608[label="BUSYBOX_PIVOT_ROOT"]
609[label="ETHATTACH_ETHATTACH"]
610[label="BUSYBOX_FEATURE_ADDUSER_LONG_OPTIONS"]
611[label="RADVD_RADVD"]
612[label="TINYLOGIN_LOGIN"]
613[label="NULL_NULL"]
614[label="CLAMAV_CLAMSCAN"]
615[label="MICROWIN_PORTRAIT_MODE"]
616[label="LCD_LCD"]
617[label="BUSYBOX_IP"]
618[label="BUSYBOX_HUSH_HELP"]
619[label="NETSNMP_DEFSYSCONTACT"]
620[label="OPENSWAN_KLIPS_SPI"]
621[label="E2FSPROGS_MISC_MKLOST_FOUND"]
622[label="JPEGVIEW_JPEGVIEW"]
623[label="USBHUBCTRL_USBHUBCTRL"]
624[label="BUSYBOX_KILL"]
625[label="BUSYBOX_IPADDR"]
626[label="SHUTILS_BASENAME"]
627[label="IPUTILS_PING"]
628[label="BUSYBOX_LPD"]
629[label="QSPITEST_RX"]
630[label="GDBSERVER_GDBSERVER"]
631[label="BUSYBOX_FINDFS"]
632[label="BUSYBOX_FEATURE_HTTPD_USE_SENDFILE"]
633[label="BUSYBOX_FEATURE_QUERY_MODULE_INTERFACE"]
634[label="BUSYBOX_FEATURE_IP_TUNNEL"]
635[label="SSH_SSH_KEYSIGN"]
636[label="NETSNMP_APPS_STATUS"]
637[label="BUSYBOX_FEATURE_ENV_LONG_OPTIONS"]
638[label="SETMAC_SETMAC"]
639[label="BUSYBOX_FEATURE_FIND_MAXDEPTH"]
640[label="BUSYBOX_FEATURE_HDPARM_HDIO_DRIVE_RESET"]
641[label="MICROWIN_HAVE_FREETYPE_SUPPORT"]
642[label="PAM_RADIUS"]
643[label="OPENVPN_OPENVPN"]
644[label="BUSYBOX_FEATURE_IPC_SYSLOG"]
645[label="SAMBA_MOUNT_CIFS"]
646[label="Shells"]
647[label="MICROWIN_BIN_MTERM"]
648[label="BITVECTOR"]
649[label="BUSYBOX_FEATURE_FIND_REGEX"]
650[label="FREESWAN_KLIPS_TNCFG"]
651[label="BUSYBOX_FEATURE_VOLUMEID_CRAMFS"]
652[label="PPTP_CLIENT_PPTP"]
653[label="SSH_SFTP"]
654[label="TCPWRAP_MISCD"]
655[label="NTPD_NTPDATE"]
656[label="SHUTILS_PWD"]
657[label="BUSYBOX_FEATURE_VOLUMEID_NTFS"]
658[label="BUSYBOX_FEATURE_GREP_CONTEXT"]
659[label="LIBNL_ROUTE_TC"]
660[label="BUSYBOX_CHGRP"]
661[label="IPROUTE2_TC_TC"]
662[label="BUSYBOX_IFENSLAVE"]
663[label="Shell Program"]
664[label="RECOVER_STATIC_TFTP"]
665[label="BUSYBOX_FTPGET"]
666[label="BUSYBOX_EXPAND"]
667[label="BUSYBOX_UPTIME"]
668[label="BUSYBOX_FEATURE_DEB_TAR_BZ2"]
669[label="BUSYBOX_TTY"]
670[label="BUSYBOX_FEATURE_PRESERVE_HARDLINKS"]
671[label="BUSYBOX_NETSTAT"]
672[label="BOOST"]
673[label="TCPBLAST_TCPBLAST"]
674[label="PCIUTILS_SETPCI"]
675[label="PROCPS_SLABTOP"]
676[label="BUSYBOX_WATCHDOGD"]
677[label="UDEV"]
678[label="PROCPS_PS"]
679[label="TRIPWIRE_SIGGEN"]
680[label="FILEUTILS_GREP"]
681[label="MICROWIN_BIN_NTEST"]
682[label="BUSYBOX_FEATURE_LZMA_FAST"]
683[label="RAMIMAGE_RAMFS1024"]
684[label="SHADOW_PASSWD"]
685[label="MICROWIN_BIN_WORLD"]
686[label="BUSYBOX_FEATURE_IP_ROUTE"]
687[label="W3CAM_W3CAMD"]
688[label="BUSYBOX_RDATE"]
689[label="FSWCERT_FSWCERT"]
690[label="BUSYBOX_FEATURE_RFC3397"]
691[label="BUSYBOX_USE_BB_SHADOW"]
692[label="DHCPCD_NEW_DHCPCD"]
693[label="FTP_FTP_FTP"]
694[label="BUSYBOX_HALT"]
695[label="BUSYBOX_FEATURE_START_STOP_DAEMON_LONG_OPTIONS"]
696[label="BUSYBOX_FEATURE_LS_COLOR_IS_DEFAULT"]
697[label="BUSYBOX_LESS"]
698[label="BUSYBOX_FEATURE_HEXDUMP_REVERSE"]
699[label="BUSYBOX_FEATURE_DF_INODE"]
700[label="BUSYBOX_FUSER"]
701[label="BUSYBOX_FEATURE_FANCY_ECHO"]
702[label="BUSYBOX_FEATURE_FIND_PAREN"]
703[label="KLAXON_ECHO"]
704[label="MICROWIN_FBREVERSE"]
705[label="INIT_CONSOLE_SH"]
706[label="BUSYBOX_FEATURE_FIND_USER"]
707[label="NETSNMP_APPS_TABLE"]
708[label="SHADOW_LOGOUTD"]
709[label="BUSYBOX_FEATURE_ALLOW_EXEC"]
710[label="SHUTILS_ECHO"]
711[label="BUSYBOX_SESTATUS"]
712[label="PPTPD_PPTPD"]
713[label="SHUTILS_DATE"]
714[label="LIBIDN"]
715[label="BUSYBOX_FEATURE_PS_WIDE"]
716[label="SMTP_SMTPCLIENT"]
717[label="CLAMAV_CLAMD"]
718[label="BUSYBOX_FEATURE_MAKEDEVS_TABLE"]
719[label="LIBJUDY_TESTS"]
720[label="OGGPLAY_EXAMPLE"]
721[label="BUSYBOX_FEATURE_DIFF_BINARY"]
722[label="BUSYBOX_FEATURE_UNEXPAND_LONG_OPTIONS"]
723[label="LIBNL_RTNL"]
724[label="BUSYBOX_FDISK_SUPPORT_LARGE_DISKS"]
725[label="BUSYBOX_ASH_RANDOM_SUPPORT"]
726[label="SSCEP"]
727[label="SHUTILS_WHOAMI"]
728[label="BUSYBOX_FEATURE_SORT_BIG"]
729[label="BUSYBOX_UNIQ"]
730[label="MICROWIN_UCTSMOUSE"]
731[label="IPUTILS_ARPING"]
732[label="KENDIN_CONFIG"]
733[label="BUSYBOX_FEATURE_CHAT_SEND_ESCAPES"]
734[label="BUSYBOX_INSTALL_SH_APPLET_HARDLINK"]
735[label="LIBSSL"]
736[label="LSOF_LSOF"]
737[label="OLD_PASSWORDS"]
738[label="NET_TOOLS_HOSTNAME"]
739[label="BUSYBOX_FEATURE_INETD_SUPPORT_BUILTIN_TIME"]
740[label="BUSYBOX_CHPST"]
741[label="TINYLOGIN_SHADOWPASSWDS"]
742[label="BUSYBOX_CHOWN"]
743[label="GDB_TARGET"]
744[label="BUSYBOX_REALPATH"]
745[label="SHUTILS_UNAME"]
746[label="TINYLOGIN_TINYLOGIN"]
747[label="BUSYBOX_ECHO"]
748[label="Additional debugging library"]
749[label="CAL_DATE"]
750[label="DHCP_ISC_CLIENT_DHCLIENT"]
751[label="MICROWIN_NOKBD"]
752[label="BUSYBOX_FEATURE_FDISK_WRITABLE"]
753[label="SHADOW_PWUNCONV"]
754[label="E2FSPROGS_MISC_TUNE2FS"]
755[label="BUSYBOX_HOSTNAME"]
756[label="LM_SENSORS_SENSORS"]
757[label="IPROUTE2_IP_GENL"]
758[label="BUSYBOX_RPM2CPIO"]
759[label="RP_PPPOE_PPPOE_SERVER"]
760[label="FLATFSD_ENCRYPTED"]
761[label="OPENSWAN_KLIPS_KLIPSDEBUG"]
762[label="BUSYBOX_UNIX2DOS"]
763[label="Print Utilities"]
764[label="BUSYBOX_SETFILES"]
765[label="BUSYBOX_FEATURE_IFCONFIG_HW"]
766[label="NTPCLIENT_ADJTIMEX"]
767[label="SNORT_BARNYARD"]
768[label="BUSYBOX_SLEEP"]
769[label="SLATTACH_SLATTACH"]
770[label="BUSYBOX_APP_UDHCPD"]
771[label="BUSYBOX_FEATURE_FIND_XDEV"]
772[label="FILEUTILS_MKNOD"]
773[label="MICROWIN_HAVE_PNM_SUPPORT"]
774[label="TINYLOGIN_SHA1_PASSWORDS"]
775[label="PPPD_PPPD_PPPD"]
776[label="FLATFSD_DISKLIKE"]
777[label="MICROWIN_TTYKBD"]
778[label="SGUTOOL_SGUTOOL"]
779[label="FILEUTILS_MKFIFO"]
780[label="ROOTLOADER_ROOTLOADER"]
781[label="E2FSPROGS_MISC_BADBLOCKS"]
782[label="SHUTILS_TRUE"]
783[label="SHADOW_GRPCONV"]
784[label="BUSYBOX_ARPING"]
785[label="BUSYBOX_ETHER_WAKE"]
786[label="NETSNMP_APPS_TEST"]
787[label="TIMEPEG_TPT"]
788[label="E2FSPROGS_MISC_UUIDGEN"]
789[label="BUSYBOX_DNSD"]
790[label="BUSYBOX_FEATURE_FIND_CONTEXT"]
791[label="BUSYBOX_FEATURE_HTTPD_SET_REMOTE_PORT_TO_ENV"]
792[label="BUSYBOX_CPIO"]
793[label="BUSYBOX_FAKEIDENTD"]
794[label="BUSYBOX_LENGTH"]
795[label="BUSYBOX_SETCONSOLE"]
796[label="BUSYBOX_KILLALL5"]
797[label="Miscellaneous Utilities"]
798[label="BUSYBOX_ID"]
799[label="NET_TOOLS_PLIPCONFIG"]
800[label="BUSYBOX_FEATURE_FBSET_FANCY"]
801[label="MICROWIN_BIN_NPANEL"]
802[label="BUSYBOX_FEATURE_HTTPD_SETUID"]
803[label="BUSYBOX_FEATURE_VI_DOT_CMD"]
804[label="BUSYBOX_SU"]
805[label="PLAYRT_PLAYRT"]
806[label="PPPD_WITH_MPPE"]
807[label="INIT_EXPAND"]
808[label="BUSYBOX_FEATURE_IFUPDOWN_IPV4"]
809[label="LIBPAM"]
810[label="KLAXON_KLAXON"]
811[label="RDATE_RDATE"]
812[label="DOSFSTOOLS_MKDOSFS"]
813[label="USBCBI_USBCBI"]
814[label="BUSYBOX_FALSE"]
815[label="MICROWIN_FRAMEBUFFER"]
816[label="BUSYBOX_FEATURE_TAR_LZMA"]
817[label="SHADOW_GROUPS"]
818[label="BUSYBOX_FEATURE_TAR_GZIP"]
819[label="ONLY_ROOT"]
820[label="BUSYBOX_GETOPT"]
821[label="BUSYBOX_WERROR"]
822[label="FDISK_FDISK"]
823[label="BUSYBOX_FEATURE_HTTPD_AUTH_MD5"]
824[label="EXPAT_EXAMPLES"]
825[label="BUSYBOX_DEALLOCVT"]
826[label="BR2684CTL_BR2684CTL"]
827[label="MICROWIN_BIN_MTEST2"]
828[label="FROX_FROX"]
829[label="MICROWIN_MWPF_TRUECOLOR332"]
830[label="MICROWIN_NWIDGET"]
831[label="BUSYBOX_LFS"]
832[label="BUSYBOX_DIRNAME"]
833[label="BUSYBOX_FEATURE_ADDUSER_TO_GROUP"]
834[label="BUSYBOX_INSTALL_APPLET_HARDLINKS"]
835[label="BUSYBOX_APP_UDHCPC"]
836[label="RSYNC_RSYNC"]
837[label="E2FSPROGS_MISC_DUMPE2FS"]
838[label="OPENSSL_APPS"]
839[label="BUSYBOX_LOSETUP"]
840[label="BUSYBOX_FEATURE_MD5_SHA1_SUM_CHECK"]
841[label="MOUNT_UMOUNT"]
842[label="MICROWIN_BIN_MUSERFD"]
843[label="SHADOW_UTILS"]
844[label="DE2TSCAL_DE2TSCAL"]
845[label="LRPSTAT_LRPSTAT"]
846[label="LANG_A60_TEST"]
847[label="BUSYBOX_APP_DUMPLEASES"]
848[label="BUSYBOX_FEATURE_DD_IBS_OBS"]
849[label="BUSYBOX_FEATURE_DU_DEFAULT_BLOCKSIZE_1K"]
850[label="MICROWIN_BIN_LANDMINE"]
851[label="CXXTEST_CXXTEST"]
852[label="NETSNMP_APPS_WALK"]
853[label="BUSYBOX_FEATURE_PREFER_APPLETS"]
854[label="TINYLOGIN_DELUSER"]
855[label="BUSYBOX_FEATURE_TAR_GNU_EXTENSIONS"]
856[label="NET_TOOLS_ARP"]
857[label="BUSYBOX_FEATURE_TOP_CPU_USAGE_PERCENTAGE"]
858[label="BUSYBOX_FEATURE_WGET_STATUSBAR"]
859[label="ZEBRA_OSPFD_OSPFD"]
860[label="PAM_LDAP"]
861[label="MICROWIN_VGALIB"]
862[label="IPROUTE2_IP_ROUTEF"]
863[label="STUNNEL_STUNNEL"]
864[label="FLTHDR_FLTHDR"]
865[label="SHUTILS_YES"]
866[label="SAMBA_NMBD"]
867[label="BUSYBOX_FEATURE_FIND_EXEC"]
868[label="BUSYBOX_IPTUNNEL"]
869[label="BUSYBOX_FEATURE_GUNZIP_UNCOMPRESS"]
870[label="MTDUTILS_UNLOCK"]
871[label="KLAXON_HTTP"]
872[label="IPUTILS_IPUTILS"]
873[label="WIRELESS_TOOLS_IWSPY"]
874[label="SER_RTPPROXY"]
875[label="SHADOW_NEWGRP"]
876[label="BIND_BIND"]
877[label="RAMIMAGE_NONE"]
878[label="BUSYBOX_MOUNT"]
879[label="BUSYBOX_FEATURE_INETD_SUPPORT_BUILTIN_ECHO"]
880[label="BUSYBOX_FEATURE_LS_COLOR"]
881[label="BUSYBOX_FEATURE_TFTP_PUT"]
882[label="NETFLASH_DECOMPRESS"]
883[label="BUSYBOX_FEATURE_IFCONFIG_MEMSTART_IOADDR_IRQ"]
884[label="NETFLASH_AUTODECOMPRESS"]
885[label="CLOCK_CLOCK"]
886[label="MTDUTILS_NFTLDUMP"]
887[label="BUSYBOX_FEATURE_XARGS_SUPPORT_QUOTES"]
888[label="FILEUTILS_CHOWN"]
889[label="BUSYBOX_FEATURE_IPV6"]
890[label="BUSYBOX_SORT"]
891[label="NTPD_NTPQ"]
892[label="LINUXIGD_LINUXIGD"]
893[label="BUSYBOX_ADDGROUP"]
894[label="BUSYBOX_GUNZIP"]
895[label="LIBG"]
896[label="MICROWIN_CLEOKBD"]
897[label="NETFLASH_WITH_CGI"]
898[label="SSH_SFTP_SERVER"]
899[label="SHADOW_ID"]
900[label="BUSYBOX_IPCRM"]
901[label="BUSYBOX_BZIP2"]
902[label="BUSYBOX_FEATURE_VI_OPTIMIZE_CURSOR"]
903[label="BUSYBOX_VI"]
904[label="EBTABLES_EBTABLES"]
905[label="CHAT_CHAT_NETWORK"]
906[label="UNZOO_UNZOO"]
907[label="BUSYBOX_KLOGD"]
908[label="BUSYBOX_HUSH_TICK"]
909[label="PROCPS_TOP"]
910[label="BUSYBOX_IFUPDOWN_IFSTATE_PATH"]
911[label="MICROWIN_SHAREDLIBS"]
912[label="BUSYBOX_TAIL"]
913[label="MICROWIN_GRAYPALETTE"]
914[label="SHADOW_FAILLOG"]
915[label="AGETTY_AGETTY"]
916[label="BUSYBOX_FEATURE_XARGS_SUPPORT_CONFIRMATION"]
917[label="IPUTILS_TRACEPATH"]
918[label="NFNETLINK"]
919[label="BUSYBOX_FEATURE_HWCLOCK_ADJTIME_FHS"]
920[label="UNZIP_UNZIP"]
921[label="BUSYBOX_CATV"]
922[label="BUSYBOX_WGET"]
923[label="UNKNOWN"]
924[label="BUSYBOX_FEATURE_DEB_TAR_GZ"]
925[label="MYSQL_CLIB"]
926[label="ZEBRA_BGPD_BGPD"]
927[label="BUSYBOX_GZIP"]
928[label="BUSYBOX_FEATURE_LOGREAD_REDUCED_LOCKING"]
929[label="Core Applications"]
930[label="MICROWIN_BIN_NXLSCLIENTS"]
931[label="SNMPD_SNMPD"]
932[label="BUSYBOX_DOS2UNIX"]
933[label="BUSYBOX_FEATURE_HUMAN_READABLE"]
934[label="FILEUTILS_DD"]
935[label="BUSYBOX_GETSEBOOL"]
936[label="GNUGK_GNUGK"]
937[label="QUAGGA_RIPNGD_RIPNGD"]
938[label="MAIL_MAIL_IP"]
939[label="MICROWIN_NANOXDEMO"]
940[label="BUSYBOX_FEATURE_DPKG_DEB_EXTRACT_ONLY"]
941[label="BUSYBOX_FEATURE_LS_FOLLOWLINKS"]
942[label="SHADOW_PWCK"]
943[label="BUSYBOX_HUSH_LOOPS"]
944[label="LIBLZMA"]
945[label="BUSYBOX_XARGS"]
946[label="P7ZIP_7ZA"]
947[label="HOSTAP_HOSTAP"]
948[label="BUSYBOX_FEATURE_VOLUMEID_SYSV"]
949[label="GAMES_ADVENT4"]
950[label="CLAMAV_CLAMAV"]
951[label="BUSYBOX_CHPASSWD"]
952[label="BUSYBOX_FEATURE_HTTPD_CONFIG_WITH_SCRIPT_INTERPR"]
953[label="BPALOGIN_BPALOGIN"]
954[label="MICROWIN_BIN_VNC"]
955[label="BUSYBOX_FEATURE_UTMP"]
956[label="MINI_HTTPD_WITH_SSL"]
957[label="BUSYBOX_RUN_PARTS"]
958[label="Choose your default shell"]
959[label="BUSYBOX_PSCAN"]
960[label="BUSYBOX_FEATURE_WC_LARGE"]
961[label="CLAMAV_SIGTOOL"]
962[label="SYSUTILS_REBOOT"]
963[label="NETFLASH_VERSION_ALLOW_OLDER"]
964[label="BUSYBOX_KBD_MODE"]
965[label="VPNLED_VPNLED"]
966[label="LIBNL_ROUTE_LINK"]
967[label="BUSYBOX_FEATURE_LS_TIMESTAMPS"]
968[label="BUSYBOX_MKFIFO"]
969[label="BUSYBOX_UMOUNT"]
970[label="BUSYBOX_FEATURE_INSMOD_LOAD_MAP_FULL"]
971[label="NETSNMP_IPV6"]
972[label="BUSYBOX_MESG"]
973[label="BUSYBOX_FEATURE_MOUNT_HELPERS"]
974[label="BUSYBOX_FEATURE_UMOUNT_ALL"]
975[label="BUSYBOX_FEATURE_LESS_REGEXP"]
976[label="CRYPTO_TOOLS_CRYPTOKEYTEST"]
977[label="E2FSPROGS_E2FSCK_E2FSCK"]
978[label="BUSYBOX_FEATURE_EDITING_VI"]
979[label="PROCPS_UPTIME"]
980[label="BUSYBOX_SED"]
981[label="BUSYBOX_FEATURE_HDPARM_HDIO_TRISTATE_HWIF"]
982[label="DOSFSTOOLS_DOSFSCK"]
983[label="BUSYBOX_FEATURE_HTTPD_CGI"]
984[label="ZEBRA_ZEBRA_ZEBRA"]
985[label="BUSYBOX_INSTALL_NO_USR"]
986[label="RAMIMAGE_RAMFS64"]
987[label="BUSYBOX_FEATURE_RMDIR_LONG_OPTIONS"]
988[label="BUSYBOX_FEATURE_VOLUMEID_ISO9660"]
989[label="BUSYBOX_FEATURE_VOLUMEID_FAT"]
990[label="MICROWIN_OBJFRAMEWORK"]
991[label="FILEUTILS_CAT"]
992[label="BUSYBOX_FEATURE_ETC_NETWORKS"]
993[label="System Logging Utilities"]
994[label="Applets links"]
995[label="BUSYBOX_SV"]
996[label="BUSYBOX_FEATURE_FIND_PRUNE"]
997[label="FILEUTILS_TOUCH"]
998[label="BUSYBOX_FEATURE_TEE_USE_BLOCK_IO"]
999[label="Linux Ext2 FS Progs"]
1000[label="FILEUTILS_MORE"]
1001[label="Finding Utilities"]
1002[label="PCMCIA_CS"]
1003[label="NETSNMP_NOV2C"]
1004[label="CONNECTION_LIMIT_BOOL"]
1005[label="BUSYBOX_FEATURE_DIFF_MINIMAL"]
1006[label="IPROUTE2_IP_RTMON"]
1007[label="BUSYBOX_FEATURE_TAR_LONG_OPTIONS"]
1008[label="NESSUS_LIBRARIES"]
1009[label="BUSYBOX_NC_EXTRA"]
1010[label="Library Configuration"]
1011[label="BUSYBOX_FEATURE_DATE_ISOFMT"]
1012[label="BUSYBOX_FEATURE_MOUNT_LOOP"]
1013[label="BUSYBOX_PRINTENV"]
1014[label="BUSYBOX_FEATURE_TELNET_AUTOLOGIN"]
1015[label="PYTHON_PYTHON"]
1016[label="MICROWIN_HWVGA"]
1017[label="LPR"]
1018[label="BUSYBOX_TELNETD"]
1019[label="NETSNMP_SCRIPTS"]
1020[label="OGGPLAY_OGGPLAY"]
1021[label="BUSYBOX_FEATURE_KILL_DELAY"]
1022[label="IPROUTE2_IP_RTACCT"]
1023[label="LEVEE_VI"]
1024[label="MARADNS_MARADNS"]
1025[label="BUSYBOX_FEATURE_MDEV_LOAD_FIRMWARE"]
1026[label="BUSYBOX_ASH_MATH_SUPPORT"]
1027[label="MTDUTILS_ERASEALL"]
1028[label="LIBNL"]
1029[label="BUSYBOX_FEATURE_IP_RARE_PROTOCOLS"]
1030[label="BUSYBOX_GETOPT_LONG"]
1031[label="READPROFILE_READPROFILE"]
1032[label="BUSYBOX_FEATURE_TFTP_BLOCKSIZE"]
1033[label="SHADOW_GROUPMOD"]
1034[label="DHCP_ISC_RELAY_DHCRELAY"]
1035[label="DIALD_DIALD"]
1036[label="PPPD_WITH_TACACS"]
1037[label="BUSYBOX_PREFIX"]
1038[label="NETSNMP_DEFLOGFILE"]
1039[label="DISCARD_ECHO_NO_INSTALL"]
1040[label="MICROWIN_BIN_MOVE"]
1041[label="BUSYBOX_LOGIN"]
1042[label="NETSNMP_BUILDSTATIC"]
1043[label="CRAMFS_MKCRAMFS"]
1044[label="MICROWIN_VTSWITCH"]
1045[label="BUSYBOX_EXPR"]
1046[label="RSYSLOGD_RSYSLOGD"]
1047[label="RECOVER_ETHERNET_INTERFACE"]
1048[label="BUSYBOX_TAR"]
1049[label="MUSICBOX_MUSICBOX"]
1050[label="QUAGGA_WATCHQUAGGA_WATCHQUAGGA"]
1051[label="BUSYBOX_FEATURE_NETSTAT_WIDE"]
1052[label="BUSYBOX_FEATURE_RUN_PARTS_LONG_OPTIONS"]
1053[label="BUSYBOX_FEATURE_GREP_EGREP_ALIAS"]
1054[label="LIRC_IRW"]
1055[label="NETSNMP_EXTRANSPORTS"]
1056[label="BUSYBOX_FEATURE_PS_TIME"]
1057[label="BUSYBOX_CROND"]
1058[label="BUSYBOX_FEATURE_DIFF_DIR"]
1059[label="MICROWIN_BIN_NANOWM"]
1060[label="BUSYBOX_FEATURE_TAR_OLDSUN_COMPATIBILITY"]
1061[label="MICROWIN_DE2TSMOUSE"]
1062[label="PROCPS_PGREP"]
1063[label="BUSYBOX_FEATURE_MKDIR_LONG_OPTIONS"]
1064[label="BOOTTOOLS_PRINTBENV"]
1065[label="BUSYBOX_YES"]
1066[label="BUSYBOX_DUMPKMAP"]
1067[label="QSPI"]
1068[label="E2FSPROGS_MISC_MKE2FS"]
1069[label="BUSYBOX_FEATURE_FIND_GROUP"]
1070[label="CRYPTO_TOOLS_CRYPTOTEST"]
1071[label="BUSYBOX_FEATURE_VOLUMEID_LUKS"]
1072[label="BUSYBOX_HWCLOCK"]
1073[label="BUSYBOX_LN"]
1074[label="WLAN_NG_WLANCTL"]
1075[label="MICROWIN_VERBOSE"]
1076[label="BUSYBOX_FEATURE_EDITING_FANCY_PROMPT"]
1077[label="BRCFG_BRCFG"]
1078[label="BUSYBOX_START_STOP_DAEMON"]
1079[label="BUSYBOX_PRINTF"]
1080[label="LIBCCMALLOC"]
1081[label="BUSYBOX_PING6"]
1082[label="BUSYBOX_FEATURE_FIND_PERM"]
1083[label="NETSNMP_APPS_TRANSLATE"]
1084[label="Console Utilities"]
1085[label="BUSYBOX_RUNLEVEL"]
1086[label="RAMIMAGE_RAMFS128"]
1087[label="BUSYBOX_SETUIDGID"]
1088[label="NESSUS_NASL"]
1089[label="BUSYBOX_FEATURE_FDISK_ADVANCED"]
1090[label="QSPITEST_TEST"]
1091[label="BUSYBOX_IFUPDOWN"]
1092[label="SNORT_SNORT"]
1093[label="BUSYBOX_FEATURE_LS_SORTFILES"]
1094[label="BUSYBOX_ASH_READ_TIMEOUT"]
1095[label="STTY_STTY"]
1096[label="BUSYBOX_CHATTR"]
1097[label="PPPD_PPPOE_RETRIES"]
1098[label="SMBMOUNT_SMBUMOUNT"]
1099[label="MICROWIN_MICROWIN"]
1100[label="BUSYBOX_FEATURE_MDEV_RENAME"]
1101[label="BUSYBOX_FEATURE_IFCONFIG_BROADCAST_PLUS"]
1102[label="BUSYBOX_SLATTACH"]
1103[label="FILEUTILS_CMP"]
1104[label="BUSYBOX_IFCONFIG"]
1105[label="Busybox Settings"]
1106[label="LRZSZ_LRZSZ"]
1107[label="BUSYBOX_DEBUG"]
1108[label="FILEUTILS_L"]
1109[label="TCL_LIBTCL"]
1110[label="BUSYBOX_FEATURE_HTTPD_RELOAD_CONFIG_SIGHUP"]
1111[label="SAMBA_SMBUMOUNT"]
1112[label="BUSYBOX_FEATURE_TASKSET_FANCY"]
1113[label="BUSYBOX_PWD"]
1114[label="BUSYBOX_FEATURE_HDPARM_HDIO_GETSET_DMA"]
1115[label="BUSYBOX_STATIC"]
1116[label="BUSYBOX_LS"]
1117[label="HWCLOCK_HWCLOCK"]
1118[label="BUSYBOX_FEATURE_MINIX2"]
1119[label="WLAN_NG_WLANCFG"]
1120[label="BUSYBOX_MONOTONIC_SYSCALL"]
1121[label="BUSYBOX_FEATURE_FIND_MMIN"]
1122[label="BUSYBOX_FEATURE_CROND_CALL_SENDMAIL"]
1123[label="BUSYBOX_TASKSET"]
1124[label="MINI_HTTPD_MINI_HTTPD"]
1125[label="TCPWRAP_TCPDCHK"]
1126[label="LOGIN_LOGIN"]
1127[label="NETSNMP_APPS_DELTA"]
1128[label="BUSYBOX_GREP"]
1129[label="BUSYBOX_FEATURE_NOLOGIN"]
1130[label="FILEUTILS_LS"]
1131[label="MTDUTILS_DOC_LOADBIOS"]
1132[label="TINYLOGIN_SULOGIN"]
1133[label="EXPAT"]
1134[label="MICROWIN_CLEOVGA"]
1135[label="BUSYBOX_FEATURE_SHADOWPASSWDS"]
1136[label="NET_TOOLS_NETSTAT"]
1137[label="RUN_PARTS_FANCY"]
1138[label="NETSNMP_DEFENTERPRISEOID"]
1139[label="BUSYBOX_FTPPUT"]
1140[label="PPPD_WITH_MINCONN"]
1141[label="REISERFSPROGS_DEBUGRESIERFS"]
1142[label="LIBEFENCE"]
1143[label="SHADOW_PWCONV"]
1144[label="APPWEB_DYNAMIC"]
1145[label="RAMIMAGE_RAMFS2048"]
1146[label="FTPD_FTPD"]
1147[label="BUSYBOX_LAST"]
1148[label="LIBPCRE"]
1149[label="XL2TPD_XL2TPD"]
1150[label="BUSYBOX_WC"]
1151[label="QUAGGA_ZEBRA_ZEBRA"]
1152[label="SASH_HISTORY"]
1153[label="BUSYBOX_DU"]
1154[label="BUSYBOX_DATE"]
1155[label="BUSYBOX_FEATURE_HTTPD_RANGES"]
1156[label="BUSYBOX_PASSWD"]
1157[label="Networking Utilities"]
1158[label="BUSYBOX_DD"]
1159[label="LUA_LUASQL_SQLITE3"]
1160[label="RRDTOOL_RRDTOOL"]
1161[label="LIBFFI"]
1162[label="BUSYBOX_FEATURE_VERBOSE_USAGE"]
1163[label="BUSYBOX_FEATURE_HDPARM_HDIO_UNREGISTER_HWIF"]
1164[label="LIBBZ2"]
1165[label="ETHERWAKE"]
1166[label="LIBNL_GENERIC"]
1167[label="BUSYBOX_WATCH"]
1168[label="BUSYBOX_RM"]
1169[label="TINYLOGIN_MD5_PASSWORDS"]
1170[label="BUSYBOX_IPCS"]
1171[label="FLATFSD_HAS_RTC"]
1172[label="BUSYBOX_RESET"]
1173[label="STLPORT"]
1174[label="LIBJUDY"]
1175[label="BUSYBOX_SETSEBOOL"]
1176[label="BUSYBOX_FEATURE_TR_EQUIV"]
1177[label="MicroWindows"]
1178[label="BUSYBOX_PAM"]
1179[label="BUSYBOX_FEATURE_AWK_MATH"]
1180[label="BUSYBOX_FEATURE_TAR_CREATE"]
1181[label="BUSYBOX_DEVFSD_FG_NP"]
1182[label="BUSYBOX_MAKEDEVS"]
1183[label="FLATFSD_COMPRESSED"]
1184[label="BUSYBOX_PASSWORD_MINLEN"]
1185[label="TINYTCL_STATIC"]
1186[label="GREP_GREP"]
1187[label="PROCPS_W"]
1188[label="BUSYBOX_FEATURE_UNARCHIVE_TAPE"]
1189[label="BUSYBOX_SCRIPT"]
1190[label="LIBNET"]
1191[label="LIRC"]
1192[label="FLATFSD_FLATFSD"]
1193[label="NESSUS"]
1194[label="NET_TOOLS_IFCONFIG"]
1195[label="BUSYBOX_FEATURE_TAR_COMPRESS"]
1196[label="LIBXML2"]
1197[label="SHADOW_LASTLOG"]
1198[label="BUSYBOX_FEATURE_IPCALC_LONG_OPTIONS"]
1199[label="WLAN_NG_PCMCIA"]
1200[label="BUSYBOX_FEATURE_SUID_CONFIG_QUIET"]
1201[label="BUSYBOX_CHROOT"]
1202[label="BUSYBOX_FEATURE_PIDFILE"]
1203[label="DDNS3_CLIENT_DDNS3"]
1204[label="BUSYBOX_LASH"]
1205[label="BUSYBOX_RTCWAKE"]
1206[label="SYSUTILS_KILL"]
1207[label="MICROWIN_HARRIERMOUSE"]
1208[label="BUSYBOX_ENVUIDGID"]
1209[label="DHRYSTONE_DHRYSTONE"]
1210[label="BUSYBOX_ASH_CMDCMD"]
1211[label="BUSYBOX_FEATURE_BUFFERS_GO_IN_BSS"]
1212[label="BUSYBOX_TEST"]
1213[label="Automake Libraries"]
1214[label="BUSYBOX_FEATURE_PREFER_IPV4_ADDRESS"]
1215[label="FREESWAN_KLIPS_EROUTE"]
1216[label="BUSYBOX_RUNSVDIR"]
1217[label="BUSYBOX_FEATURE_TOPMEM"]
1218[label="BUSYBOX_ENVDIR"]
1219[label="BUSYBOX_FEATURE_SH_IS_ASH"]
1220[label="REISERFSPROGS_REISERFSCK"]
1221[label="BUSYBOX_TCPSVD"]
1222[label="BUSYBOX_CRYPTPW"]
1223[label="BUSYBOX_FEATURE_DEVPTS"]
1224[label="OPENSWAN_PLUTO_WHACK"]
1225[label="NETSNMP_OPENSSL"]
1226[label="PPTP_PPTP"]
1227[label="SSH_SSHKEYGEN"]
1228[label="BUSYBOX_CHMOD"]
1229[label="ETHTOOL_ETHTOOL"]
1230[label="BUSYBOX_FEATURE_VOLUMEID_REISERFS"]
1231[label="PROCPS_KILL"]
1232[label="BUSYBOX_SOFTLIMIT"]
1233[label="BUSYBOX_FEATURE_AUTOWIDTH"]
1234[label="FCONFIG_FCONFIG"]
1235[label="SSH_ONLY_RSA_V2_KEYGEN"]
1236[label="BUSYBOX_FEATURE_SH_STANDALONE"]
1237[label="BUSYBOX_FEATURE_MAKEDEVS_LEAF"]
1238[label="FNORD_404_REDIR"]
1239[label="BUSYBOX_FEATURE_LESS_MAXLINES"]
1240[label="BUSYBOX_KILLALL"]
1241[label="NETSNMP_OVRDEFAULTS"]
1242[label="LIBLDAP"]
1243[label="BUSYBOX_CUT"]
1244[label="BUSYBOX_FEATURE_SETFILES_CHECK_OPTION"]
1245[label="BUSYBOX_RUNCON"]
1246[label="BUSYBOX_FEATURE_HTTPD_CONFIG_WITH_MIME_TYPES"]
1247[label="BUSYBOX_SETLOGCONS"]
1248[label="MICROWIN_SERMOUSE"]
1249[label="TRUSTEDSOURCE"]
1250[label="BUSYBOX_FEATURE_CHECK_TAINTED_MODULE"]
1251[label="LIBSYSFS"]
1252[label="LOATTACH_LOATTACH"]
1253[label="BUSYBOX_MKTEMP"]
1254[label="NETFLASH_SHA256"]
1255[label="BUSYBOX_TRACEROUTE"]
1256[label="CAMSERV"]
1257[label="NETFLASH_NETFLASH"]
1258[label="THREADDEMOS_THREADDEMOS"]
1259[label="BUSYBOX_FEATURE_FIND_SIZE"]
1260[label="DNSMASQ2_RESOLVE_AS_SERVER"]
1261[label="E2FSPROGS_MISC_CHATTR"]
1262[label="BUSYBOX_DEBUG_INIT"]
1263[label="BUSYBOX_DPKG"]
1264[label="BUSYBOX_BUILD_LIBBUSYBOX"]
1265[label="MICROWIN_UPDATEREGIONS"]
1266[label="MICROWIN_BIN_NTERM"]
1267[label="BUSYBOX_INSTALL_SH_APPLET_SYMLINK"]
1268[label="TCSH_TCSH"]
1269[label="QUAGGA_BGPD_BGPD"]
1270[label="BUSYBOX_ADJTIMEX"]
1271[label="SHADOW_USERDEL"]
1272[label="BUSYBOX_FEATURE_EXTRA_QUIET"]
1273[label="BUSYBOX_FEATURE_MOUNT_VERBOSE"]
1274[label="BUSYBOX_DMESG"]
1275[label="MICROWIN_OPTIMIZE"]
1276[label="SSH_SCP"]
1277[label="BUSYBOX_FEATURE_FANCY_TAIL"]
1278[label="MICROWIN_GPMMOUSE"]
1279[label="BUSYBOX_FEATURE_VOLUMEID_JFS"]
1280[label="TINYTCL"]
1281[label="SHADOW_NOLOGIN"]
1282[label="MGETTY_MGETTY"]
1283[label="DEMO_BUTTON"]
1284[label="OPENSWAN_PLUTO_PLUTO"]
1285[label="KLAXON_CHARGEN"]
1286[label="RTC_DS1302"]
1287[label="HOSTAP_CS"]
1288[label="BUSYBOX_FEATURE_MDEV_EXEC"]
1289[label="MICROWIN_HAVE_GIF_SUPPORT"]
1290[label="BUSYBOX_FEATURE_TOP_CPU_GLOBAL_PERCENTS"]
1291[label="PROCPS_FREE"]
1292[label="BUSYBOX_HTTPD"]
1293[label="BUSYBOX_TIME"]
1294[label="BUSYBOX_TOP"]
1295[label="QUAGGA_OSPFD_OSPFD"]
1296[label="MICROWIN_X11"]
1297[label="BUSYBOX_FEATURE_CHAT_VAR_ABORT_LEN"]
1298[label="WIRELESS_TOOLS_IWCONFIG"]
1299[label="BUSYBOX_FEATURE_SU_CHECKS_SHELLS"]
1300[label="IPROUTE2_IP_RTPR"]
1301[label="BUSYBOX_ASH_JOB_CONTROL"]
1302[label="BUSYBOX_EFENCE"]
1303[label="BUSYBOX_FEATURE_TELNETD_STANDALONE"]
1304[label="FILEUTILS_RMDIR"]
1305[label="NETSNMP_SNMPD"]
1306[label="HTTPD_HTTPD"]
1307[label="NCURSES"]
1308[label="UNRAR_UNRAR"]
1309[label="LUA_COSMO"]
1310[label="LIRC_MODE2"]
1311[label="BUSYBOX_FDFLUSH"]
1312[label="BUSYBOX_FEATURE_PASSWD_WEAK_CHECK"]
1313[label="BUSYBOX_FEATURE_CHECK_NAMES"]
1314[label="SENDIP_SENDIP"]
1315[label="BUSYBOX_ASH_BUILTIN_TEST"]
1316[label="OPENSWAN_PROGRAMS_LWDNSQ"]
1317[label="MYSQL"]
1318[label="CRYPTO_TOOLS_CMACTEST"]
1319[label="MICROWIN_BIN_NXEV"]
1320[label="BUSYBOX_FEATURE_WGET_LONG_OPTIONS"]
1321[label="NETSNMP_APPS_SET"]
1322[label="BUSYBOX_FEATURE_FTPGETPUT_LONG_OPTIONS"]
1323[label="OPENSWAN_KLIPS_SPIGRP"]
1324[label="BUSYBOX_SPLIT"]
1325[label="MICROWIN_BIN_NXKBD"]
1326[label="PPPD_WITH_DYNAMIC_PLUGINS"]
1327[label="BUSYBOX_FEATURE_SYSLOGD_DUP"]
1328[label="WLAN_NG_PCI"]
1329[label="MICROWIN_NOMOUSE"]
1330[label="SASH_PS"]
1331[label="SYSUTILS_HOSTNAME"]
1332[label="OTHER_SH"]
1333[label="BUSYBOX_SETARCH"]
1334[label="IFATTACH_IFATTACH"]
1335[label="DEMO_LATCH"]
1336[label="BUSYBOX_ASH_READ_NCHARS"]
1337[label="MOUNT_MOUNT"]
1338[label="NETSNMP_DEFVERSION"]
1339[label="BUSYBOX_VLOCK"]
1340[label="BOOTTOOLS_SETBENV"]
1341[label="General Configuration"]
1342[label="FROB_LED_FROB_LED"]
1343[label="MICROWIN_BIN_SLIDER"]
1344[label="BUSYBOX_FEATURE_VI_COLON"]
1345[label="SASH_REBOOT_SNAPGEAR"]
1346[label="BUSYBOX_BB_SYSCTL"]
1347[label="BUSYBOX_FEATURE_VERBOSE_CP_MESSAGE"]
1348[label="TFTPD_TFTPD_LOW_SEC"]
1349[label="SHADOW_GROUPADD"]
1350[label="BUSYBOX_SETKEYCODES"]
1351[label="BUSYBOX_FEATURE_HDPARM_GET_IDENTITY"]
1352[label="BUSYBOX_RAIDAUTORUN"]
1353[label="MICROWIN_PIPEKBD"]
1354[label="PPPD_WITH_PAM"]
1355[label="BUSYBOX_HUSH_IF"]
1356[label="CLASSPATH"]
1357[label="INETD_INETD"]
1358[label="BUSYBOX_FEATURE_COPYBUF_KB"]
1359[label="BUSYBOX_FEATURE_INDIVIDUAL"]
1360[label="MARADNS_ZONESERVER"]
1361[label="VIXIECRON_CRON"]
1362[label="MICROWIN_HAVE_JPEG_SUPPORT"]
1363[label="SYSUTILS_PS"]
1364[label="NET_TOOLS_RARP"]
1365[label="SQUASHFS_MKSQUASHFS7Z"]
1366[label="BUSYBOX_FEATURE_AIX_LABEL"]
1367[label="PPPD_WITH_IPV6"]
1368[label="PPTP_CLIENT_PPTP_CALLMGR"]
1369[label="BUSYBOX_FEATURE_INSMOD_LOADINKMEM"]
1370[label="BUSYBOX_FEATURE_RUNCON_LONG_OPTIONS"]
1371[label="HTTPTUNNEL_SERVER"]
1372[label="BUSYBOX_FEATURE_HTTPD_BASIC_AUTH"]
1373[label="IPTABLES_IPTABLES"]
1374[label="BUSYBOX_DELGROUP"]
1375[label="BUSYBOX_FEATURE_IP_LINK"]
1376[label="BUSYBOX_FEATURE_IFCONFIG_STATUS"]
1377[label="BUSYBOX_FEATURE_FIND_MTIME"]
1378[label="SHADOW_CHFN"]
1379[label="BUSYBOX_FEATURE_VOLUMEID_ROMFS"]
1380[label="BUSYBOX_FEATURE_DMESG_PRETTY"]
1381[label="JAMVM_JAMVM"]
1382[label="CLAMAV_NODB"]
1383[label="BUSYBOX_UNEXPAND"]
1384[label="BUSYBOX_INSMOD"]
1385[label="BUSYBOX_FEATURE_NAMEIF_EXTENDED"]
1386[label="BUSYBOX_CHRT"]
1387[label="LIBNL_ROUTE_RULE"]
1388[label="BUSYBOX_TRUE"]
1389[label="LUA_ORBIT"]
1390[label="MICROWIN_BIN_NXVIEW"]
1391[label="RECOVER_PRESERVE_CONFIG_FS"]
1392[label="FILEUTILS_SYNC"]
1393[label="LIBCURL"]
1394[label="PPPD_WITH_PASSPROMPT"]
1395[label="BUSYBOX_FEATURE_OSF_LABEL"]
1396[label="BUSYBOX_GETTY"]
1397[label="BUSYBOX_RESTORECON"]
1398[label="PCIUTILS_LSPCI"]
1399[label="BUSYBOX_MKSWAP"]
1400[label="BUSYBOX_FEATURE_HWCLOCK_LONG_OPTIONS"]
1401[label="MICROWIN_MWPF_TRUECOLOR555"]
1402[label="IPUTILS_CLOCKDIFF"]
1403[label="PROCPS_WATCH"]
1404[label="OPENSWAN_KLIPS_TNCFG"]
1405[label="BUSYBOX_FEATURE_IP_RULE"]
1406[label="MICROWIN_CLEOMOUSE"]
1407[label="BUSYBOX_CKSUM"]
1408[label="ULOGD_ULOGD"]
1409[label="JQUERY_UI"]
1410[label="BUSYBOX_FEATURE_DEL_USER_FROM_GROUP"]
1411[label="BUSYBOX_FEATURE_IP_ADDRESS"]
1412[label="BUSYBOX_PIDOF"]
1413[label="MTDUTILS_NANDTEST"]
1414[label="VPLAY_MIXER"]
1415[label="BOA_EMERG"]
1416[label="TELNETD_DOES_NOT_USE_OPENPTY"]
1417[label="BUSYBOX_DEVFSD"]
1418[label="BUSYBOX_HUSH_INTERACTIVE"]
1419[label="E2FSPROGS_MISC_E2LABEL"]
1420[label="BUSYBOX_FEATURE_CHAT_IMPLICIT_CR"]
1421[label="SHUTILS_FALSE"]
1422[label="BUSYBOX_FEATURE_IFCONFIG_SLIP"]
1423[label="KEXEC_KEXEC"]
1424[label="NETSNMP_NOTRANSPORTS"]
1425[label="Busybox Library Tuning"]
1426[label="BUSYBOX_FEATURE_WTMP"]
1427[label="SHADOW_EXPIRY"]
1428[label="MICROWIN_ERASEMOVE"]
1429[label="PROCPS_SNICE"]
1430[label="MICROWIN_HAVE_BMP_SUPPORT"]
1431[label="GETTYD_GETTYD"]
1432[label="IPUTILS_RDISC"]
1433[label="OPENSWAN_UTILS_RANBITS"]
1434[label="BUSYBOX_LSMOD"]
1435[label="BUSYBOX_FEATURE_IP_SHORT_FORMS"]
1436[label="OSIP2"]
1437[label="BUSYBOX_FEATURE_LS_USERNAME"]
1438[label="NETFLASH_VERSION"]
1439[label="SHADOW_USERADD"]
1440[label="KLAXON_SSH"]
1441[label="BUSYBOX_FEATURE_LESS_BRACKETS"]
1442[label="BUSYBOX_USE_BB_PWD_GRP"]
1443[label="BUSYBOX_FEATURE_VI_MAX_LEN"]
1444[label="POPT"]
1445[label="THTTPD_THTTPD"]
1446[label="BUSYBOX_NC_SERVER"]
1447[label="SHADOW_GRPUNCONV"]
1448[label="BUSYBOX_FEATURE_TAR_BZIP2"]
1449[label="SHUTILS_PRINTENV"]
1450[label="BUSYBOX_FEATURE_MOUNT_FAKE"]
1451[label="NETPIPE_NETPIPE"]
1452[label="BUSYBOX_READLINK"]
1453[label="LEDCON_LEDCON"]
1454[label="TINYLOGIN_TRIVIAL_HELP"]
1455[label="CLAMAV_CLAMDSCAN"]
1456[label="MICROWIN_HAVE_T1LIB_SUPPORT"]
1457[label="BUSYBOX_NC"]
1458[label="LIBNL_NETFILTER"]
1459[label="BUSYBOX_FEATURE_FIND_NEWER"]
1460[label="FILEUTILS_MV"]
1461[label="Choose makedevs behaviour"]
1462[label="GDB_HOST"]
1463[label="NETSNMP_MANUALS"]
1464[label="MICROWIN_IPAQMOUSE"]
1465[label="LOGROTATE_LOGROTATE"]
1466[label="FDISK_SFDISK"]
1467[label="MTDUTILS_FTL_FORMAT"]
1468[label="BUSYBOX_NOMMU"]
1469[label="BUSYBOX_HEXDUMP"]
1470[label="MICROWIN_BIN_NXTERM"]
1471[label="BUSYBOX_UDHCPC_SLACK_FOR_BUGGY_SERVERS"]
1472[label="BUSYBOX_FBSET"]
1473[label="SASH_SH"]
1474[label="BUSYBOX_FEATURE_MTAB_SUPPORT"]
1475[label="CKSUM_CKSUM"]
1476[label="Init Utilities"]
1477[label="NETFLASH_CRYPTO_V2"]
1478[label="NETSNMP_APPS_GET"]
1479[label="BUSYBOX_FEATURE_VOLUMEID_HFS"]
1480[label="SETSERIAL_SETSERIAL"]
1481[label="SHADOW_USERMOD"]
1482[label="SMBMOUNT_SMBMOUNT"]
1483[label="PORTMAP_PMAP_SET"]
1484[label="INIT_INIT"]
1485[label="NETSTAT_NAT_NETSTAT_NAT"]
1486[label="LIRC_IREXEC"]
1487[label="BUSYBOX_FEATURE_MODPROBE_MULTIPLE_OPTIONS"]
1488[label="BUSYBOX_INSTALL_SH_APPLET_SCRIPT_WRAPPER"]
1489[label="BUSYBOX_INIT"]
1490[label="BUSYBOX_LOGIN_SCRIPTS"]
1491[label="SHADOW_GPASSWD"]
1492[label="IPTABLES_IP6TABLES"]
1493[label="LAYER7_PROTOCOLS"]
1494[label="DHCPCD_LLIP"]
1495[label="FREERADIUS"]
1496[label="RAMIMAGE_RAMFS256"]
1497[label="NETSNMP_APPS_DF"]
1498[label="BUSYBOX_NAMEIF"]
1499[label="NOOOM_BINARIES"]
1500[label="BUSYBOX_MD5_SIZE_VS_SPEED"]
1501[label="DEMO_MORSE"]
1502[label="ASTERISK"]
1503[label="TFTP_TFTP"]
1504[label="BUSYBOX_UUDECODE"]
1505[label="SIPROXD_SIPROXD"]
1506[label="BUSYBOX_NSLOOKUP"]
1507[label="BUSYBOX_FEATURE_2_4_MODULES"]
1508[label="BUSYBOX_FEATURE_FBSET_READMODE"]
1509[label="BUSYBOX_HOSTID"]
1510[label="BUSYBOX_FEATURE_COMPRESS_USAGE"]
1511[label="LIRC_LIRCMD"]
1512[label="BUSYBOX_FEATURE_EXPAND_LONG_OPTIONS"]
1513[label="BUSYBOX_VCONFIG"]
1514[label="BUSYBOX_PS"]
1515[label="DROPBEAR_DROPBEAR"]
1516[label="IPMASQADM_IPMASQADM"]
1517[label="BUSYBOX_STTY"]
1518[label="WIRELESS_TOOLS_IWGETID"]
1519[label="PPPD_WITH_PASSWORDFD"]
1520[label="BUSYBOX_GETENFORCE"]
1521[label="LIBNL_ROUTE_NEIGH"]
1522[label="BUSYBOX_SYNC"]
1523[label="MICROWIN_BIN_NTETRIS"]
1524[label="RTC_M41T11"]
1525[label="BUSYBOX_FEATURE_EDITING"]
1526[label="MICROWIN_HAVEMSFONTS"]
1527[label="LIBNL_NETFILTER_LOG"]
1528[label="SAMBA"]
1529[label="BUSYBOX_FEATURE_SUN_LABEL"]
1530[label="PLUG_PLUG"]
1531[label="SHADOW_VIPW"]
1532[label="BUSYBOX_WHO"]
1533[label="VIXIECRON_CRONTAB"]
1534[label="DOSFSTOOLS_DOSFSLABEL"]
1535[label="IPERF_IPERF"]
1536[label="APPWEB_SSL"]
1537[label="BUSYBOX_FEATURE_FIND_PRINT0"]
1538[label="ULOGD2_ULOGD"]
1539[label="BUSYBOX_CHAT"]
1540[label="BUSYBOX_FEATURE_FAST_TOP"]
1541[label="BUSYBOX_FREE"]
1542[label="MICROWIN_NOFONTSORCLIPPING"]
1543[label="BUSYBOX_CHCON"]
1544[label="SER_SER"]
1545[label="DHCP_ISC_SERVER_DHCPD"]
1546[label="BUSYBOX_FEATURE_VOLUMEID_XFS"]
1547[label="LUA_XAVANTE"]
1548[label="BUSYBOX_SENDMAIL"]
1549[label="VCONFIG_VCONFIG"]
1550[label="TINYLOGIN_ADDGROUP"]
1551[label="MICROWIN_BIN_NXCLOCK"]
1552[label="LIBKRB5"]
1553[label="WIRELESS_TOOLS_IWPRIV"]
1554[label="BUSYBOX_EXPR_MATH_SUPPORT_64"]
1555[label="Selinux Utilities"]
1556[label="BUSYBOX_DHCPD_LEASES_FILE"]
1557[label="IPCHAINS_IPCHAINS"]
1558[label="NETPERF_NETSERVER"]
1559[label="UC_LIBC_TZ_FROM_FILE"]
1560[label="ADNS"]
1561[label="BUSYBOX_RX"]
1562[label="BUSYBOX_CLEAR"]
1563[label="LIBNL_FIB"]
1564[label="BUSYBOX_FEATURE_DEB_TAR_LZMA"]
1565[label="BUSYBOX_SEQ"]
1566[label="FNORD_HTTPD"]
1567[label="TELNETD_TELNETD"]
1568[label="INIT_CONF"]
1569[label="BUSYBOX_FEATURE_VOLUMEID_LINUXRAID"]
1570[label="BUSYBOX_NOHUP"]
1571[label="BUSYBOX_FEATURE_VI_READONLY"]
1572[label="BUSYBOX_FOLD"]
1573[label="BUSYBOX_FEATURE_BRCTL_FANCY"]
1574[label="Login/Password Management Utilities"]
1575[label="BUSYBOX_FEATURE_TAB_COMPLETION"]
1576[label="BUSYBOX_FEATURE_HTTPD_ENCODE_URL_STR"]
1577[label="BUSYBOX_IPLINK"]
1578[label="MICROWIN_ADSMOUSE"]
1579[label="LM_SENSORS"]
1580[label="BUSYBOX_FEATURE_USERNAME_COMPLETION"]
1581[label="BUSYBOX_CMP"]
1582[label="MTDUTILS_LOCK"]
1583[label="BUSYBOX_FEATURE_SH_IS_NONE"]
1584[label="PLAY_PLAY"]
1585[label="BUSYBOX_RUNSV"]
1586[label="BUSYBOX_FEATURE_VI_YANKMARK"]
1587[label="TIP_TIP"]
1588[label="FILEUTILS_LN"]
1589[label="IPROUTE2_IP_IP"]
1590[label="RSYSLOG_RSYSLOGD"]
1591[label="NBENCH_NBENCH"]
1592[label="MICROWIN_LINK_APP_INTO_SERVER"]
1593[label="BRCTL_BRCTL"]
1594[label="BUSYBOX_FEATURE_REMOTE_LOG"]
1595[label="E2FSPROGS_MISC_FSCK"]
1596[label="MICROWIN_TPHELIO"]
1597[label="BUSYBOX_LOGNAME"]
1598[label="BUSYBOX_FEATURE_VI_USE_SIGNALS"]
1599[label="BUSYBOX_SUM"]
1600[label="BUSYBOX_FEATURE_PIDOF_SINGLE"]
1601[label="BUSYBOX_FEATURE_CHAT_SWALLOW_OPTS"]
1602[label="LUA"]
1603[label="BUSYBOX_FEATURE_CHAT_NOFAIL"]
1604[label="BUSYBOX_FEATURE_SETCONSOLE_LONG_OPTIONS"]
1605[label="BUSYBOX_FEATURE_BUFFERS_GO_ON_STACK"]
1606[label="BUSYBOX_RENICE"]
1607[label="HD_HD"]
1608[label="Archival Utilities"]
1609[label="BUSYBOX_FEATURE_INIT_COREDUMPS"]
1610[label="PLAY_TONE"]
1611[label="PPPD_WITH_PPPOA"]
1612[label="CRAMFS_CRAMFSCK"]
1613[label="CGIHTML"]
1614[label="SHADOW_GROUPDEL"]
1615[label="BUSYBOX_ASH_GETOPTS"]
1616[label="FLEX"]
1617[label="BUSYBOX_LOADKMAP"]
1618[label="BUSYBOX_UDPSVD"]
1619[label="BUSYBOX_FEATURE_HTTPD_PROXY"]
1620[label="DISTVERSION"]
903->1
1612->2
235->3
1157->4
797->5
514->6
33->7
763->8
945->9
549->10
97->11
99->12
810->13
436->14
1341->15
1010->16
604->17
467->18
797->19
1257->20
235->21
488->22
797->23
958->24
929->25
539->26
903->27
1555->28
436->29
353->30
488->31
525->32
116->33
1177->34
604->35
1305->36
305->37
1116->38
1525->39
436->40
958->41
567->42
436->43
576->44
436->45
1177->46
576->47
538->48
993->49
1608->50
235->51
126->52
235->53
359->54
436->55
294->56
235->57
163->58
181->59
797->60
436->61
163->62
1084->63
126->64
436->65
1257->66
1177->67
181->68
1010->69
436->70
235->71
1001->72
1452->73
308->74
460->75
1525->76
1417->77
1425->78
810->79
1292->80
1608->81
1010->82
797->83
903->84
436->85
1177->86
235->87
1489->88
51->89
929->90
1157->91
590->92
797->93
945->94
235->95
467->96
1608->97
923->98
235->99
1539->100
1528->101
1255->102
252->103
878->104
235->105
1574->106
1010->107
359->108
114->109
436->110
644->111
807->112
1384->113
1105->114
1157->115
51->117
922->118
903->119
193->120
294->121
436->122
72->123
878->124
143->125
1091->126
305->127
1177->128
1158->129
748->130
1566->131
235->132
843->133
235->134
809->135
560->136
72->137
1341->138
1177->139
1445->140
488->141
604->142
1608->143
235->144
810->145
436->146
590->147
872->148
235->149
1574->150
1341->151
1105->152
950->153
999->154
775->155
1264->156
436->157
590->158
748->159
1341->160
477->161
573->162
1602->163
590->164
604->165
1157->166
1010->167
235->168
436->169
305->170
116->171
1028->172
604->173
443->174
352->175
723->176
1341->177
305->178
810->179
835->180
646->181
768->182
1157->183
313->184
604->185
1105->186
929->187
305->188
436->189
1438->190
1191->191
1177->192
116->193
436->194
1106->195
604->196
235->197
843->198
358->199
929->200
235->201
600->202
1128->203
646->204
1341->205
576->206
872->207
488->208
244->209
1157->210
1057->211
1257->212
604->213
1305->214
193->215
235->216
235->217
604->218
923->219
183->220
329->221
947->222
663->223
436->224
235->225
1177->226
235->227
436->228
173->229
604->230
235->231
15->232
51->233
235->234
116->235
1177->236
1010->237
872->238
1341->239
72->240
663->241
235->242
230->243
923->244
1341->245
458->246
235->247
835->248
843->249
235->250
152->251
235->252
1157->253
775->254
929->255
235->256
436->257
33->258
576->259
804->260
604->261
1157->262
1341->263
181->264
352->265
51->266
950->267
488->268
436->269
263->270
1555->271
308->272
420->273
1177->274
1091->275
1502->276
235->277
984->278
1091->279
477->280
235->281
1555->282
797->283
436->284
436->285
170->286
308->287
381->288
872->289
576->290
857->291
604->292
723->293
1157->294
835->295
235->296
235->297
526->298
1434->299
1041->300
235->301
1010->302
1418->303
235->304
923->305
436->306
436->307
116->308
235->309
514->310
436->311
51->312
604->313
1091->314
99->315
604->316
436->317
993->318
843->319
604->320
1157->321
770->322
51->323
1010->324
235->325
810->326
1116->327
436->328
436->329
1151->330
359->331
1177->332
305->333
1305->334
929->335
1384->336
1489->337
514->338
1528->339
235->340
797->341
1010->342
436->343
456->344
1157->345
235->346
477->347
490->348
1010->349
872->350
353->351
116->352
116->353
488->354
235->355
436->356
308->357
646->358
923->359
1177->360
304->361
235->362
252->363
235->364
436->365
576->366
1341->367
994->368
1157->369
436->370
1010->371
1608->372
1151->373
185->374
355->375
436->376
1010->377
1555->378
308->379
1341->380
923->381
604->382
235->383
797->384
1157->385
797->386
1056->387
1084->388
235->389
436->390
359->391
5->392
1010->393
1212->394
763->395
467->396
488->397
1489->398
436->399
1010->400
646->401
1608->402
1489->403
590->404
1608->405
460->406
1412->407
294->408
1177->409
72->410
436->411
892->412
318->413
214->414
305->415
304->416
1608->417
947->418
1004->419
436->420
590->421
1608->422
353->423
235->424
1525->425
1255->426
1543->427
663->428
1157->429
436->430
1010->431
1177->432
810->433
1192->434
1010->435
116->436
1010->437
1241->438
604->439
436->440
663->441
33->442
219->443
1539->444
1010->445
1026->446
308->447
219->448
219->449
436->450
1241->451
235->452
436->453
490->454
1173->455
1305->456
697->457
235->458
576->459
1192->460
1010->461
337->462
1177->463
490->464
697->465
308->466
1177->467
604->468
1177->469
1528->470
1384->471
1417->472
843->473
999->474
526->475
1341->476
305->477
809->478
994->479
1608->480
235->481
604->482
181->483
810->484
436->485
436->486
1084->487
308->488
843->489
923->490
929->491
436->492
51->493
436->494
1399->495
604->496
308->497
235->498
843->499
355->500
903->501
878->502
467->503
878->504
235->505
1255->506
436->507
132->508
72->509
72->510
809->511
436->512
1106->513
235->514
604->515
235->516
305->517
590->518
321->519
262->520
235->521
460->522
384->523
770->524
235->525
33->526
604->527
843->528
436->529
843->530
305->531
797->532
604->533
929->534
1574->535
477->536
590->537
308->538
235->539
835->540
235->541
235->542
797->543
181->544
436->545
1324->546
171->547
235->548
1257->549
294->550
1528->551
929->552
353->553
604->554
1157->555
235->556
436->557
604->558
436->559
1084->560
1177->561
1257->562
1191->563
305->564
235->565
1608->566
305->567
843->568
752->569
1177->570
235->571
235->572
235->573
235->574
244->575
116->576
436->577
235->578
1078->579
920->580
171->581
1177->582
604->583
201->584
1010->585
697->586
235->587
261->588
488->589
1305->590
99->591
797->592
353->593
1458->594
612->595
51->596
929->597
994->598
201->599
116->600
235->601
91->602
878->603
923->604
1458->605
644->606
352->607
305->608
235->609
535->610
235->611
353->612
436->613
950->614
1177->615
436->616
1157->617
204->618
1241->619
252->620
576->621
436->622
929->623
490->624
1157->625
436->626
872->627
763->628
1067->629
436->630
305->631
1292->632
219->633
617->634
235->635
590->636
482->637
308->638
72->639
384->640
1177->641
809->642
235->643
318->644
1528->645
923->646
1177->647
1010->648
72->649
51->650
477->651
235->652
235->653
514->654
235->655
436->656
477->657
1128->658
723->659
604->660
304->661
1157->662
929->663
308->664
1157->665
604->666
490->667
1608->668
604->669
604->670
1157->671
1213->672
235->673
436->674
436->675
797->676
235->677
436->678
436->679
436->680
1177->681
50->682
526->683
843->684
1177->685
617->686
436->687
305->688
51->689
835->690
1135->691
235->692
235->693
1476->694
1078->695
880->696
797->697
1469->698
468->699
490->700
747->701
72->702
810->703
1177->704
929->705
72->706
590->707
843->708
903->709
436->710
1555->711
235->712
436->713
1010->714
1514->715
235->716
950->717
1461->718
1174->719
436->720
331->721
1383->722
172->723
333->724
181->725
235->726
436->727
890->728
604->729
1177->730
872->731
235->732
1539->733
109->734
1010->735
436->736
929->737
235->738
294->739
381->740
353->741
604->742
436->743
604->744
436->745
353->746
604->747
152->748
436->749
235->750
1177->751
333->752
843->753
576->754
1157->755
1579->756
304->757
1608->758
571->759
1192->760
252->761
932->762
923->763
1555->764
1104->765
235->766
171->767
604->768
235->769
1157->770
72->771
436->772
1177->773
353->774
235->775
460->776
1177->777
436->778
436->779
436->780
576->781
436->782
843->783
1157->784
1157->785
590->786
193->787
576->788
1157->789
72->790
983->791
1608->792
1157->793
604->794
1084->795
624->796
923->797
604->798
235->799
1472->800
1177->801
1292->802
903->803
1574->804
436->805
775->806
929->807
1091->808
1010->809
235->810
235->811
576->812
436->813
604->814
1177->815
1048->816
843->817
1048->818
929->819
305->820
152->821
576->822
1372->823
436->824
1084->825
235->826
1177->827
235->828
467->829
1177->830
186->831
604->832
893->833
994->834
1157->835
235->836
576->837
235->838
305->839
604->840
576->841
1177->842
436->843
436->844
235->845
329->846
770->847
1158->848
1153->849
1177->850
436->851
590->852
1341->853
353->854
1608->855
235->856
1294->857
922->858
984->859
809->860
1177->861
304->862
235->863
436->864
436->865
1528->866
72->867
1157->868
894->869
488->870
810->871
235->872
539->873
1544->874
843->875
235->876
526->877
305->878
294->879
1116->880
91->881
1257->882
1104->883
882->884
436->885
488->886
945->887
436->888
1157->889
604->890
235->891
235->892
1574->893
1608->894
1010->895
1177->896
1257->897
235->898
843->899
305->900
1608->901
903->902
359->903
235->904
306->905
436->906
993->907
204->908
436->909
1091->910
1177->911
604->912
1177->913
843->914
929->915
945->916
872->917
1010->918
1072->919
436->920
604->921
1157->922
1608->924
1317->925
984->926
1608->927
111->928
116->929
1177->930
235->931
604->932
604->933
436->934
1555->935
235->936
1151->937
235->938
1177->939
422->940
1116->941
843->942
204->943
1010->944
1001->945
436->946
235->947
477->948
352->949
235->950
1574->951
983->952
235->953
1177->954
1396->955
1124->956
244->957
646->958
1157->959
1150->960
950->961
436->962
1438->963
1084->964
235->965
723->966
1116->967
604->968
305->969
336->970
1305->971
1476->972
878->973
969->974
697->975
436->976
576->977
1525->978
436->979
359->980
384->981
576->982
1292->983
235->984
114->985
526->986
292->987
477->988
477->989
1177->990
436->991
1425->992
923->993
114->994
381->995
72->996
436->997
439->998
923->999
436->1000
923->1001
436->1002
1305->1003
252->1004
331->1005
304->1006
1608->1007
235->1008
1457->1009
116->1010
1154->1011
969->1012
604->1013
321->1014
436->1015
1177->1016
436->1017
1157->1018
1305->1019
436->1020
462->1021
304->1022
436->1023
235->1024
567->1025
181->1026
488->1027
1010->1028
617->1029
1341->1030
436->1031
91->1032
843->1033
235->1034
235->1035
775->1036
114->1037
1241->1038
505->1039
1177->1040
1574->1041
1305->1042
576->1043
1177->1044
604->1045
235->1046
74->1047
1608->1048
436->1049
1151->1050
671->1051
957->1052
1128->1053
1191->1054
1424->1055
1514->1056
797->1057
331->1058
1177->1059
1608->1060
1177->1061
436->1062
558->1063
308->1064
604->1065
1084->1066
436->1067
576->1068
72->1069
436->1070
477->1071
305->1072
604->1073
99->1074
1177->1075
1525->1076
235->1077
244->1078
604->1079
193->1080
262->1081
72->1082
590->1083
923->1084
797->1085
526->1086
381->1087
235->1088
752->1089
1067->1090
1157->1091
235->1092
1116->1093
181->1094
436->1095
999->1096
235->1097
576->1098
1177->1099
42->1100
1104->1101
1157->1102
436->1103
1157->1104
923->1105
436->1106
152->1107
436->1108
436->1109
1292->1110
1528->1111
1123->1112
604->1113
384->1114
186->1115
604->1116
929->1117
37->1118
99->1119
1425->1120
72->1121
1057->1122
797->1123
235->1124
514->1125
929->1126
590->1127
1001->1128
1041->1129
436->1130
488->1131
353->1132
1010->1133
1177->1134
1574->1135
235->1136
244->1137
1241->1138
1157->1139
235->1140
576->1141
1010->1142
843->1143
201->1144
526->1145
235->1146
797->1147
1010->1148
235->1149
604->1150
235->1151
929->1152
604->1153
604->1154
1292->1155
1574->1156
923->1157
604->1158
163->1159
436->1160
1010->1161
1341->1162
384->1163
1010->1164
235->1165
172->1166
490->1167
604->1168
353->1169
305->1170
1192->1171
1084->1172
1213->1173
1010->1174
1555->1175
261->1176
116->1177
1041->1178
54->1179
1048->1180
1417->1181
797->1182
1192->1183
1425->1184
1280->1185
436->1186
436->1187
1608->1188
797->1189
1010->1190
436->1191
576->1192
235->1193
235->1194
1048->1195
1213->1196
843->1197
183->1198
99->1199
232->1200
604->1201
1341->1202
235->1203
646->1204
305->1205
436->1206
1177->1207
381->1208
436->1209
181->1210
263->1211
604->1212
116->1213
889->1214
51->1215
381->1216
1294->1217
381->1218
958->1219
576->1220
1157->1221
1574->1222
1341->1223
252->1224
1305->1225
235->1226
235->1227
604->1228
235->1229
477->1230
436->1231
381->1232
604->1233
308->1234
235->1235
358->1236
1461->1237
235->1238
697->1239
624->1240
1305->1241
1010->1242
604->1243
764->1244
1555->1245
1292->1246
1084->1247
1177->1248
235->1249
219->1250
1010->1251
235->1252
244->1253
1257->1254
1157->1255
436->1256
308->1257
436->1258
72->1259
508->1260
576->1261
1489->1262
1608->1263
186->1264
1177->1265
1177->1266
109->1267
436->1268
1151->1269
797->1270
843->1271
1489->1272
878->1273
305->1274
1177->1275
235->1276
912->1277
1177->1278
477->1279
436->1280
843->1281
929->1282
33->1283
252->1284
810->1285
929->1286
947->1287
42->1288
1177->1289
857->1290
436->1291
1157->1292
797->1293
490->1294
1151->1295
1177->1296
1539->1297
539->1298
804->1299
235->1300
181->1301
748->1302
1018->1303
436->1304
235->1305
235->1306
1010->1307
436->1308
163->1309
1191->1310
305->1311
1156->1312
1574->1313
235->1314
181->1315
252->1316
436->1317
436->1318
1177->1319
922->1320
590->1321
1139->1322
252->1323
604->1324
1177->1325
775->1326
318->1327
99->1328
1177->1329
929->1330
436->1331
663->1332
305->1333
235->1334
33->1335
181->1336
576->1337
1241->1338
1574->1339
308->1340
1105->1341
436->1342
1177->1343
903->1344
552->1345
490->1346
1425->1347
296->1348
843->1349
1084->1350
384->1351
797->1352
1177->1353
775->1354
204->1355
1010->1356
235->1357
1425->1358
1264->1359
235->1360
929->1361
1177->1362
436->1363
235->1364
576->1365
752->1366
775->1367
235->1368
1384->1369
1245->1370
235->1371
1292->1372
235->1373
1574->1374
617->1375
1104->1376
72->1377
843->1378
477->1379
1274->1380
436->1381
267->1382
604->1383
219->1384
1498->1385
797->1386
723->1387
604->1388
163->1389
1177->1390
308->1391
436->1392
1010->1393
235->1394
752->1395
1574->1396
1555->1397
436->1398
305->1399
1072->1400
467->1401
872->1402
436->1403
252->1404
617->1405
1177->1406
604->1407
235->1408
436->1409
1374->1410
617->1411
490->1412
488->1413
436->1414
355->1415
1567->1416
797->1417
204->1418
576->1419
1539->1420
436->1421
1104->1422
436->1423
1305->1424
1105->1425
1396->1426
843->1427
1177->1428
436->1429
1177->1430
929->1431
872->1432
252->1433
219->1434
617->1435
1010->1436
1116->1437
1257->1438
843->1439
810->1440
697->1441
1574->1442
903->1443
1010->1444
235->1445
1457->1446
843->1447
1048->1448
436->1449
878->1450
235->1451
604->1452
436->1453
353->1454
950->1455
1177->1456
1157->1457
172->1458
72->1459
436->1460
1182->1461
436->1462
1305->1463
1177->1464
235->1465
576->1466
488->1467
186->1468
305->1469
1177->1470
835->1471
305->1472
663->1473
969->1474
436->1475
923->1476
1257->1477
590->1478
477->1479
436->1480
843->1481
576->1482
458->1483
929->1484
235->1485
1191->1486
443->1487
109->1488
1476->1489
1041->1490
843->1491
235->1492
1373->1493
281->1494
171->1495
526->1496
590->1497
1157->1498
90->1499
1425->1500
33->1501
235->1502
235->1503
604->1504
235->1505
1157->1506
219->1507
1472->1508
604->1509
1341->1510
1191->1511
666->1512
1157->1513
490->1514
235->1515
235->1516
604->1517
539->1518
235->1519
1555->1520
723->1521
604->1522
1177->1523
929->1524
1425->1525
1177->1526
1458->1527
576->1528
752->1529
235->1530
843->1531
604->1532
929->1533
576->1534
235->1535
201->1536
72->1537
235->1538
797->1539
1425->1540
490->1541
1177->1542
1555->1543
235->1544
235->1545
477->1546
163->1547
1157->1548
235->1549
353->1550
1177->1551
1010->1552
539->1553
1045->1554
923->1555
770->1556
235->1557
235->1558
167->1559
1010->1560
797->1561
1084->1562
172->1563
1608->1564
604->1565
235->1566
235->1567
929->1568
477->1569
604->1570
903->1571
604->1572
385->1573
923->1574
1525->1575
1292->1576
1157->1577
1177->1578
436->1579
1575->1580
359->1581
488->1582
958->1583
436->1584
381->1585
903->1586
436->1587
436->1588
304->1589
235->1590
436->1591
1177->1592
235->1593
318->1594
576->1595
1177->1596
604->1597
903->1598
604->1599
1412->1600
1539->1601
171->1602
1539->1603
795->1604
263->1605
490->1606
436->1607
923->1608
1489->1609
436->1610
775->1611
576->1612
33->1613
843->1614
181->1615
1010->1616
1084->1617
1157->1618
1292->1619
116->1620
}
