digraph {
graph [rankdir=TB]
node [shape=box]
1[label="BUSYBOX_FEATURE_VI_8BIT"]
2[label="CRAMFS_TEST"]
3[label="IPREDIR_IPREDIR"]
4[label="BUSYBOX_ROUTE"]
5[label="BUSYBOX_EJECT"]
6[label="TCPWRAP_TRYFROM"]
7[label="DEMO_R2100"]
8[label="BUSYBOX_LPR"]
9[label="BUSYBOX_FEATURE_XARGS_SUPPORT_TERMOPT"]
10[label="NETFLASH_HMACMD5_KEY"]
11[label="BUSYBOX_FEATURE_AR_LONG_FILENAMES"]
12[label="WLAN_NG_WLAND"]
13[label="KLAXON_SNMP"]
14[label="FILEUTILS_MKDIR"]
15[label="BUSYBOX_FEATURE_SUID"]
16[label="PWLIB"]
17[label="BUSYBOX_UUENCODE"]
18[label="MICROWIN_MWPF_PALETTE"]
19[label="BUSYBOX_DC"]
20[label="NETFLASH_WITH_FTP"]
21[label="FNORD_PAM"]
22[label="MTDUTILS_FTL_CHECK"]
23[label="BUSYBOX_FEATURE_DEVFS"]
24[label="BUSYBOX_FEATURE_SH_IS_MSH"]
25[label="VERSION_VERSION"]
26[label="WIRELESS_TOOLS_IWLIST"]
27[label="BUSYBOX_FEATURE_VI_SEARCH"]
28[label="BUSYBOX_MATCHPATHCON"]
29[label="VPLAY_VREC"]
30[label="TINYLOGIN_GETTY"]
31[label="MTDUTILS_MKFSJFFS2"]
32[label="NTPD_NTPDC"]
33[label="Miscellaneous Configuration"]
34[label="MICROWIN_SCANKBD"]
35[label="BUSYBOX_BASENAME"]
36[label="NETSNMP_SNMPD_MINI"]
37[label="BUSYBOX_MKFS_MINIX"]
38[label="BUSYBOX_FEATURE_LS_FILETYPES"]
39[label="BUSYBOX_FEATURE_EDITING_SAVEHISTORY"]
40[label="STRACE_STRACE"]
41[label="BUSYBOX_FEATURE_SH_IS_HUSH"]
42[label="BUSYBOX_FEATURE_MDEV_CONF"]
43[label="SHUTILS_WHICH"]
44[label="E2FSPROGS_MISC_LSATTR"]
45[label="LISSA_LISSA"]
46[label="MICROWIN_NANOX"]
47[label="REISERFSPROGS_UNPACK"]
48[label="RECOVER_STATIC_SERVER"]
49[label="BUSYBOX_LOGGER"]
50[label="BUSYBOX_UNLZMA"]
51[label="FREESWAN"]
52[label="BUSYBOX_FEATURE_IFUPDOWN_IFCONFIG_BUILTIN"]
53[label="HTTPTUNNEL_CLIENT"]
54[label="BUSYBOX_AWK"]
55[label="GDB_GDBREPLAY"]
56[label="BUSYBOX_FEATURE_INETD_RPC"]
57[label="MINIUPNPD"]
58[label="LUA_WSAPI_XAVANTE"]
59[label="BUSYBOX_ASH_OPTIMIZE_FOR_SIZE"]
60[label="BUSYBOX_READAHEAD"]
61[label="FILEUTILS_CHMOD"]
62[label="LUA_WSAPI"]
63[label="BUSYBOX_LOADFONT"]
64[label="BUSYBOX_FEATURE_IFUPDOWN_IP_BUILTIN"]
65[label="FILEUTILS_RM"]
66[label="NETFLASH_CRYPTO"]
67[label="MICROWIN_BIN_MTEST"]
68[label="BUSYBOX_ASH_MAIL"]
69[label="LIBPNG"]
70[label="SHUTILS_LOGNAME"]
71[label="NESSUS_PLUGINS"]
72[label="BUSYBOX_FIND"]
73[label="BUSYBOX_FEATURE_READLINK_FOLLOW"]
74[label="RECOVER_RECOVER"]
75[label="FLATFSD_CONFIG_BLOBS"]
76[label="BUSYBOX_FEATURE_EDITING_HISTORY"]
77[label="BUSYBOX_DEVFSD_VERBOSE"]
78[label="BUSYBOX_IOCTL_HEX2STR_ERROR"]
79[label="KLAXON_TELNET"]
80[label="BUSYBOX_FEATURE_HTTPD_ERROR_PAGES"]
81[label="BUSYBOX_FEATURE_TAR_OLDGNU_COMPATIBILITY"]
82[label="ZLIB"]
83[label="BUSYBOX_MICROCOM"]
84[label="BUSYBOX_FEATURE_VI_SET"]
85[label="SYSUTILS_SHUTDOWN"]
86[label="MICROWIN_PSIONMOUSE"]
87[label="PPPD_NO_AT_REDIRECTION"]
88[label="BUSYBOX_FEATURE_INIT_SCTTY"]
89[label="FREESWAN_UTILS_RANBITS"]
90[label="NOOOM_NOOOM"]
91[label="BUSYBOX_TFTPD"]
92[label="NETSNMP_APPS_NETSTAT"]
93[label="BUSYBOX_SETSID"]
94[label="BUSYBOX_FEATURE_XARGS_SUPPORT_ZERO_TERM"]
95[label="LANBYPASS_LANBYPASS"]
96[label="MICROWIN_MWPF_TRUECOLOR565"]
97[label="BUSYBOX_AR"]
98[label="BUSYBOX_HAVE_DOT_CONFIG"]
99[label="WLAN_NG"]
100[label="BUSYBOX_FEATURE_CHAT_TTY_HIFI"]
101[label="SAMBA_SMBD"]
102[label="BUSYBOX_FEATURE_TRACEROUTE_USE_ICMP"]
103[label="OPENSWAN_UTILS_RSASIGKEY"]
104[label="BUSYBOX_FEATURE_MOUNT_CIFS"]
105[label="FAKEIDENTD_IDENTD"]
106[label="BUSYBOX_DELUSER"]
107[label="BFD"]
108[label="BUSYBOX_ED"]
109[label="/bin/sh applet link"]
110[label="POTRACE_POTRACE"]
111[label="BUSYBOX_LOGREAD"]
112[label="INIT_EXPAND_NOZEROES"]
113[label="BUSYBOX_FEATURE_INSMOD_KSYMOOPS_SYMBOLS"]
114[label="Installation Options"]
115[label="BUSYBOX_FETCHMAIL"]
116[label="uClinux-dist"]
117[label="FREESWAN_KLIPS_KLIPSDEBUG"]
118[label="BUSYBOX_FEATURE_WGET_AUTHENTICATION"]
119[label="BUSYBOX_FEATURE_VI_SETOPTS"]
120[label="DEBUG"]
121[label="BUSYBOX_FEATURE_INETD_SUPPORT_BUILTIN_DISCARD"]
122[label="PROCPS_TLOAD"]
123[label="BUSYBOX_FEATURE_FIND_NOT"]
124[label="BUSYBOX_FEATURE_MOUNT_FLAGS"]
125[label="BUSYBOX_FEATURE_RPM_BZ2"]
126[label="BUSYBOX_FEATURE_IFUPDOWN_IP"]
127[label="BUSYBOX_SWITCH_ROOT"]
128[label="MICROWIN_HAVE_HZK_SUPPORT"]
129[label="BUSYBOX_FEATURE_DD_SIGNAL_HANDLING"]
130[label="BUSYBOX_NO_DEBUG_LIB"]
131[label="FNORD_NOAUTH"]
132[label="DNSMASQ_DNSMASQ"]
133[label="SHADOW_SHAREDLIB"]
134[label="NTPCLIENT_NTPCLIENT"]
135[label="PAM_TACACS"]
136[label="BUSYBOX_FEATURE_RESIZE_PRINT"]
137[label="BUSYBOX_FEATURE_FIND_PATH"]
138[label="BUSYBOX_SHOW_USAGE"]
139[label="MICROWIN_HAVE_FILEIO"]
140[label="TIMEOUT"]
141[label="MTDUTILS_ERASE"]
142[label="BUSYBOX_TOUCH"]
143[label="BUSYBOX_RPM"]
144[label="STP_STP"]
145[label="KLAXON_SMTP"]
146[label="MAWK_AWK"]
147[label="NETSNMP_APPS_USM"]
148[label="IPUTILS_PING6"]
149[label="NESSUS_CORE"]
150[label="BUSYBOX_SULOGIN"]
151[label="BUSYBOX_FEATURE_SYSLOG"]
152[label="Debugging Options"]
153[label="CLAMAV_TESTS"]
154[label="BUSYBOX_LSATTR"]
155[label="PPPD_WITH_RADIUS"]
156[label="BUSYBOX_FEATURE_SHARED_BUSYBOX"]
157[label="LILO_LILO"]
158[label="NETSNMP_APPS_BULKWALK"]
159[label="BUSYBOX_DMALLOC"]
160[label="BUSYBOX_FEATURE_HAVE_RPC"]
161[label="BUSYBOX_FEATURE_VOLUMEID_UDF"]
162[label="DISCARD_NO_INSTALL"]
163[label="LUA_LUAROCKS"]
164[label="NETSNMP_APPS_TRAP"]
165[label="BUSYBOX_CP"]
166[label="BUSYBOX_VERBOSE_RESOLUTION_ERRORS"]
167[label="UC_LIBC_TIMEZONE"]
168[label="EZIPUPDATE_EZIPUPDATE"]
169[label="BZIP2_BZIP2"]
170[label="BUSYBOX_MORE"]
171[label="Automake Applications"]
172[label="LIBNL_COMPONENTS"]
173[label="BUSYBOX_HEAD"]
174[label="BUSYBOX_FEATURE_MODPROBE_FANCY_ALIAS"]
175[label="GAMES_DUNGEON"]
176[label="LIBNL_ROUTE_ROUTE"]
177[label="BUSYBOX_LOCALE_SUPPORT"]
178[label="BUSYBOX_READPROFILE"]
179[label="KLAXON_RFC931"]
180[label="BUSYBOX_FEATURE_UDHCP_DEBUG"]
181[label="BUSYBOX_ASH"]
182[label="BUSYBOX_FEATURE_FANCY_SLEEP"]
183[label="BUSYBOX_IPCALC"]
184[label="BUSYBOX_FEATURE_MV_LONG_OPTIONS"]
185[label="BUSYBOX_STAT"]
186[label="Build Options"]
187[label="AT_ATRUN"]
188[label="BUSYBOX_SWAPONOFF"]
189[label="PROCPS_VMSTAT"]
190[label="NETFLASH_VERSION_ALLOW_CURRENT"]
191[label="LIRC_LIRCD"]
192[label="MICROWIN_HAVE_GB2312_SUPPORT"]
193[label="Debug Builds"]
194[label="PERL_PERL"]
195[label="LRZSZ_LRZ"]
196[label="BUSYBOX_COMM"]
197[label="PPPD_WITH_WINBIND"]
198[label="SHADOW_GRPCK"]
199[label="BUSYBOX_FEATURE_SH_EXTRA_QUIET"]
200[label="AT_ATD"]
201[label="APPWEB_APPWEB"]
202[label="BUSYBOX_BUSYBOX"]
203[label="BUSYBOX_FEATURE_GREP_FGREP_ALIAS"]
204[label="BUSYBOX_HUSH"]
205[label="BUSYBOX_FEATURE_CLEAN_UP"]
206[label="REISERFSPROGS_RESIZE_REISERFS"]
207[label="IPUTILS_TFTPD"]
208[label="MTDUTILS_DOC_LOADIPL"]
209[label="BUSYBOX_WHICH"]
210[label="BUSYBOX_ZCIP"]
211[label="BUSYBOX_DEBUG_CROND_OPTION"]
212[label="RECOVER_BIOS"]
213[label="BUSYBOX_SHA1SUM"]
214[label="NETSNMP_MIBS"]
215[label="DEBUG"]
216[label="NET_TOOLS_MII_TOOL"]
217[label="SSLWRAP_SSLWRAP"]
218[label="BUSYBOX_MD5SUM"]
219[label="Linux Module Utilities"]
220[label="BUSYBOX_FEATURE_IPCALC_FANCY"]
221[label="LANG_A60_EGS"]
222[label="HOSTAP_PCI"]
223[label="BASH_BASH"]
224[label="WATCHDOGD"]
225[label="ROUTED_ROUTED"]
226[label="MICROWIN_NANOWM"]
227[label="WGET"]
228[label="GDB_GDBSERVER"]
229[label="BUSYBOX_FEATURE_FANCY_HEAD"]
230[label="BUSYBOX_INSTALL"]
231[label="L2TPD_L2TPD"]
232[label="BUSYBOX_FEATURE_SUID_CONFIG"]
233[label="FREESWAN_UTILS_RSASIGKEY"]
234[label="NETPERF_NETPERF"]
235[label="Network Applications"]
236[label="MICROWIN_DEBUG"]
237[label="LIBCRYPT_OLD"]
238[label="IPUTILS_TRACEROUTE6"]
239[label="BUSYBOX_SELINUX"]
240[label="BUSYBOX_FEATURE_FIND_TYPE"]
241[label="NWSH_SH"]
242[label="IPSENTINEL_IPSENTINEL"]
243[label="BUSYBOX_FEATURE_INSTALL_LONG_OPTIONS"]
244[label="Debian Utilities"]
245[label="BUSYBOX_DESKTOP"]
246[label="PORTMAP_PMAP_DUMP"]
247[label="CONNTRACK_CONNTRACK"]
248[label="BUSYBOX_FEATURE_UDHCP_PORT"]
249[label="SHADOW_SU"]
250[label="IPSET_IPSET"]
251[label="BUSYBOX_INCLUDE_SUSv2"]
252[label="OPENSWAN"]
253[label="BUSYBOX_ARP"]
254[label="PPPD_WITH_PPPOE"]
255[label="CRON_CRON"]
256[label="TINYPROXY_TINYPROXY"]
257[label="WHETSTONE_WHETSTONE"]
258[label="ENTROPY"]
259[label="REISERFSPROGS"]
260[label="BUSYBOX_FEATURE_SU_SYSLOG"]
261[label="BUSYBOX_TR"]
262[label="BUSYBOX_PING"]
263[label="Buffer allocation policy"]
264[label="BUSYBOX_ASH_ALIAS"]
265[label="GAMES_RUBIK"]
266[label="FREESWAN_PLUTO_PLUTO"]
267[label="CLAMAV_FRESHCLAM"]
268[label="MTDUTILS_NANDDUMP"]
269[label="PROCPS_PMAP"]
270[label="BUSYBOX_FEATURE_BUFFERS_USE_MALLOC"]
271[label="BUSYBOX_SELINUXENABLED"]
272[label="BOOTTOOLS_RESET"]
273[label="MP3PLAY_SWAP_WD"]
274[label="MICROWIN_FBVGA"]
275[label="BUSYBOX_FEATURE_IFUPDOWN_MAPPING"]
276[label="ASTERISK_MYSQL"]
277[label="SSH_SSHD"]
278[label="ZEBRA_RIPD_RIPD"]
279[label="BUSYBOX_FEATURE_IFUPDOWN_IPV6"]
280[label="BUSYBOX_FEATURE_VOLUMEID_LINUXSWAP"]
281[label="DHCPCD_DHCPCD"]
282[label="BUSYBOX_SETENFORCE"]
283[label="BUSYBOX_CRONTAB"]
284[label="CAL_CAL"]
285[label="SHUTILS_DIRNAME"]
286[label="BUSYBOX_FEATURE_USE_TERMIOS"]
287[label="BOOTTOOLS_MD5SUM"]
288[label="BUSYBOX_SVLOGD"]
289[label="IPUTILS_TRACEPATH6"]
290[label="SQUASHFS_MKSQUASHFS"]
291[label="BUSYBOX_FEATURE_TOP_DECIMALS"]
292[label="BUSYBOX_RMDIR"]
293[label="LIBNL_ROUTE_ADDR"]
294[label="BUSYBOX_INETD"]
295[label="BUSYBOX_DHCPC_DEFAULT_SCRIPT"]
296[label="TFTPD_TFTPD"]
297[label="NET_TOOLS_NAMEIF"]
298[label="RAMIMAGE_RAMFS512"]
299[label="BUSYBOX_FEATURE_LSMOD_PRETTY_2_6_OUTPUT"]
300[label="BUSYBOX_FEATURE_SECURETTY"]
301[label="DHCPD_DHCPD"]
302[label="LIBOPENH323"]
303[label="BUSYBOX_HUSH_JOB"]
304[label="IPROUTE2"]
305[label="Linux System Utilities"]
306[label="CHAT_CHAT"]
307[label="W3CAM_VIDCAT"]
308[label="Flash Tools"]
309[label="MSNTP_MSNTP"]
310[label="TCPWRAP_FINGER"]
311[label="GDBSERVER_GDBREPLAY"]
312[label="FREESWAN_KLIPS_SPI"]
313[label="BUSYBOX_MV"]
314[label="BUSYBOX_FEATURE_IFUPDOWN_EXTERNAL_DHCP"]
315[label="WLAN_NG_USB"]
316[label="BUSYBOX_TAC"]
317[label="FILEUTILS_CHGRP"]
318[label="BUSYBOX_SYSLOGD"]
319[label="SHADOW_NEWUSERS"]
320[label="BUSYBOX_OD"]
321[label="BUSYBOX_TELNET"]
322[label="BUSYBOX_APP_DHCPRELAY"]
323[label="IPSEC_KEEPALIVE"]
324[label="LIBATM"]
325[label="NET_TOOLS_SLATTACH"]
326[label="KLAXON_DISCARD"]
327[label="BUSYBOX_FEATURE_LS_RECURSIVE"]
328[label="PALMBOT_PALMBOT"]
329[label="LANG_A60"]
330[label="QUAGGA_RIPD_RIPD"]
331[label="BUSYBOX_DIFF"]
332[label="MICROWIN"]
333[label="BUSYBOX_FDISK"]
334[label="NETSNMP_NOV1"]
335[label="INIT_RUN_FIREWALL"]
336[label="BUSYBOX_FEATURE_INSMOD_LOAD_MAP"]
337[label="BUSYBOX_FEATURE_USE_INITTAB"]
338[label="TCPWRAP_TCPDMATCH"]
339[label="SAMBA_UMOUNT_CIFS"]
340[label="PING_PING"]
341[label="BUSYBOX_MT"]
342[label="LIBNETOLD"]
343[label="VPLAY_VPLAY"]
344[label="NETSNMP_ADDITIONALMIBS"]
345[label="BUSYBOX_DEBUG_TFTP"]
346[label="HPING_HPING"]
347[label="BUSYBOX_FEATURE_VOLUMEID_EXT"]
348[label="BUSYBOX_PGREP"]
349[label="NETFILTER_CONNTRACK"]
350[label="IPUTILS_RARPD"]
351[label="TINYLOGIN_ADDUSER"]
352[label="Games"]
353[label="Tinylogin"]
354[label="MTDUTILS_NANDWRITE"]
355[label="BOA_SRC_BOA"]
356[label="LOAD_LOAD"]
357[label="BOOTTOOLS_LOADER"]
358[label="BUSYBOX_MSH"]
359[label="Editors"]
360[label="MICROWIN_HAVE_PNG_SUPPORT"]
361[label="IPROUTE2_IP_ROUTEL"]
362[label="CLAMAV_CLAMSMTP"]
363[label="OPENSWAN_KLIPS_EROUTE"]
364[label="PROFTPD_PROFTPD"]
365[label="HASERL_HASERL"]
366[label="HDPARM_HDPARM"]
367[label="BUSYBOX_BUSYBOX_EXEC_PATH"]
368[label="BUSYBOX_INSTALL_APPLET_SCRIPT_WRAPPERS"]
369[label="BUSYBOX_IPRULE"]
370[label="OPROFILE"]
371[label="LIBIBERTY"]
372[label="BUSYBOX_UNZIP"]
373[label="QUAGGA_OSPF6D_OSPF6D"]
374[label="BUSYBOX_FEATURE_STAT_FORMAT"]
375[label="BOA_WITH_SSL"]
376[label="CAN_EXAMPLES"]
377[label="LIBLZO"]
378[label="BUSYBOX_LOAD_POLICY"]
379[label="NETFLASH_CRYPTO_OPTIONAL"]
380[label="BUSYBOX_FEATURE_INSTALLER"]
381[label="Runit Utilities"]
382[label="BUSYBOX_CAT"]
383[label="NETCAT_NETCAT"]
384[label="BUSYBOX_HDPARM"]
385[label="BUSYBOX_BRCTL"]
386[label="BUSYBOX_BBCONFIG"]
387[label="BUSYBOX_FEATURE_PS_UNUSUAL_SYSTEMS"]
388[label="BUSYBOX_OPENVT"]
389[label="SETHDLC_SETHDLC"]
390[label="TRIPWIRE_TRIPWIRE"]
391[label="BUSYBOX_PATCH"]
392[label="BUSYBOX_FEATURE_EJECT_SCSI"]
393[label="LIBPCAP"]
394[label="BUSYBOX_FEATURE_TEST_64"]
395[label="BUSYBOX_LPQ"]
396[label="MICROWIN_MWPF_TRUECOLOR888"]
397[label="MTDUTILS_MKFSJFFS"]
398[label="BUSYBOX_FEATURE_INIT_SYSLOG"]
399[label="SYSUTILS_FREE"]
400[label="CYRUSSASL"]
401[label="BUSYBOX_CTTYHACK"]
402[label="BUSYBOX_UNCOMPRESS"]
403[label="BUSYBOX_FEATURE_INITRD"]
404[label="NETSNMP_APPS_BULKGET"]
405[label="BUSYBOX_FEATURE_TAR_UNAME_GNAME"]
406[label="FLATFSD_USE_FLASH_FS"]
407[label="BUSYBOX_FEATURE_PIDOF_OMIT"]
408[label="BUSYBOX_FEATURE_INETD_SUPPORT_BUILTIN_DAYTIME"]
409[label="MICROWIN_TPMOUSE"]
410[label="BUSYBOX_FEATURE_FIND_DELETE"]
411[label="SYSUTILS_DF"]
412[label="LINUXIGD_DEFAULT"]
413[label="BUSYBOX_FEATURE_ROTATE_LOGFILE"]
414[label="NETSNMP_MIBLOADING"]
415[label="BUSYBOX_FSCK_MINIX"]
416[label="IPROUTE2_IP_IFCFG"]
417[label="BUSYBOX_FEATURE_TAR_FROM"]
418[label="HOSTAP_HOSTAPD"]
419[label="CONNECTION_LIMIT"]
420[label="MP3PLAY_MP3PLAY"]
421[label="NETSNMP_APPS_GETNEXT"]
422[label="BUSYBOX_DPKG_DEB"]
423[label="TINYLOGIN_SU"]
424[label="IPFWADM_IPFWADM"]
425[label="BUSYBOX_FEATURE_EDITING_MAX_LEN"]
426[label="BUSYBOX_FEATURE_TRACEROUTE_SOURCE_ROUTE"]
427[label="BUSYBOX_FEATURE_CHCON_LONG_OPTIONS"]
428[label="SH_SH"]
429[label="BUSYBOX_TFTP"]
430[label="CAN_HORCH"]
431[label="NETFILTER_LOG"]
432[label="MICROWIN_HAVE_XPM_SUPPORT"]
433[label="KLAXON_TFTP"]
434[label="FLATFSD_EXTERNAL_INIT"]
435[label="ARES"]
436[label="Miscellaneous Applications"]
437[label="LIBJPEG"]
438[label="NETSNMP_DEFPERSISDIR"]
439[label="BUSYBOX_TEE"]
440[label="MATH_TEST"]
441[label="MSH_SH"]
442[label="CGI_GENERIC"]
443[label="BUSYBOX_MODPROBE"]
444[label="BUSYBOX_FEATURE_CHAT_CLR_ABORT"]
445[label="TERMCAP"]
446[label="BUSYBOX_ASH_MATH_SUPPORT_64"]
447[label="FLASHW_FLASHW"]
448[label="BUSYBOX_FEATURE_2_6_MODULES"]
449[label="BUSYBOX_RMMOD"]
450[label="FILEUTILS_CP"]
451[label="NETSNMP_DEFSYSLOCATION"]
452[label="TELNET_TELNET"]
453[label="TINYTCL_TCLSH"]
454[label="BUSYBOX_PKILL"]
455[label="STLPORT_SHARED"]
456[label="NETSNMP_ADDMIBS"]
457[label="BUSYBOX_FEATURE_LESS_MARKS"]
458[label="PORTMAP_PORTMAP"]
459[label="REISERFSPROGS_MKREISERFS"]
460[label="flatfsd storage type"]
461[label="LIBGMP"]
462[label="BUSYBOX_FEATURE_KILL_REMOVED"]
463[label="MICROWIN_BIN_NANO_X"]
464[label="BUSYBOX_NMETER"]
465[label="BUSYBOX_FEATURE_LESS_FLAGS"]
466[label="LIBBSC"]
467[label="Screeen PixType"]
468[label="BUSYBOX_DF"]
469[label="MICROWIN_BIN_LAUNCHER"]
470[label="SAMBA_SHARED"]
471[label="BUSYBOX_FEATURE_INSMOD_VERSION_CHECKING"]
472[label="BUSYBOX_DEVFSD_MODLOAD"]
473[label="SHADOW_CHPASSWD"]
474[label="BUSYBOX_FSCK"]
475[label="RAMIMAGE_RAMFS8192"]
476[label="BUSYBOX_NITPICK"]
477[label="BUSYBOX_VOLUMEID"]
478[label="PAM_SMB"]
479[label="BUSYBOX_INSTALL_APPLET_SYMLINKS"]
480[label="BUSYBOX_BUNZIP2"]
481[label="IPPORTFW_IPPORTFW"]
482[label="BUSYBOX_ENV"]
483[label="BUSYBOX_ASH_EXPAND_PRMT"]
484[label="KLAXON_FTP"]
485[label="DEBUG_DEBUG"]
486[label="USBISO_USBISO"]
487[label="BUSYBOX_CHVT"]
488[label="MTDUTILS"]
489[label="SHADOW_PAM"]
490[label="Process Utilities"]
491[label="AT_AT"]
492[label="PROCPS_PKILL"]
493[label="FREESWAN_PLUTO_WHACK"]
494[label="CPU_CPU"]
495[label="BUSYBOX_FEATURE_MKSWAP_V0"]
496[label="BUSYBOX_USLEEP"]
497[label="BOOTTOOLS_HIMEMLOADER"]
498[label="NET_TOOLS_MII_TOOL_FEC"]
499[label="SHADOW_SULOGIN"]
500[label="BOA_LOGGING"]
501[label="BUSYBOX_FEATURE_VI_WIN_RESIZE"]
502[label="BUSYBOX_FEATURE_MOUNT_FSTAB"]
503[label="MICROWIN_MWPF_TRUECOLOR0888"]
504[label="BUSYBOX_FEATURE_MOUNT_NFS"]
505[label="DISCARD_INETD_ECHO"]
506[label="BUSYBOX_FEATURE_TRACEROUTE_VERBOSE"]
507[label="LEDCMD_LEDCMD"]
508[label="DNSMASQ2_DNSMASQ2"]
509[label="BUSYBOX_FEATURE_FIND_INUM"]
510[label="BUSYBOX_FEATURE_FIND_DEPTH"]
511[label="PAM_KRB5"]
512[label="PROCPS_SYSCTL"]
513[label="LRZSZ_LSZ"]
514[label="TCPWRAP_TCPD"]
515[label="BUSYBOX_MKNOD"]
516[label="NET_TOOLS_ROUTE"]
517[label="BUSYBOX_FDFORMAT"]
518[label="NETSNMP_APPS_TRAPD"]
519[label="BUSYBOX_FEATURE_TELNET_TTYPE"]
520[label="BUSYBOX_FEATURE_FANCY_PING"]
521[label="CTORRENT_CTORRENT"]
522[label="FLATFSD_AUTO"]
523[label="BUSYBOX_FEATURE_HDPARM_HDIO_SCAN_HWIF"]
524[label="BUSYBOX_FEATURE_UDHCPD_WRITE_LEASES_EARLY"]
525[label="NTPD_NTPD"]
526[label="RAMFS Image"]
527[label="BUSYBOX_UNAME"]
528[label="SHADOW_CHAGE"]
529[label="ELVISTINY_VI"]
530[label="SHADOW_CHSH"]
531[label="BUSYBOX_HD"]
532[label="BUSYBOX_MOUNTPOINT"]
533[label="BUSYBOX_CAL"]
534[label="LOGIN_PASSWD"]
535[label="BUSYBOX_ADDUSER"]
536[label="BUSYBOX_FEATURE_VOLUMEID_OCFS2"]
537[label="NETSNMP_APPS_VACM"]
538[label="RECOVER_USE_STATIC_SERVER"]
539[label="WIRELESS_TOOLS"]
540[label="BUSYBOX_FEATURE_UDHCPC_ARPING"]
541[label="SQUID_SQUID"]
542[label="SPEEDTOUCH_MODEM_RUN"]
543[label="BUSYBOX_TTYSIZE"]
544[label="BUSYBOX_ASH_BUILTIN_ECHO"]
545[label="LHA_LHA"]
546[label="BUSYBOX_FEATURE_SPLIT_FANCY"]
547[label="PYTHON"]
548[label="SSH_SSH"]
549[label="NETFLASH_HMACMD5"]
550[label="BUSYBOX_FEATURE_INETD_SUPPORT_BUILTIN_CHARGEN"]
551[label="SAMBA_SMBMOUNT"]
552[label="SASH_REBOOT"]
553[label="TINYLOGIN_PASSWD"]
554[label="BUSYBOX_NICE"]
555[label="BUSYBOX_IPROUTE"]
556[label="TRACEROUTE_TRACEROUTE"]
557[label="PROCPS_PWDX"]
558[label="BUSYBOX_MKDIR"]
559[label="EXPECT_EXPECT"]
560[label="BUSYBOX_RESIZE"]
561[label="MICROWIN_HAVE_SHAREDMEM_SUPPORT"]
562[label="NETFLASH_WITH_FILE"]
563[label="LIRC_IRRECORD"]
564[label="BUSYBOX_FREERAMDISK"]
565[label="TCPDUMP_TCPDUMP"]
566[label="BUSYBOX_FEATURE_TAR_AUTODETECT"]
567[label="BUSYBOX_MDEV"]
568[label="SHADOW_LOGIN"]
569[label="BUSYBOX_FEATURE_SGI_LABEL"]
570[label="MICROWIN_MICROWINDEMO"]
571[label="RP_PPPOE_PPPOE"]
572[label="POP3PROXY_POP3PROXY"]
573[label="DISCARD_DISCARD"]
574[label="FERRET_FERRET"]
575[label="BUSYBOX_PIPE_PROGRESS"]
576[label="Filesystem Applications"]
577[label="ARJ_ARJ"]
578[label="RADAUTH_RADAUTH"]
579[label="BUSYBOX_FEATURE_START_STOP_DAEMON_FANCY"]
580[label="UNZIP_FUNZIP"]
581[label="KISMET"]
582[label="MICROWIN_HAVE_BIG5_SUPPORT"]
583[label="BUSYBOX_WHOAMI"]
584[label="APPWEB_MULTITHREAD"]
585[label="LIBUPNP"]
586[label="BUSYBOX_FEATURE_LESS_FLAGCS"]
587[label="PPTPD_PPTPCTRL"]
588[label="BUSYBOX_FEATURE_TR_CLASSES"]
589[label="MTDUTILS_NFTL_FORMAT"]
590[label="NETSNMP_APPS"]
591[label="WLAN_NG_PLX"]
592[label="BUSYBOX_STRINGS"]
593[label="TINYLOGIN_DELGROUP"]
594[label="LIBNL_NETFILTER_CT"]
595[label="TINYLOGIN_SECURETTY"]
596[label="FREESWAN_KLIPS_SPIGRP"]
597[label="SASH_SHUTDOWN"]
598[label="BUSYBOX_INSTALL_APPLET_DONT"]
599[label="APPWEB_CGI"]
600[label="BusyBox"]
601[label="NMAP_NMAP"]
602[label="BUSYBOX_FEATURE_TFTP_GET"]
603[label="BUSYBOX_FEATURE_MOUNT_LABEL"]
604[label="Coreutils"]
605[label="LIBNL_NETFILTER_QUEUE"]
606[label="BUSYBOX_FEATURE_IPC_SYSLOG_BUFFER_SIZE"]
607[label="GAMES_TAMA"]
608[label="BUSYBOX_PIVOT_ROOT"]
609[label="ETHATTACH_ETHATTACH"]
610[label="BUSYBOX_FEATURE_ADDUSER_LONG_OPTIONS"]
611[label="RADVD_RADVD"]
612[label="TINYLOGIN_LOGIN"]
613[label="NULL_NULL"]
614[label="CLAMAV_CLAMSCAN"]
615[label="MICROWIN_PORTRAIT_MODE"]
616[label="LCD_LCD"]
617[label="BUSYBOX_IP"]
618[label="BUSYBOX_HUSH_HELP"]
619[label="NETSNMP_DEFSYSCONTACT"]
620[label="OPENSWAN_KLIPS_SPI"]
621[label="E2FSPROGS_MISC_MKLOST_FOUND"]
622[label="JPEGVIEW_JPEGVIEW"]
623[label="USBHUBCTRL_USBHUBCTRL"]
624[label="BUSYBOX_KILL"]
625[label="BUSYBOX_IPADDR"]
626[label="SHUTILS_BASENAME"]
627[label="IPUTILS_PING"]
628[label="BUSYBOX_LPD"]
629[label="QSPITEST_RX"]
630[label="GDBSERVER_GDBSERVER"]
631[label="BUSYBOX_FINDFS"]
632[label="BUSYBOX_FEATURE_HTTPD_USE_SENDFILE"]
633[label="BUSYBOX_FEATURE_QUERY_MODULE_INTERFACE"]
634[label="BUSYBOX_FEATURE_IP_TUNNEL"]
635[label="SSH_SSH_KEYSIGN"]
636[label="NETSNMP_APPS_STATUS"]
637[label="BUSYBOX_FEATURE_ENV_LONG_OPTIONS"]
638[label="SETMAC_SETMAC"]
639[label="BUSYBOX_FEATURE_FIND_MAXDEPTH"]
640[label="BUSYBOX_FEATURE_HDPARM_HDIO_DRIVE_RESET"]
641[label="MICROWIN_HAVE_FREETYPE_SUPPORT"]
642[label="PAM_RADIUS"]
643[label="OPENVPN_OPENVPN"]
644[label="BUSYBOX_FEATURE_IPC_SYSLOG"]
645[label="SAMBA_MOUNT_CIFS"]
646[label="Shells"]
647[label="MICROWIN_BIN_MTERM"]
648[label="BITVECTOR"]
649[label="BUSYBOX_FEATURE_FIND_REGEX"]
650[label="FREESWAN_KLIPS_TNCFG"]
651[label="BUSYBOX_FEATURE_VOLUMEID_CRAMFS"]
652[label="PPTP_CLIENT_PPTP"]
653[label="SSH_SFTP"]
654[label="TCPWRAP_MISCD"]
655[label="NTPD_NTPDATE"]
656[label="SHUTILS_PWD"]
657[label="BUSYBOX_FEATURE_VOLUMEID_NTFS"]
658[label="BUSYBOX_FEATURE_GREP_CONTEXT"]
659[label="LIBNL_ROUTE_TC"]
660[label="BUSYBOX_CHGRP"]
661[label="IPROUTE2_TC_TC"]
662[label="BUSYBOX_IFENSLAVE"]
663[label="Shell Program"]
664[label="RECOVER_STATIC_TFTP"]
665[label="BUSYBOX_FTPGET"]
666[label="BUSYBOX_EXPAND"]
667[label="BUSYBOX_UPTIME"]
668[label="BUSYBOX_FEATURE_DEB_TAR_BZ2"]
669[label="BUSYBOX_TTY"]
670[label="BUSYBOX_FEATURE_PRESERVE_HARDLINKS"]
671[label="BUSYBOX_NETSTAT"]
672[label="BOOST"]
673[label="TCPBLAST_TCPBLAST"]
674[label="PCIUTILS_SETPCI"]
675[label="PROCPS_SLABTOP"]
676[label="BUSYBOX_WATCHDOGD"]
677[label="UDEV"]
678[label="PROCPS_PS"]
679[label="TRIPWIRE_SIGGEN"]
680[label="FILEUTILS_GREP"]
681[label="MICROWIN_BIN_NTEST"]
682[label="BUSYBOX_FEATURE_LZMA_FAST"]
683[label="RAMIMAGE_RAMFS1024"]
684[label="SHADOW_PASSWD"]
685[label="MICROWIN_BIN_WORLD"]
686[label="BUSYBOX_FEATURE_IP_ROUTE"]
687[label="W3CAM_W3CAMD"]
688[label="BUSYBOX_RDATE"]
689[label="FSWCERT_FSWCERT"]
690[label="BUSYBOX_FEATURE_RFC3397"]
691[label="BUSYBOX_USE_BB_SHADOW"]
692[label="DHCPCD_NEW_DHCPCD"]
693[label="FTP_FTP_FTP"]
694[label="BUSYBOX_HALT"]
695[label="BUSYBOX_FEATURE_START_STOP_DAEMON_LONG_OPTIONS"]
696[label="BUSYBOX_FEATURE_LS_COLOR_IS_DEFAULT"]
697[label="BUSYBOX_LESS"]
698[label="BUSYBOX_FEATURE_HEXDUMP_REVERSE"]
699[label="BUSYBOX_FEATURE_DF_INODE"]
700[label="BUSYBOX_FUSER"]
701[label="BUSYBOX_FEATURE_FANCY_ECHO"]
702[label="BUSYBOX_FEATURE_FIND_PAREN"]
703[label="KLAXON_ECHO"]
704[label="MICROWIN_FBREVERSE"]
705[label="INIT_CONSOLE_SH"]
706[label="BUSYBOX_FEATURE_FIND_USER"]
707[label="NETSNMP_APPS_TABLE"]
708[label="SHADOW_LOGOUTD"]
709[label="BUSYBOX_FEATURE_ALLOW_EXEC"]
710[label="SHUTILS_ECHO"]
711[label="BUSYBOX_SESTATUS"]
712[label="PPTPD_PPTPD"]
713[label="SHUTILS_DATE"]
714[label="LIBIDN"]
715[label="BUSYBOX_FEATURE_PS_WIDE"]
716[label="SMTP_SMTPCLIENT"]
717[label="CLAMAV_CLAMD"]
718[label="BUSYBOX_FEATURE_MAKEDEVS_TABLE"]
719[label="LIBJUDY_TESTS"]
720[label="OGGPLAY_EXAMPLE"]
721[label="BUSYBOX_FEATURE_DIFF_BINARY"]
722[label="BUSYBOX_FEATURE_UNEXPAND_LONG_OPTIONS"]
723[label="LIBNL_RTNL"]
724[label="BUSYBOX_FDISK_SUPPORT_LARGE_DISKS"]
725[label="BUSYBOX_ASH_RANDOM_SUPPORT"]
726[label="SSCEP"]
727[label="SHUTILS_WHOAMI"]
728[label="BUSYBOX_FEATURE_SORT_BIG"]
729[label="BUSYBOX_UNIQ"]
730[label="MICROWIN_UCTSMOUSE"]
731[label="IPUTILS_ARPING"]
732[label="KENDIN_CONFIG"]
733[label="BUSYBOX_FEATURE_CHAT_SEND_ESCAPES"]
734[label="BUSYBOX_INSTALL_SH_APPLET_HARDLINK"]
735[label="LIBSSL"]
736[label="LSOF_LSOF"]
737[label="OLD_PASSWORDS"]
738[label="NET_TOOLS_HOSTNAME"]
739[label="BUSYBOX_FEATURE_INETD_SUPPORT_BUILTIN_TIME"]
740[label="BUSYBOX_CHPST"]
741[label="TINYLOGIN_SHADOWPASSWDS"]
742[label="BUSYBOX_CHOWN"]
743[label="GDB_TARGET"]
744[label="BUSYBOX_REALPATH"]
745[label="SHUTILS_UNAME"]
746[label="TINYLOGIN_TINYLOGIN"]
747[label="BUSYBOX_ECHO"]
748[label="Additional debugging library"]
749[label="CAL_DATE"]
750[label="DHCP_ISC_CLIENT_DHCLIENT"]
751[label="MICROWIN_NOKBD"]
752[label="BUSYBOX_FEATURE_FDISK_WRITABLE"]
753[label="SHADOW_PWUNCONV"]
754[label="E2FSPROGS_MISC_TUNE2FS"]
755[label="BUSYBOX_HOSTNAME"]
756[label="LM_SENSORS_SENSORS"]
757[label="IPROUTE2_IP_GENL"]
758[label="BUSYBOX_RPM2CPIO"]
759[label="RP_PPPOE_PPPOE_SERVER"]
760[label="FLATFSD_ENCRYPTED"]
761[label="OPENSWAN_KLIPS_KLIPSDEBUG"]
762[label="BUSYBOX_UNIX2DOS"]
763[label="Print Utilities"]
764[label="BUSYBOX_SETFILES"]
765[label="BUSYBOX_FEATURE_IFCONFIG_HW"]
766[label="NTPCLIENT_ADJTIMEX"]
767[label="SNORT_BARNYARD"]
768[label="BUSYBOX_SLEEP"]
769[label="SLATTACH_SLATTACH"]
770[label="BUSYBOX_APP_UDHCPD"]
771[label="BUSYBOX_FEATURE_FIND_XDEV"]
772[label="FILEUTILS_MKNOD"]
773[label="MICROWIN_HAVE_PNM_SUPPORT"]
774[label="TINYLOGIN_SHA1_PASSWORDS"]
775[label="PPPD_PPPD_PPPD"]
776[label="FLATFSD_DISKLIKE"]
777[label="MICROWIN_TTYKBD"]
778[label="SGUTOOL_SGUTOOL"]
779[label="FILEUTILS_MKFIFO"]
780[label="ROOTLOADER_ROOTLOADER"]
781[label="E2FSPROGS_MISC_BADBLOCKS"]
782[label="SHUTILS_TRUE"]
783[label="SHADOW_GRPCONV"]
784[label="BUSYBOX_ARPING"]
785[label="BUSYBOX_ETHER_WAKE"]
786[label="NETSNMP_APPS_TEST"]
787[label="TIMEPEG_TPT"]
788[label="E2FSPROGS_MISC_UUIDGEN"]
789[label="BUSYBOX_DNSD"]
790[label="BUSYBOX_FEATURE_FIND_CONTEXT"]
791[label="BUSYBOX_FEATURE_HTTPD_SET_REMOTE_PORT_TO_ENV"]
792[label="BUSYBOX_CPIO"]
793[label="BUSYBOX_FAKEIDENTD"]
794[label="BUSYBOX_LENGTH"]
795[label="BUSYBOX_SETCONSOLE"]
796[label="BUSYBOX_KILLALL5"]
797[label="Miscellaneous Utilities"]
798[label="BUSYBOX_ID"]
799[label="NET_TOOLS_PLIPCONFIG"]
800[label="BUSYBOX_FEATURE_FBSET_FANCY"]
801[label="MICROWIN_BIN_NPANEL"]
802[label="BUSYBOX_FEATURE_HTTPD_SETUID"]
803[label="BUSYBOX_FEATURE_VI_DOT_CMD"]
804[label="BUSYBOX_SU"]
805[label="PLAYRT_PLAYRT"]
806[label="PPPD_WITH_MPPE"]
807[label="INIT_EXPAND"]
808[label="BUSYBOX_FEATURE_IFUPDOWN_IPV4"]
809[label="LIBPAM"]
810[label="KLAXON_KLAXON"]
811[label="RDATE_RDATE"]
812[label="DOSFSTOOLS_MKDOSFS"]
813[label="USBCBI_USBCBI"]
814[label="BUSYBOX_FALSE"]
815[label="MICROWIN_FRAMEBUFFER"]
816[label="BUSYBOX_FEATURE_TAR_LZMA"]
817[label="SHADOW_GROUPS"]
818[label="BUSYBOX_FEATURE_TAR_GZIP"]
819[label="ONLY_ROOT"]
820[label="BUSYBOX_GETOPT"]
821[label="BUSYBOX_WERROR"]
822[label="FDISK_FDISK"]
823[label="BUSYBOX_FEATURE_HTTPD_AUTH_MD5"]
824[label="EXPAT_EXAMPLES"]
825[label="BUSYBOX_DEALLOCVT"]
826[label="BR2684CTL_BR2684CTL"]
827[label="MICROWIN_BIN_MTEST2"]
828[label="FROX_FROX"]
829[label="MICROWIN_MWPF_TRUECOLOR332"]
830[label="MICROWIN_NWIDGET"]
831[label="BUSYBOX_LFS"]
832[label="BUSYBOX_DIRNAME"]
833[label="BUSYBOX_FEATURE_ADDUSER_TO_GROUP"]
834[label="BUSYBOX_INSTALL_APPLET_HARDLINKS"]
835[label="BUSYBOX_APP_UDHCPC"]
836[label="RSYNC_RSYNC"]
837[label="E2FSPROGS_MISC_DUMPE2FS"]
838[label="OPENSSL_APPS"]
839[label="BUSYBOX_LOSETUP"]
840[label="BUSYBOX_FEATURE_MD5_SHA1_SUM_CHECK"]
841[label="MOUNT_UMOUNT"]
842[label="MICROWIN_BIN_MUSERFD"]
843[label="SHADOW_UTILS"]
844[label="DE2TSCAL_DE2TSCAL"]
845[label="LRPSTAT_LRPSTAT"]
846[label="LANG_A60_TEST"]
847[label="BUSYBOX_APP_DUMPLEASES"]
848[label="BUSYBOX_FEATURE_DD_IBS_OBS"]
849[label="BUSYBOX_FEATURE_DU_DEFAULT_BLOCKSIZE_1K"]
850[label="MICROWIN_BIN_LANDMINE"]
851[label="CXXTEST_CXXTEST"]
852[label="NETSNMP_APPS_WALK"]
853[label="BUSYBOX_FEATURE_PREFER_APPLETS"]
854[label="TINYLOGIN_DELUSER"]
855[label="BUSYBOX_FEATURE_TAR_GNU_EXTENSIONS"]
856[label="NET_TOOLS_ARP"]
857[label="BUSYBOX_FEATURE_TOP_CPU_USAGE_PERCENTAGE"]
858[label="BUSYBOX_FEATURE_WGET_STATUSBAR"]
859[label="ZEBRA_OSPFD_OSPFD"]
860[label="PAM_LDAP"]
861[label="MICROWIN_VGALIB"]
862[label="IPROUTE2_IP_ROUTEF"]
863[label="STUNNEL_STUNNEL"]
864[label="FLTHDR_FLTHDR"]
865[label="SHUTILS_YES"]
866[label="SAMBA_NMBD"]
867[label="BUSYBOX_FEATURE_FIND_EXEC"]
868[label="BUSYBOX_IPTUNNEL"]
869[label="BUSYBOX_FEATURE_GUNZIP_UNCOMPRESS"]
870[label="MTDUTILS_UNLOCK"]
871[label="KLAXON_HTTP"]
872[label="IPUTILS_IPUTILS"]
873[label="WIRELESS_TOOLS_IWSPY"]
874[label="SER_RTPPROXY"]
875[label="SHADOW_NEWGRP"]
876[label="BIND_BIND"]
877[label="RAMIMAGE_NONE"]
878[label="BUSYBOX_MOUNT"]
879[label="BUSYBOX_FEATURE_INETD_SUPPORT_BUILTIN_ECHO"]
880[label="BUSYBOX_FEATURE_LS_COLOR"]
881[label="BUSYBOX_FEATURE_TFTP_PUT"]
882[label="NETFLASH_DECOMPRESS"]
883[label="BUSYBOX_FEATURE_IFCONFIG_MEMSTART_IOADDR_IRQ"]
884[label="NETFLASH_AUTODECOMPRESS"]
885[label="CLOCK_CLOCK"]
886[label="MTDUTILS_NFTLDUMP"]
887[label="BUSYBOX_FEATURE_XARGS_SUPPORT_QUOTES"]
888[label="FILEUTILS_CHOWN"]
889[label="BUSYBOX_FEATURE_IPV6"]
890[label="BUSYBOX_SORT"]
891[label="NTPD_NTPQ"]
892[label="LINUXIGD_LINUXIGD"]
893[label="BUSYBOX_ADDGROUP"]
894[label="BUSYBOX_GUNZIP"]
895[label="LIBG"]
896[label="MICROWIN_CLEOKBD"]
897[label="NETFLASH_WITH_CGI"]
898[label="SSH_SFTP_SERVER"]
899[label="SHADOW_ID"]
900[label="BUSYBOX_IPCRM"]
901[label="BUSYBOX_BZIP2"]
902[label="BUSYBOX_FEATURE_VI_OPTIMIZE_CURSOR"]
903[label="BUSYBOX_VI"]
904[label="EBTABLES_EBTABLES"]
905[label="CHAT_CHAT_NETWORK"]
906[label="UNZOO_UNZOO"]
907[label="BUSYBOX_KLOGD"]
908[label="BUSYBOX_HUSH_TICK"]
909[label="PROCPS_TOP"]
910[label="BUSYBOX_IFUPDOWN_IFSTATE_PATH"]
911[label="MICROWIN_SHAREDLIBS"]
912[label="BUSYBOX_TAIL"]
913[label="MICROWIN_GRAYPALETTE"]
914[label="SHADOW_FAILLOG"]
915[label="AGETTY_AGETTY"]
916[label="BUSYBOX_FEATURE_XARGS_SUPPORT_CONFIRMATION"]
917[label="IPUTILS_TRACEPATH"]
918[label="NFNETLINK"]
919[label="BUSYBOX_FEATURE_HWCLOCK_ADJTIME_FHS"]
920[label="UNZIP_UNZIP"]
921[label="BUSYBOX_CATV"]
922[label="BUSYBOX_WGET"]
923[label="BUSYBOX_FEATURE_DEB_TAR_GZ"]
924[label="MYSQL_CLIB"]
925[label="ZEBRA_BGPD_BGPD"]
926[label="BUSYBOX_GZIP"]
927[label="BUSYBOX_FEATURE_LOGREAD_REDUCED_LOCKING"]
928[label="Core Applications"]
929[label="MICROWIN_BIN_NXLSCLIENTS"]
930[label="SNMPD_SNMPD"]
931[label="BUSYBOX_DOS2UNIX"]
932[label="BUSYBOX_FEATURE_HUMAN_READABLE"]
933[label="FILEUTILS_DD"]
934[label="BUSYBOX_GETSEBOOL"]
935[label="GNUGK_GNUGK"]
936[label="QUAGGA_RIPNGD_RIPNGD"]
937[label="MAIL_MAIL_IP"]
938[label="MICROWIN_NANOXDEMO"]
939[label="BUSYBOX_FEATURE_DPKG_DEB_EXTRACT_ONLY"]
940[label="BUSYBOX_FEATURE_LS_FOLLOWLINKS"]
941[label="SHADOW_PWCK"]
942[label="BUSYBOX_HUSH_LOOPS"]
943[label="LIBLZMA"]
944[label="BUSYBOX_XARGS"]
945[label="P7ZIP_7ZA"]
946[label="HOSTAP_HOSTAP"]
947[label="BUSYBOX_FEATURE_VOLUMEID_SYSV"]
948[label="GAMES_ADVENT4"]
949[label="CLAMAV_CLAMAV"]
950[label="BUSYBOX_CHPASSWD"]
951[label="BUSYBOX_FEATURE_HTTPD_CONFIG_WITH_SCRIPT_INTERPR"]
952[label="BPALOGIN_BPALOGIN"]
953[label="MICROWIN_BIN_VNC"]
954[label="BUSYBOX_FEATURE_UTMP"]
955[label="MINI_HTTPD_WITH_SSL"]
956[label="BUSYBOX_RUN_PARTS"]
957[label="Choose your default shell"]
958[label="BUSYBOX_PSCAN"]
959[label="BUSYBOX_FEATURE_WC_LARGE"]
960[label="CLAMAV_SIGTOOL"]
961[label="SYSUTILS_REBOOT"]
962[label="NETFLASH_VERSION_ALLOW_OLDER"]
963[label="BUSYBOX_KBD_MODE"]
964[label="VPNLED_VPNLED"]
965[label="LIBNL_ROUTE_LINK"]
966[label="BUSYBOX_FEATURE_LS_TIMESTAMPS"]
967[label="BUSYBOX_MKFIFO"]
968[label="BUSYBOX_UMOUNT"]
969[label="BUSYBOX_FEATURE_INSMOD_LOAD_MAP_FULL"]
970[label="NETSNMP_IPV6"]
971[label="BUSYBOX_MESG"]
972[label="BUSYBOX_FEATURE_MOUNT_HELPERS"]
973[label="BUSYBOX_FEATURE_UMOUNT_ALL"]
974[label="BUSYBOX_FEATURE_LESS_REGEXP"]
975[label="CRYPTO_TOOLS_CRYPTOKEYTEST"]
976[label="E2FSPROGS_E2FSCK_E2FSCK"]
977[label="BUSYBOX_FEATURE_EDITING_VI"]
978[label="PROCPS_UPTIME"]
979[label="BUSYBOX_SED"]
980[label="BUSYBOX_FEATURE_HDPARM_HDIO_TRISTATE_HWIF"]
981[label="DOSFSTOOLS_DOSFSCK"]
982[label="BUSYBOX_FEATURE_HTTPD_CGI"]
983[label="ZEBRA_ZEBRA_ZEBRA"]
984[label="BUSYBOX_INSTALL_NO_USR"]
985[label="RAMIMAGE_RAMFS64"]
986[label="BUSYBOX_FEATURE_RMDIR_LONG_OPTIONS"]
987[label="BUSYBOX_FEATURE_VOLUMEID_ISO9660"]
988[label="BUSYBOX_FEATURE_VOLUMEID_FAT"]
989[label="MICROWIN_OBJFRAMEWORK"]
990[label="FILEUTILS_CAT"]
991[label="BUSYBOX_FEATURE_ETC_NETWORKS"]
992[label="System Logging Utilities"]
993[label="Applets links"]
994[label="BUSYBOX_SV"]
995[label="BUSYBOX_FEATURE_FIND_PRUNE"]
996[label="FILEUTILS_TOUCH"]
997[label="BUSYBOX_FEATURE_TEE_USE_BLOCK_IO"]
998[label="Linux Ext2 FS Progs"]
999[label="FILEUTILS_MORE"]
1000[label="Finding Utilities"]
1001[label="PCMCIA_CS"]
1002[label="NETSNMP_NOV2C"]
1003[label="CONNECTION_LIMIT_BOOL"]
1004[label="BUSYBOX_FEATURE_DIFF_MINIMAL"]
1005[label="IPROUTE2_IP_RTMON"]
1006[label="BUSYBOX_FEATURE_TAR_LONG_OPTIONS"]
1007[label="NESSUS_LIBRARIES"]
1008[label="BUSYBOX_NC_EXTRA"]
1009[label="Library Configuration"]
1010[label="BUSYBOX_FEATURE_DATE_ISOFMT"]
1011[label="BUSYBOX_FEATURE_MOUNT_LOOP"]
1012[label="BUSYBOX_PRINTENV"]
1013[label="BUSYBOX_FEATURE_TELNET_AUTOLOGIN"]
1014[label="PYTHON_PYTHON"]
1015[label="MICROWIN_HWVGA"]
1016[label="LPR"]
1017[label="BUSYBOX_TELNETD"]
1018[label="NETSNMP_SCRIPTS"]
1019[label="OGGPLAY_OGGPLAY"]
1020[label="BUSYBOX_FEATURE_KILL_DELAY"]
1021[label="IPROUTE2_IP_RTACCT"]
1022[label="LEVEE_VI"]
1023[label="MARADNS_MARADNS"]
1024[label="BUSYBOX_FEATURE_MDEV_LOAD_FIRMWARE"]
1025[label="BUSYBOX_ASH_MATH_SUPPORT"]
1026[label="MTDUTILS_ERASEALL"]
1027[label="LIBNL"]
1028[label="BUSYBOX_FEATURE_IP_RARE_PROTOCOLS"]
1029[label="BUSYBOX_GETOPT_LONG"]
1030[label="READPROFILE_READPROFILE"]
1031[label="BUSYBOX_FEATURE_TFTP_BLOCKSIZE"]
1032[label="SHADOW_GROUPMOD"]
1033[label="DHCP_ISC_RELAY_DHCRELAY"]
1034[label="DIALD_DIALD"]
1035[label="PPPD_WITH_TACACS"]
1036[label="BUSYBOX_PREFIX"]
1037[label="NETSNMP_DEFLOGFILE"]
1038[label="DISCARD_ECHO_NO_INSTALL"]
1039[label="MICROWIN_BIN_MOVE"]
1040[label="BUSYBOX_LOGIN"]
1041[label="NETSNMP_BUILDSTATIC"]
1042[label="CRAMFS_MKCRAMFS"]
1043[label="MICROWIN_VTSWITCH"]
1044[label="BUSYBOX_EXPR"]
1045[label="RSYSLOGD_RSYSLOGD"]
1046[label="RECOVER_ETHERNET_INTERFACE"]
1047[label="BUSYBOX_TAR"]
1048[label="MUSICBOX_MUSICBOX"]
1049[label="QUAGGA_WATCHQUAGGA_WATCHQUAGGA"]
1050[label="BUSYBOX_FEATURE_NETSTAT_WIDE"]
1051[label="BUSYBOX_FEATURE_RUN_PARTS_LONG_OPTIONS"]
1052[label="BUSYBOX_FEATURE_GREP_EGREP_ALIAS"]
1053[label="LIRC_IRW"]
1054[label="NETSNMP_EXTRANSPORTS"]
1055[label="BUSYBOX_FEATURE_PS_TIME"]
1056[label="BUSYBOX_CROND"]
1057[label="BUSYBOX_FEATURE_DIFF_DIR"]
1058[label="MICROWIN_BIN_NANOWM"]
1059[label="BUSYBOX_FEATURE_TAR_OLDSUN_COMPATIBILITY"]
1060[label="MICROWIN_DE2TSMOUSE"]
1061[label="PROCPS_PGREP"]
1062[label="BUSYBOX_FEATURE_MKDIR_LONG_OPTIONS"]
1063[label="BOOTTOOLS_PRINTBENV"]
1064[label="BUSYBOX_YES"]
1065[label="BUSYBOX_DUMPKMAP"]
1066[label="QSPI"]
1067[label="E2FSPROGS_MISC_MKE2FS"]
1068[label="BUSYBOX_FEATURE_FIND_GROUP"]
1069[label="CRYPTO_TOOLS_CRYPTOTEST"]
1070[label="BUSYBOX_FEATURE_VOLUMEID_LUKS"]
1071[label="BUSYBOX_HWCLOCK"]
1072[label="BUSYBOX_LN"]
1073[label="WLAN_NG_WLANCTL"]
1074[label="MICROWIN_VERBOSE"]
1075[label="BUSYBOX_FEATURE_EDITING_FANCY_PROMPT"]
1076[label="BRCFG_BRCFG"]
1077[label="BUSYBOX_START_STOP_DAEMON"]
1078[label="BUSYBOX_PRINTF"]
1079[label="LIBCCMALLOC"]
1080[label="BUSYBOX_PING6"]
1081[label="BUSYBOX_FEATURE_FIND_PERM"]
1082[label="NETSNMP_APPS_TRANSLATE"]
1083[label="Console Utilities"]
1084[label="BUSYBOX_RUNLEVEL"]
1085[label="RAMIMAGE_RAMFS128"]
1086[label="BUSYBOX_SETUIDGID"]
1087[label="NESSUS_NASL"]
1088[label="BUSYBOX_FEATURE_FDISK_ADVANCED"]
1089[label="QSPITEST_TEST"]
1090[label="BUSYBOX_IFUPDOWN"]
1091[label="SNORT_SNORT"]
1092[label="BUSYBOX_FEATURE_LS_SORTFILES"]
1093[label="BUSYBOX_ASH_READ_TIMEOUT"]
1094[label="STTY_STTY"]
1095[label="BUSYBOX_CHATTR"]
1096[label="PPPD_PPPOE_RETRIES"]
1097[label="SMBMOUNT_SMBUMOUNT"]
1098[label="MICROWIN_MICROWIN"]
1099[label="BUSYBOX_FEATURE_MDEV_RENAME"]
1100[label="BUSYBOX_FEATURE_IFCONFIG_BROADCAST_PLUS"]
1101[label="BUSYBOX_SLATTACH"]
1102[label="FILEUTILS_CMP"]
1103[label="BUSYBOX_IFCONFIG"]
1104[label="Busybox Settings"]
1105[label="LRZSZ_LRZSZ"]
1106[label="BUSYBOX_DEBUG"]
1107[label="FILEUTILS_L"]
1108[label="TCL_LIBTCL"]
1109[label="BUSYBOX_FEATURE_HTTPD_RELOAD_CONFIG_SIGHUP"]
1110[label="SAMBA_SMBUMOUNT"]
1111[label="BUSYBOX_FEATURE_TASKSET_FANCY"]
1112[label="BUSYBOX_PWD"]
1113[label="BUSYBOX_FEATURE_HDPARM_HDIO_GETSET_DMA"]
1114[label="BUSYBOX_STATIC"]
1115[label="BUSYBOX_LS"]
1116[label="HWCLOCK_HWCLOCK"]
1117[label="BUSYBOX_FEATURE_MINIX2"]
1118[label="WLAN_NG_WLANCFG"]
1119[label="BUSYBOX_MONOTONIC_SYSCALL"]
1120[label="BUSYBOX_FEATURE_FIND_MMIN"]
1121[label="BUSYBOX_FEATURE_CROND_CALL_SENDMAIL"]
1122[label="BUSYBOX_TASKSET"]
1123[label="MINI_HTTPD_MINI_HTTPD"]
1124[label="TCPWRAP_TCPDCHK"]
1125[label="LOGIN_LOGIN"]
1126[label="NETSNMP_APPS_DELTA"]
1127[label="BUSYBOX_GREP"]
1128[label="BUSYBOX_FEATURE_NOLOGIN"]
1129[label="FILEUTILS_LS"]
1130[label="MTDUTILS_DOC_LOADBIOS"]
1131[label="TINYLOGIN_SULOGIN"]
1132[label="EXPAT"]
1133[label="MICROWIN_CLEOVGA"]
1134[label="BUSYBOX_FEATURE_SHADOWPASSWDS"]
1135[label="NET_TOOLS_NETSTAT"]
1136[label="RUN_PARTS_FANCY"]
1137[label="NETSNMP_DEFENTERPRISEOID"]
1138[label="BUSYBOX_FTPPUT"]
1139[label="PPPD_WITH_MINCONN"]
1140[label="REISERFSPROGS_DEBUGRESIERFS"]
1141[label="LIBEFENCE"]
1142[label="SHADOW_PWCONV"]
1143[label="APPWEB_DYNAMIC"]
1144[label="RAMIMAGE_RAMFS2048"]
1145[label="FTPD_FTPD"]
1146[label="BUSYBOX_LAST"]
1147[label="LIBPCRE"]
1148[label="XL2TPD_XL2TPD"]
1149[label="BUSYBOX_WC"]
1150[label="QUAGGA_ZEBRA_ZEBRA"]
1151[label="SASH_HISTORY"]
1152[label="BUSYBOX_DU"]
1153[label="BUSYBOX_DATE"]
1154[label="BUSYBOX_FEATURE_HTTPD_RANGES"]
1155[label="BUSYBOX_PASSWD"]
1156[label="Networking Utilities"]
1157[label="BUSYBOX_DD"]
1158[label="LUA_LUASQL_SQLITE3"]
1159[label="RRDTOOL_RRDTOOL"]
1160[label="LIBFFI"]
1161[label="BUSYBOX_FEATURE_VERBOSE_USAGE"]
1162[label="BUSYBOX_FEATURE_HDPARM_HDIO_UNREGISTER_HWIF"]
1163[label="LIBBZ2"]
1164[label="ETHERWAKE"]
1165[label="LIBNL_GENERIC"]
1166[label="BUSYBOX_WATCH"]
1167[label="BUSYBOX_RM"]
1168[label="TINYLOGIN_MD5_PASSWORDS"]
1169[label="BUSYBOX_IPCS"]
1170[label="FLATFSD_HAS_RTC"]
1171[label="BUSYBOX_RESET"]
1172[label="STLPORT"]
1173[label="LIBJUDY"]
1174[label="BUSYBOX_SETSEBOOL"]
1175[label="BUSYBOX_FEATURE_TR_EQUIV"]
1176[label="MicroWindows"]
1177[label="BUSYBOX_PAM"]
1178[label="BUSYBOX_FEATURE_AWK_MATH"]
1179[label="BUSYBOX_FEATURE_TAR_CREATE"]
1180[label="BUSYBOX_DEVFSD_FG_NP"]
1181[label="BUSYBOX_MAKEDEVS"]
1182[label="FLATFSD_COMPRESSED"]
1183[label="BUSYBOX_PASSWORD_MINLEN"]
1184[label="TINYTCL_STATIC"]
1185[label="GREP_GREP"]
1186[label="PROCPS_W"]
1187[label="BUSYBOX_FEATURE_UNARCHIVE_TAPE"]
1188[label="BUSYBOX_SCRIPT"]
1189[label="LIBNET"]
1190[label="LIRC"]
1191[label="FLATFSD_FLATFSD"]
1192[label="NESSUS"]
1193[label="NET_TOOLS_IFCONFIG"]
1194[label="BUSYBOX_FEATURE_TAR_COMPRESS"]
1195[label="LIBXML2"]
1196[label="SHADOW_LASTLOG"]
1197[label="BUSYBOX_FEATURE_IPCALC_LONG_OPTIONS"]
1198[label="WLAN_NG_PCMCIA"]
1199[label="BUSYBOX_FEATURE_SUID_CONFIG_QUIET"]
1200[label="BUSYBOX_CHROOT"]
1201[label="BUSYBOX_FEATURE_PIDFILE"]
1202[label="DDNS3_CLIENT_DDNS3"]
1203[label="BUSYBOX_LASH"]
1204[label="BUSYBOX_RTCWAKE"]
1205[label="SYSUTILS_KILL"]
1206[label="MICROWIN_HARRIERMOUSE"]
1207[label="BUSYBOX_ENVUIDGID"]
1208[label="DHRYSTONE_DHRYSTONE"]
1209[label="BUSYBOX_ASH_CMDCMD"]
1210[label="BUSYBOX_FEATURE_BUFFERS_GO_IN_BSS"]
1211[label="BUSYBOX_TEST"]
1212[label="Automake Libraries"]
1213[label="BUSYBOX_FEATURE_PREFER_IPV4_ADDRESS"]
1214[label="FREESWAN_KLIPS_EROUTE"]
1215[label="BUSYBOX_RUNSVDIR"]
1216[label="BUSYBOX_FEATURE_TOPMEM"]
1217[label="BUSYBOX_ENVDIR"]
1218[label="BUSYBOX_FEATURE_SH_IS_ASH"]
1219[label="REISERFSPROGS_REISERFSCK"]
1220[label="BUSYBOX_TCPSVD"]
1221[label="BUSYBOX_CRYPTPW"]
1222[label="BUSYBOX_FEATURE_DEVPTS"]
1223[label="OPENSWAN_PLUTO_WHACK"]
1224[label="NETSNMP_OPENSSL"]
1225[label="PPTP_PPTP"]
1226[label="SSH_SSHKEYGEN"]
1227[label="BUSYBOX_CHMOD"]
1228[label="ETHTOOL_ETHTOOL"]
1229[label="BUSYBOX_FEATURE_VOLUMEID_REISERFS"]
1230[label="PROCPS_KILL"]
1231[label="BUSYBOX_SOFTLIMIT"]
1232[label="BUSYBOX_FEATURE_AUTOWIDTH"]
1233[label="FCONFIG_FCONFIG"]
1234[label="SSH_ONLY_RSA_V2_KEYGEN"]
1235[label="BUSYBOX_FEATURE_SH_STANDALONE"]
1236[label="BUSYBOX_FEATURE_MAKEDEVS_LEAF"]
1237[label="FNORD_404_REDIR"]
1238[label="BUSYBOX_FEATURE_LESS_MAXLINES"]
1239[label="BUSYBOX_KILLALL"]
1240[label="NETSNMP_OVRDEFAULTS"]
1241[label="LIBLDAP"]
1242[label="BUSYBOX_CUT"]
1243[label="BUSYBOX_FEATURE_SETFILES_CHECK_OPTION"]
1244[label="BUSYBOX_RUNCON"]
1245[label="BUSYBOX_FEATURE_HTTPD_CONFIG_WITH_MIME_TYPES"]
1246[label="BUSYBOX_SETLOGCONS"]
1247[label="MICROWIN_SERMOUSE"]
1248[label="TRUSTEDSOURCE"]
1249[label="BUSYBOX_FEATURE_CHECK_TAINTED_MODULE"]
1250[label="LIBSYSFS"]
1251[label="LOATTACH_LOATTACH"]
1252[label="BUSYBOX_MKTEMP"]
1253[label="NETFLASH_SHA256"]
1254[label="BUSYBOX_TRACEROUTE"]
1255[label="CAMSERV"]
1256[label="NETFLASH_NETFLASH"]
1257[label="THREADDEMOS_THREADDEMOS"]
1258[label="BUSYBOX_FEATURE_FIND_SIZE"]
1259[label="DNSMASQ2_RESOLVE_AS_SERVER"]
1260[label="E2FSPROGS_MISC_CHATTR"]
1261[label="BUSYBOX_DEBUG_INIT"]
1262[label="BUSYBOX_DPKG"]
1263[label="BUSYBOX_BUILD_LIBBUSYBOX"]
1264[label="MICROWIN_UPDATEREGIONS"]
1265[label="MICROWIN_BIN_NTERM"]
1266[label="BUSYBOX_INSTALL_SH_APPLET_SYMLINK"]
1267[label="TCSH_TCSH"]
1268[label="QUAGGA_BGPD_BGPD"]
1269[label="BUSYBOX_ADJTIMEX"]
1270[label="SHADOW_USERDEL"]
1271[label="BUSYBOX_FEATURE_EXTRA_QUIET"]
1272[label="BUSYBOX_FEATURE_MOUNT_VERBOSE"]
1273[label="BUSYBOX_DMESG"]
1274[label="MICROWIN_OPTIMIZE"]
1275[label="SSH_SCP"]
1276[label="BUSYBOX_FEATURE_FANCY_TAIL"]
1277[label="MICROWIN_GPMMOUSE"]
1278[label="BUSYBOX_FEATURE_VOLUMEID_JFS"]
1279[label="TINYTCL"]
1280[label="SHADOW_NOLOGIN"]
1281[label="MGETTY_MGETTY"]
1282[label="DEMO_BUTTON"]
1283[label="OPENSWAN_PLUTO_PLUTO"]
1284[label="KLAXON_CHARGEN"]
1285[label="RTC_DS1302"]
1286[label="HOSTAP_CS"]
1287[label="BUSYBOX_FEATURE_MDEV_EXEC"]
1288[label="MICROWIN_HAVE_GIF_SUPPORT"]
1289[label="BUSYBOX_FEATURE_TOP_CPU_GLOBAL_PERCENTS"]
1290[label="PROCPS_FREE"]
1291[label="BUSYBOX_HTTPD"]
1292[label="BUSYBOX_TIME"]
1293[label="BUSYBOX_TOP"]
1294[label="QUAGGA_OSPFD_OSPFD"]
1295[label="MICROWIN_X11"]
1296[label="BUSYBOX_FEATURE_CHAT_VAR_ABORT_LEN"]
1297[label="WIRELESS_TOOLS_IWCONFIG"]
1298[label="BUSYBOX_FEATURE_SU_CHECKS_SHELLS"]
1299[label="IPROUTE2_IP_RTPR"]
1300[label="BUSYBOX_ASH_JOB_CONTROL"]
1301[label="BUSYBOX_EFENCE"]
1302[label="BUSYBOX_FEATURE_TELNETD_STANDALONE"]
1303[label="FILEUTILS_RMDIR"]
1304[label="NETSNMP_SNMPD"]
1305[label="HTTPD_HTTPD"]
1306[label="NCURSES"]
1307[label="UNRAR_UNRAR"]
1308[label="LUA_COSMO"]
1309[label="LIRC_MODE2"]
1310[label="BUSYBOX_FDFLUSH"]
1311[label="BUSYBOX_FEATURE_PASSWD_WEAK_CHECK"]
1312[label="BUSYBOX_FEATURE_CHECK_NAMES"]
1313[label="SENDIP_SENDIP"]
1314[label="BUSYBOX_ASH_BUILTIN_TEST"]
1315[label="OPENSWAN_PROGRAMS_LWDNSQ"]
1316[label="MYSQL"]
1317[label="CRYPTO_TOOLS_CMACTEST"]
1318[label="MICROWIN_BIN_NXEV"]
1319[label="BUSYBOX_FEATURE_WGET_LONG_OPTIONS"]
1320[label="NETSNMP_APPS_SET"]
1321[label="BUSYBOX_FEATURE_FTPGETPUT_LONG_OPTIONS"]
1322[label="OPENSWAN_KLIPS_SPIGRP"]
1323[label="BUSYBOX_SPLIT"]
1324[label="MICROWIN_BIN_NXKBD"]
1325[label="PPPD_WITH_DYNAMIC_PLUGINS"]
1326[label="BUSYBOX_FEATURE_SYSLOGD_DUP"]
1327[label="WLAN_NG_PCI"]
1328[label="MICROWIN_NOMOUSE"]
1329[label="SASH_PS"]
1330[label="SYSUTILS_HOSTNAME"]
1331[label="OTHER_SH"]
1332[label="BUSYBOX_SETARCH"]
1333[label="IFATTACH_IFATTACH"]
1334[label="DEMO_LATCH"]
1335[label="BUSYBOX_ASH_READ_NCHARS"]
1336[label="MOUNT_MOUNT"]
1337[label="NETSNMP_DEFVERSION"]
1338[label="BUSYBOX_VLOCK"]
1339[label="BOOTTOOLS_SETBENV"]
1340[label="General Configuration"]
1341[label="FROB_LED_FROB_LED"]
1342[label="MICROWIN_BIN_SLIDER"]
1343[label="BUSYBOX_FEATURE_VI_COLON"]
1344[label="SASH_REBOOT_SNAPGEAR"]
1345[label="BUSYBOX_BB_SYSCTL"]
1346[label="BUSYBOX_FEATURE_VERBOSE_CP_MESSAGE"]
1347[label="TFTPD_TFTPD_LOW_SEC"]
1348[label="SHADOW_GROUPADD"]
1349[label="BUSYBOX_SETKEYCODES"]
1350[label="BUSYBOX_FEATURE_HDPARM_GET_IDENTITY"]
1351[label="BUSYBOX_RAIDAUTORUN"]
1352[label="MICROWIN_PIPEKBD"]
1353[label="PPPD_WITH_PAM"]
1354[label="BUSYBOX_HUSH_IF"]
1355[label="CLASSPATH"]
1356[label="INETD_INETD"]
1357[label="BUSYBOX_FEATURE_COPYBUF_KB"]
1358[label="BUSYBOX_FEATURE_INDIVIDUAL"]
1359[label="MARADNS_ZONESERVER"]
1360[label="VIXIECRON_CRON"]
1361[label="MICROWIN_HAVE_JPEG_SUPPORT"]
1362[label="SYSUTILS_PS"]
1363[label="NET_TOOLS_RARP"]
1364[label="SQUASHFS_MKSQUASHFS7Z"]
1365[label="BUSYBOX_FEATURE_AIX_LABEL"]
1366[label="PPPD_WITH_IPV6"]
1367[label="PPTP_CLIENT_PPTP_CALLMGR"]
1368[label="BUSYBOX_FEATURE_INSMOD_LOADINKMEM"]
1369[label="BUSYBOX_FEATURE_RUNCON_LONG_OPTIONS"]
1370[label="HTTPTUNNEL_SERVER"]
1371[label="BUSYBOX_FEATURE_HTTPD_BASIC_AUTH"]
1372[label="IPTABLES_IPTABLES"]
1373[label="BUSYBOX_DELGROUP"]
1374[label="BUSYBOX_FEATURE_IP_LINK"]
1375[label="BUSYBOX_FEATURE_IFCONFIG_STATUS"]
1376[label="BUSYBOX_FEATURE_FIND_MTIME"]
1377[label="SHADOW_CHFN"]
1378[label="BUSYBOX_FEATURE_VOLUMEID_ROMFS"]
1379[label="BUSYBOX_FEATURE_DMESG_PRETTY"]
1380[label="JAMVM_JAMVM"]
1381[label="CLAMAV_NODB"]
1382[label="BUSYBOX_UNEXPAND"]
1383[label="BUSYBOX_INSMOD"]
1384[label="BUSYBOX_FEATURE_NAMEIF_EXTENDED"]
1385[label="BUSYBOX_CHRT"]
1386[label="LIBNL_ROUTE_RULE"]
1387[label="BUSYBOX_TRUE"]
1388[label="LUA_ORBIT"]
1389[label="MICROWIN_BIN_NXVIEW"]
1390[label="RECOVER_PRESERVE_CONFIG_FS"]
1391[label="FILEUTILS_SYNC"]
1392[label="LIBCURL"]
1393[label="PPPD_WITH_PASSPROMPT"]
1394[label="BUSYBOX_FEATURE_OSF_LABEL"]
1395[label="BUSYBOX_GETTY"]
1396[label="BUSYBOX_RESTORECON"]
1397[label="PCIUTILS_LSPCI"]
1398[label="BUSYBOX_MKSWAP"]
1399[label="BUSYBOX_FEATURE_HWCLOCK_LONG_OPTIONS"]
1400[label="MICROWIN_MWPF_TRUECOLOR555"]
1401[label="IPUTILS_CLOCKDIFF"]
1402[label="PROCPS_WATCH"]
1403[label="OPENSWAN_KLIPS_TNCFG"]
1404[label="BUSYBOX_FEATURE_IP_RULE"]
1405[label="MICROWIN_CLEOMOUSE"]
1406[label="BUSYBOX_CKSUM"]
1407[label="ULOGD_ULOGD"]
1408[label="JQUERY_UI"]
1409[label="BUSYBOX_FEATURE_DEL_USER_FROM_GROUP"]
1410[label="BUSYBOX_FEATURE_IP_ADDRESS"]
1411[label="BUSYBOX_PIDOF"]
1412[label="MTDUTILS_NANDTEST"]
1413[label="VPLAY_MIXER"]
1414[label="BOA_EMERG"]
1415[label="TELNETD_DOES_NOT_USE_OPENPTY"]
1416[label="BUSYBOX_DEVFSD"]
1417[label="BUSYBOX_HUSH_INTERACTIVE"]
1418[label="E2FSPROGS_MISC_E2LABEL"]
1419[label="BUSYBOX_FEATURE_CHAT_IMPLICIT_CR"]
1420[label="SHUTILS_FALSE"]
1421[label="BUSYBOX_FEATURE_IFCONFIG_SLIP"]
1422[label="KEXEC_KEXEC"]
1423[label="NETSNMP_NOTRANSPORTS"]
1424[label="Busybox Library Tuning"]
1425[label="BUSYBOX_FEATURE_WTMP"]
1426[label="SHADOW_EXPIRY"]
1427[label="MICROWIN_ERASEMOVE"]
1428[label="PROCPS_SNICE"]
1429[label="MICROWIN_HAVE_BMP_SUPPORT"]
1430[label="GETTYD_GETTYD"]
1431[label="IPUTILS_RDISC"]
1432[label="OPENSWAN_UTILS_RANBITS"]
1433[label="BUSYBOX_LSMOD"]
1434[label="BUSYBOX_FEATURE_IP_SHORT_FORMS"]
1435[label="OSIP2"]
1436[label="BUSYBOX_FEATURE_LS_USERNAME"]
1437[label="NETFLASH_VERSION"]
1438[label="SHADOW_USERADD"]
1439[label="KLAXON_SSH"]
1440[label="BUSYBOX_FEATURE_LESS_BRACKETS"]
1441[label="BUSYBOX_USE_BB_PWD_GRP"]
1442[label="BUSYBOX_FEATURE_VI_MAX_LEN"]
1443[label="POPT"]
1444[label="THTTPD_THTTPD"]
1445[label="BUSYBOX_NC_SERVER"]
1446[label="SHADOW_GRPUNCONV"]
1447[label="BUSYBOX_FEATURE_TAR_BZIP2"]
1448[label="SHUTILS_PRINTENV"]
1449[label="BUSYBOX_FEATURE_MOUNT_FAKE"]
1450[label="NETPIPE_NETPIPE"]
1451[label="BUSYBOX_READLINK"]
1452[label="LEDCON_LEDCON"]
1453[label="TINYLOGIN_TRIVIAL_HELP"]
1454[label="CLAMAV_CLAMDSCAN"]
1455[label="MICROWIN_HAVE_T1LIB_SUPPORT"]
1456[label="BUSYBOX_NC"]
1457[label="LIBNL_NETFILTER"]
1458[label="BUSYBOX_FEATURE_FIND_NEWER"]
1459[label="FILEUTILS_MV"]
1460[label="Choose makedevs behaviour"]
1461[label="GDB_HOST"]
1462[label="NETSNMP_MANUALS"]
1463[label="MICROWIN_IPAQMOUSE"]
1464[label="LOGROTATE_LOGROTATE"]
1465[label="FDISK_SFDISK"]
1466[label="MTDUTILS_FTL_FORMAT"]
1467[label="BUSYBOX_NOMMU"]
1468[label="BUSYBOX_HEXDUMP"]
1469[label="MICROWIN_BIN_NXTERM"]
1470[label="BUSYBOX_UDHCPC_SLACK_FOR_BUGGY_SERVERS"]
1471[label="BUSYBOX_FBSET"]
1472[label="SASH_SH"]
1473[label="BUSYBOX_FEATURE_MTAB_SUPPORT"]
1474[label="CKSUM_CKSUM"]
1475[label="Init Utilities"]
1476[label="NETFLASH_CRYPTO_V2"]
1477[label="NETSNMP_APPS_GET"]
1478[label="BUSYBOX_FEATURE_VOLUMEID_HFS"]
1479[label="SETSERIAL_SETSERIAL"]
1480[label="SHADOW_USERMOD"]
1481[label="SMBMOUNT_SMBMOUNT"]
1482[label="PORTMAP_PMAP_SET"]
1483[label="INIT_INIT"]
1484[label="NETSTAT_NAT_NETSTAT_NAT"]
1485[label="LIRC_IREXEC"]
1486[label="BUSYBOX_FEATURE_MODPROBE_MULTIPLE_OPTIONS"]
1487[label="BUSYBOX_INSTALL_SH_APPLET_SCRIPT_WRAPPER"]
1488[label="BUSYBOX_INIT"]
1489[label="BUSYBOX_LOGIN_SCRIPTS"]
1490[label="SHADOW_GPASSWD"]
1491[label="IPTABLES_IP6TABLES"]
1492[label="LAYER7_PROTOCOLS"]
1493[label="DHCPCD_LLIP"]
1494[label="FREERADIUS"]
1495[label="RAMIMAGE_RAMFS256"]
1496[label="NETSNMP_APPS_DF"]
1497[label="BUSYBOX_NAMEIF"]
1498[label="NOOOM_BINARIES"]
1499[label="BUSYBOX_MD5_SIZE_VS_SPEED"]
1500[label="DEMO_MORSE"]
1501[label="ASTERISK"]
1502[label="TFTP_TFTP"]
1503[label="BUSYBOX_UUDECODE"]
1504[label="SIPROXD_SIPROXD"]
1505[label="BUSYBOX_NSLOOKUP"]
1506[label="BUSYBOX_FEATURE_2_4_MODULES"]
1507[label="BUSYBOX_FEATURE_FBSET_READMODE"]
1508[label="BUSYBOX_HOSTID"]
1509[label="BUSYBOX_FEATURE_COMPRESS_USAGE"]
1510[label="LIRC_LIRCMD"]
1511[label="BUSYBOX_FEATURE_EXPAND_LONG_OPTIONS"]
1512[label="BUSYBOX_VCONFIG"]
1513[label="BUSYBOX_PS"]
1514[label="DROPBEAR_DROPBEAR"]
1515[label="IPMASQADM_IPMASQADM"]
1516[label="BUSYBOX_STTY"]
1517[label="WIRELESS_TOOLS_IWGETID"]
1518[label="PPPD_WITH_PASSWORDFD"]
1519[label="BUSYBOX_GETENFORCE"]
1520[label="LIBNL_ROUTE_NEIGH"]
1521[label="BUSYBOX_SYNC"]
1522[label="MICROWIN_BIN_NTETRIS"]
1523[label="RTC_M41T11"]
1524[label="BUSYBOX_FEATURE_EDITING"]
1525[label="MICROWIN_HAVEMSFONTS"]
1526[label="LIBNL_NETFILTER_LOG"]
1527[label="SAMBA"]
1528[label="BUSYBOX_FEATURE_SUN_LABEL"]
1529[label="PLUG_PLUG"]
1530[label="SHADOW_VIPW"]
1531[label="BUSYBOX_WHO"]
1532[label="VIXIECRON_CRONTAB"]
1533[label="DOSFSTOOLS_DOSFSLABEL"]
1534[label="IPERF_IPERF"]
1535[label="APPWEB_SSL"]
1536[label="BUSYBOX_FEATURE_FIND_PRINT0"]
1537[label="ULOGD2_ULOGD"]
1538[label="BUSYBOX_CHAT"]
1539[label="BUSYBOX_FEATURE_FAST_TOP"]
1540[label="BUSYBOX_FREE"]
1541[label="MICROWIN_NOFONTSORCLIPPING"]
1542[label="BUSYBOX_CHCON"]
1543[label="SER_SER"]
1544[label="DHCP_ISC_SERVER_DHCPD"]
1545[label="BUSYBOX_FEATURE_VOLUMEID_XFS"]
1546[label="LUA_XAVANTE"]
1547[label="BUSYBOX_SENDMAIL"]
1548[label="VCONFIG_VCONFIG"]
1549[label="TINYLOGIN_ADDGROUP"]
1550[label="MICROWIN_BIN_NXCLOCK"]
1551[label="LIBKRB5"]
1552[label="WIRELESS_TOOLS_IWPRIV"]
1553[label="BUSYBOX_EXPR_MATH_SUPPORT_64"]
1554[label="Selinux Utilities"]
1555[label="BUSYBOX_DHCPD_LEASES_FILE"]
1556[label="IPCHAINS_IPCHAINS"]
1557[label="NETPERF_NETSERVER"]
1558[label="UC_LIBC_TZ_FROM_FILE"]
1559[label="ADNS"]
1560[label="BUSYBOX_RX"]
1561[label="BUSYBOX_CLEAR"]
1562[label="LIBNL_FIB"]
1563[label="BUSYBOX_FEATURE_DEB_TAR_LZMA"]
1564[label="BUSYBOX_SEQ"]
1565[label="FNORD_HTTPD"]
1566[label="TELNETD_TELNETD"]
1567[label="INIT_CONF"]
1568[label="BUSYBOX_FEATURE_VOLUMEID_LINUXRAID"]
1569[label="BUSYBOX_NOHUP"]
1570[label="BUSYBOX_FEATURE_VI_READONLY"]
1571[label="BUSYBOX_FOLD"]
1572[label="BUSYBOX_FEATURE_BRCTL_FANCY"]
1573[label="Login/Password Management Utilities"]
1574[label="BUSYBOX_FEATURE_TAB_COMPLETION"]
1575[label="BUSYBOX_FEATURE_HTTPD_ENCODE_URL_STR"]
1576[label="BUSYBOX_IPLINK"]
1577[label="MICROWIN_ADSMOUSE"]
1578[label="LM_SENSORS"]
1579[label="BUSYBOX_FEATURE_USERNAME_COMPLETION"]
1580[label="BUSYBOX_CMP"]
1581[label="MTDUTILS_LOCK"]
1582[label="BUSYBOX_FEATURE_SH_IS_NONE"]
1583[label="PLAY_PLAY"]
1584[label="BUSYBOX_RUNSV"]
1585[label="BUSYBOX_FEATURE_VI_YANKMARK"]
1586[label="TIP_TIP"]
1587[label="FILEUTILS_LN"]
1588[label="IPROUTE2_IP_IP"]
1589[label="RSYSLOG_RSYSLOGD"]
1590[label="NBENCH_NBENCH"]
1591[label="MICROWIN_LINK_APP_INTO_SERVER"]
1592[label="BRCTL_BRCTL"]
1593[label="BUSYBOX_FEATURE_REMOTE_LOG"]
1594[label="E2FSPROGS_MISC_FSCK"]
1595[label="MICROWIN_TPHELIO"]
1596[label="BUSYBOX_LOGNAME"]
1597[label="BUSYBOX_FEATURE_VI_USE_SIGNALS"]
1598[label="BUSYBOX_SUM"]
1599[label="BUSYBOX_FEATURE_PIDOF_SINGLE"]
1600[label="BUSYBOX_FEATURE_CHAT_SWALLOW_OPTS"]
1601[label="LUA"]
1602[label="BUSYBOX_FEATURE_CHAT_NOFAIL"]
1603[label="BUSYBOX_FEATURE_SETCONSOLE_LONG_OPTIONS"]
1604[label="BUSYBOX_FEATURE_BUFFERS_GO_ON_STACK"]
1605[label="BUSYBOX_RENICE"]
1606[label="HD_HD"]
1607[label="Archival Utilities"]
1608[label="BUSYBOX_FEATURE_INIT_COREDUMPS"]
1609[label="PLAY_TONE"]
1610[label="PPPD_WITH_PPPOA"]
1611[label="CRAMFS_CRAMFSCK"]
1612[label="CGIHTML"]
1613[label="SHADOW_GROUPDEL"]
1614[label="BUSYBOX_ASH_GETOPTS"]
1615[label="FLEX"]
1616[label="BUSYBOX_LOADKMAP"]
1617[label="BUSYBOX_UDPSVD"]
1618[label="BUSYBOX_FEATURE_HTTPD_PROXY"]
1619[label="DISTVERSION"]
903->1
1611->2
235->3
1156->4
797->5
514->6
33->7
763->8
944->9
549->10
97->11
99->12
810->13
436->14
1340->15
1009->16
604->17
467->18
797->19
1256->20
235->21
488->22
797->23
957->24
928->25
539->26
903->27
1554->28
436->29
353->30
488->31
525->32
116->33
1176->34
604->35
1304->36
305->37
1115->38
1524->39
436->40
957->41
567->42
436->43
576->44
436->45
1176->46
576->47
538->48
992->49
1607->50
235->51
126->52
235->53
359->54
436->55
294->56
235->57
163->58
181->59
797->60
436->61
163->62
1083->63
126->64
436->65
1256->66
1176->67
181->68
1009->69
436->70
235->71
1000->72
1451->73
308->74
460->75
1524->76
1416->77
1424->78
810->79
1291->80
1607->81
1009->82
797->83
903->84
436->85
1176->86
235->87
1488->88
51->89
928->90
1156->91
590->92
797->93
944->94
235->95
467->96
1607->97
202->98
235->99
1538->100
1527->101
1254->102
252->103
878->104
235->105
1573->106
1009->107
359->108
114->109
436->110
644->111
807->112
1383->113
1104->114
1156->115
51->117
922->118
903->119
193->120
294->121
436->122
72->123
878->124
143->125
1090->126
305->127
1176->128
1157->129
748->130
1565->131
235->132
843->133
235->134
809->135
560->136
72->137
1340->138
1176->139
1444->140
488->141
604->142
1607->143
235->144
810->145
436->146
590->147
872->148
235->149
1573->150
1340->151
1104->152
949->153
998->154
775->155
1263->156
436->157
590->158
748->159
1340->160
477->161
573->162
1601->163
590->164
604->165
1156->166
1009->167
235->168
436->169
305->170
116->171
1027->172
604->173
443->174
352->175
723->176
1340->177
305->178
810->179
835->180
646->181
768->182
1156->183
313->184
604->185
1104->186
928->187
305->188
436->189
1437->190
1190->191
1176->192
116->193
436->194
1105->195
604->196
235->197
843->198
358->199
928->200
235->201
600->202
1127->203
646->204
1340->205
576->206
872->207
488->208
244->209
1156->210
1056->211
1256->212
604->213
1304->214
193->215
235->216
235->217
604->218
202->219
183->220
329->221
946->222
663->223
436->224
235->225
1176->226
235->227
436->228
173->229
604->230
235->231
15->232
51->233
235->234
116->235
1176->236
1009->237
872->238
1340->239
72->240
663->241
235->242
230->243
202->244
1340->245
458->246
235->247
835->248
843->249
235->250
152->251
235->252
1156->253
775->254
928->255
235->256
436->257
33->258
576->259
804->260
604->261
1156->262
1340->263
181->264
352->265
51->266
949->267
488->268
436->269
263->270
1554->271
308->272
420->273
1176->274
1090->275
1501->276
235->277
983->278
1090->279
477->280
235->281
1554->282
797->283
436->284
436->285
170->286
308->287
381->288
872->289
576->290
857->291
604->292
723->293
1156->294
835->295
235->296
235->297
526->298
1433->299
1040->300
235->301
1009->302
1417->303
235->304
202->305
436->306
436->307
116->308
235->309
514->310
436->311
51->312
604->313
1090->314
99->315
604->316
436->317
992->318
843->319
604->320
1156->321
770->322
51->323
1009->324
235->325
810->326
1115->327
436->328
436->329
1150->330
359->331
1176->332
305->333
1304->334
928->335
1383->336
1488->337
514->338
1527->339
235->340
797->341
1009->342
436->343
456->344
1156->345
235->346
477->347
490->348
1009->349
872->350
353->351
116->352
116->353
488->354
235->355
436->356
308->357
646->358
202->359
1176->360
304->361
235->362
252->363
235->364
436->365
576->366
1340->367
993->368
1156->369
436->370
1009->371
1607->372
1150->373
185->374
355->375
436->376
1009->377
1554->378
308->379
1340->380
202->381
604->382
235->383
797->384
1156->385
797->386
1055->387
1083->388
235->389
436->390
359->391
5->392
1009->393
1211->394
763->395
467->396
488->397
1488->398
436->399
1009->400
646->401
1607->402
1488->403
590->404
1607->405
460->406
1411->407
294->408
1176->409
72->410
436->411
892->412
318->413
214->414
305->415
304->416
1607->417
946->418
1003->419
436->420
590->421
1607->422
353->423
235->424
1524->425
1254->426
1542->427
663->428
1156->429
436->430
1009->431
1176->432
810->433
1191->434
1009->435
116->436
1009->437
1240->438
604->439
436->440
663->441
33->442
219->443
1538->444
1009->445
1025->446
308->447
219->448
219->449
436->450
1240->451
235->452
436->453
490->454
1172->455
1304->456
697->457
235->458
576->459
1191->460
1009->461
337->462
1176->463
490->464
697->465
308->466
1176->467
604->468
1176->469
1527->470
1383->471
1416->472
843->473
998->474
526->475
1340->476
305->477
809->478
993->479
1607->480
235->481
604->482
181->483
810->484
436->485
436->486
1083->487
308->488
843->489
202->490
928->491
436->492
51->493
436->494
1398->495
604->496
308->497
235->498
843->499
355->500
903->501
878->502
467->503
878->504
235->505
1254->506
436->507
132->508
72->509
72->510
809->511
436->512
1105->513
235->514
604->515
235->516
305->517
590->518
321->519
262->520
235->521
460->522
384->523
770->524
235->525
33->526
604->527
843->528
436->529
843->530
305->531
797->532
604->533
928->534
1573->535
477->536
590->537
308->538
235->539
835->540
235->541
235->542
797->543
181->544
436->545
1323->546
171->547
235->548
1256->549
294->550
1527->551
928->552
353->553
604->554
1156->555
235->556
436->557
604->558
436->559
1083->560
1176->561
1256->562
1190->563
305->564
235->565
1607->566
305->567
843->568
752->569
1176->570
235->571
235->572
235->573
235->574
244->575
116->576
436->577
235->578
1077->579
920->580
171->581
1176->582
604->583
201->584
1009->585
697->586
235->587
261->588
488->589
1304->590
99->591
797->592
353->593
1457->594
612->595
51->596
928->597
993->598
201->599
116->600
235->601
91->602
878->603
202->604
1457->605
644->606
352->607
305->608
235->609
535->610
235->611
353->612
436->613
949->614
1176->615
436->616
1156->617
204->618
1240->619
252->620
576->621
436->622
928->623
490->624
1156->625
436->626
872->627
763->628
1066->629
436->630
305->631
1291->632
219->633
617->634
235->635
590->636
482->637
308->638
72->639
384->640
1176->641
809->642
235->643
318->644
1527->645
202->646
1176->647
1009->648
72->649
51->650
477->651
235->652
235->653
514->654
235->655
436->656
477->657
1127->658
723->659
604->660
304->661
1156->662
928->663
308->664
1156->665
604->666
490->667
1607->668
604->669
604->670
1156->671
1212->672
235->673
436->674
436->675
797->676
235->677
436->678
436->679
436->680
1176->681
50->682
526->683
843->684
1176->685
617->686
436->687
305->688
51->689
835->690
1134->691
235->692
235->693
1475->694
1077->695
880->696
797->697
1468->698
468->699
490->700
747->701
72->702
810->703
1176->704
928->705
72->706
590->707
843->708
903->709
436->710
1554->711
235->712
436->713
1009->714
1513->715
235->716
949->717
1460->718
1173->719
436->720
331->721
1382->722
172->723
333->724
181->725
235->726
436->727
890->728
604->729
1176->730
872->731
235->732
1538->733
109->734
1009->735
436->736
928->737
235->738
294->739
381->740
353->741
604->742
436->743
604->744
436->745
353->746
604->747
152->748
436->749
235->750
1176->751
333->752
843->753
576->754
1156->755
1578->756
304->757
1607->758
571->759
1191->760
252->761
931->762
202->763
1554->764
1103->765
235->766
171->767
604->768
235->769
1156->770
72->771
436->772
1176->773
353->774
235->775
460->776
1176->777
436->778
436->779
436->780
576->781
436->782
843->783
1156->784
1156->785
590->786
193->787
576->788
1156->789
72->790
982->791
1607->792
1156->793
604->794
1083->795
624->796
202->797
604->798
235->799
1471->800
1176->801
1291->802
903->803
1573->804
436->805
775->806
928->807
1090->808
1009->809
235->810
235->811
576->812
436->813
604->814
1176->815
1047->816
843->817
1047->818
928->819
305->820
152->821
576->822
1371->823
436->824
1083->825
235->826
1176->827
235->828
467->829
1176->830
186->831
604->832
893->833
993->834
1156->835
235->836
576->837
235->838
305->839
604->840
576->841
1176->842
436->843
436->844
235->845
329->846
770->847
1157->848
1152->849
1176->850
436->851
590->852
1340->853
353->854
1607->855
235->856
1293->857
922->858
983->859
809->860
1176->861
304->862
235->863
436->864
436->865
1527->866
72->867
1156->868
894->869
488->870
810->871
235->872
539->873
1543->874
843->875
235->876
526->877
305->878
294->879
1115->880
91->881
1256->882
1103->883
882->884
436->885
488->886
944->887
436->888
1156->889
604->890
235->891
235->892
1573->893
1607->894
1009->895
1176->896
1256->897
235->898
843->899
305->900
1607->901
903->902
359->903
235->904
306->905
436->906
992->907
204->908
436->909
1090->910
1176->911
604->912
1176->913
843->914
928->915
944->916
872->917
1009->918
1071->919
436->920
604->921
1156->922
1607->923
1316->924
983->925
1607->926
111->927
116->928
1176->929
235->930
604->931
604->932
436->933
1554->934
235->935
1150->936
235->937
1176->938
422->939
1115->940
843->941
204->942
1009->943
1000->944
436->945
235->946
477->947
352->948
235->949
1573->950
982->951
235->952
1176->953
1395->954
1123->955
244->956
646->957
1156->958
1149->959
949->960
436->961
1437->962
1083->963
235->964
723->965
1115->966
604->967
305->968
336->969
1304->970
1475->971
878->972
968->973
697->974
436->975
576->976
1524->977
436->978
359->979
384->980
576->981
1291->982
235->983
114->984
526->985
292->986
477->987
477->988
1176->989
436->990
1424->991
202->992
114->993
381->994
72->995
436->996
439->997
202->998
436->999
202->1000
436->1001
1304->1002
252->1003
331->1004
304->1005
1607->1006
235->1007
1456->1008
116->1009
1153->1010
968->1011
604->1012
321->1013
436->1014
1176->1015
436->1016
1156->1017
1304->1018
436->1019
462->1020
304->1021
436->1022
235->1023
567->1024
181->1025
488->1026
1009->1027
617->1028
1340->1029
436->1030
91->1031
843->1032
235->1033
235->1034
775->1035
114->1036
1240->1037
505->1038
1176->1039
1573->1040
1304->1041
576->1042
1176->1043
604->1044
235->1045
74->1046
1607->1047
436->1048
1150->1049
671->1050
956->1051
1127->1052
1190->1053
1423->1054
1513->1055
797->1056
331->1057
1176->1058
1607->1059
1176->1060
436->1061
558->1062
308->1063
604->1064
1083->1065
436->1066
576->1067
72->1068
436->1069
477->1070
305->1071
604->1072
99->1073
1176->1074
1524->1075
235->1076
244->1077
604->1078
193->1079
262->1080
72->1081
590->1082
202->1083
797->1084
526->1085
381->1086
235->1087
752->1088
1066->1089
1156->1090
235->1091
1115->1092
181->1093
436->1094
998->1095
235->1096
576->1097
1176->1098
42->1099
1103->1100
1156->1101
436->1102
1156->1103
202->1104
436->1105
152->1106
436->1107
436->1108
1291->1109
1527->1110
1122->1111
604->1112
384->1113
186->1114
604->1115
928->1116
37->1117
99->1118
1424->1119
72->1120
1056->1121
797->1122
235->1123
514->1124
928->1125
590->1126
1000->1127
1040->1128
436->1129
488->1130
353->1131
1009->1132
1176->1133
1573->1134
235->1135
244->1136
1240->1137
1156->1138
235->1139
576->1140
1009->1141
843->1142
201->1143
526->1144
235->1145
797->1146
1009->1147
235->1148
604->1149
235->1150
928->1151
604->1152
604->1153
1291->1154
1573->1155
202->1156
604->1157
163->1158
436->1159
1009->1160
1340->1161
384->1162
1009->1163
235->1164
172->1165
490->1166
604->1167
353->1168
305->1169
1191->1170
1083->1171
1212->1172
1009->1173
1554->1174
261->1175
116->1176
1040->1177
54->1178
1047->1179
1416->1180
797->1181
1191->1182
1424->1183
1279->1184
436->1185
436->1186
1607->1187
797->1188
1009->1189
436->1190
576->1191
235->1192
235->1193
1047->1194
1212->1195
843->1196
183->1197
99->1198
232->1199
604->1200
1340->1201
235->1202
646->1203
305->1204
436->1205
1176->1206
381->1207
436->1208
181->1209
263->1210
604->1211
116->1212
889->1213
51->1214
381->1215
1293->1216
381->1217
957->1218
576->1219
1156->1220
1573->1221
1340->1222
252->1223
1304->1224
235->1225
235->1226
604->1227
235->1228
477->1229
436->1230
381->1231
604->1232
308->1233
235->1234
358->1235
1460->1236
235->1237
697->1238
624->1239
1304->1240
1009->1241
604->1242
764->1243
1554->1244
1291->1245
1083->1246
1176->1247
235->1248
219->1249
1009->1250
235->1251
244->1252
1256->1253
1156->1254
436->1255
308->1256
436->1257
72->1258
508->1259
576->1260
1488->1261
1607->1262
186->1263
1176->1264
1176->1265
109->1266
436->1267
1150->1268
797->1269
843->1270
1488->1271
878->1272
305->1273
1176->1274
235->1275
912->1276
1176->1277
477->1278
436->1279
843->1280
928->1281
33->1282
252->1283
810->1284
928->1285
946->1286
42->1287
1176->1288
857->1289
436->1290
1156->1291
797->1292
490->1293
1150->1294
1176->1295
1538->1296
539->1297
804->1298
235->1299
181->1300
748->1301
1017->1302
436->1303
235->1304
235->1305
1009->1306
436->1307
163->1308
1190->1309
305->1310
1155->1311
1573->1312
235->1313
181->1314
252->1315
436->1316
436->1317
1176->1318
922->1319
590->1320
1138->1321
252->1322
604->1323
1176->1324
775->1325
318->1326
99->1327
1176->1328
928->1329
436->1330
663->1331
305->1332
235->1333
33->1334
181->1335
576->1336
1240->1337
1573->1338
308->1339
1104->1340
436->1341
1176->1342
903->1343
552->1344
490->1345
1424->1346
296->1347
843->1348
1083->1349
384->1350
797->1351
1176->1352
775->1353
204->1354
1009->1355
235->1356
1424->1357
1263->1358
235->1359
928->1360
1176->1361
436->1362
235->1363
576->1364
752->1365
775->1366
235->1367
1383->1368
1244->1369
235->1370
1291->1371
235->1372
1573->1373
617->1374
1103->1375
72->1376
843->1377
477->1378
1273->1379
436->1380
267->1381
604->1382
219->1383
1497->1384
797->1385
723->1386
604->1387
163->1388
1176->1389
308->1390
436->1391
1009->1392
235->1393
752->1394
1573->1395
1554->1396
436->1397
305->1398
1071->1399
467->1400
872->1401
436->1402
252->1403
617->1404
1176->1405
604->1406
235->1407
436->1408
1373->1409
617->1410
490->1411
488->1412
436->1413
355->1414
1566->1415
797->1416
204->1417
576->1418
1538->1419
436->1420
1103->1421
436->1422
1304->1423
1104->1424
1395->1425
843->1426
1176->1427
436->1428
1176->1429
928->1430
872->1431
252->1432
219->1433
617->1434
1009->1435
1115->1436
1256->1437
843->1438
810->1439
697->1440
1573->1441
903->1442
1009->1443
235->1444
1456->1445
843->1446
1047->1447
436->1448
878->1449
235->1450
604->1451
436->1452
353->1453
949->1454
1176->1455
1156->1456
172->1457
72->1458
436->1459
1181->1460
436->1461
1304->1462
1176->1463
235->1464
576->1465
488->1466
186->1467
305->1468
1176->1469
835->1470
305->1471
663->1472
968->1473
436->1474
202->1475
1256->1476
590->1477
477->1478
436->1479
843->1480
576->1481
458->1482
928->1483
235->1484
1190->1485
443->1486
109->1487
1475->1488
1040->1489
843->1490
235->1491
1372->1492
281->1493
171->1494
526->1495
590->1496
1156->1497
90->1498
1424->1499
33->1500
235->1501
235->1502
604->1503
235->1504
1156->1505
219->1506
1471->1507
604->1508
1340->1509
1190->1510
666->1511
1156->1512
490->1513
235->1514
235->1515
604->1516
539->1517
235->1518
1554->1519
723->1520
604->1521
1176->1522
928->1523
1424->1524
1176->1525
1457->1526
576->1527
752->1528
235->1529
843->1530
604->1531
928->1532
576->1533
235->1534
201->1535
72->1536
235->1537
797->1538
1424->1539
490->1540
1176->1541
1554->1542
235->1543
235->1544
477->1545
163->1546
1156->1547
235->1548
353->1549
1176->1550
1009->1551
539->1552
1044->1553
202->1554
770->1555
235->1556
235->1557
167->1558
1009->1559
797->1560
1083->1561
172->1562
1607->1563
604->1564
235->1565
235->1566
928->1567
477->1568
604->1569
903->1570
604->1571
385->1572
202->1573
1524->1574
1291->1575
1156->1576
1176->1577
436->1578
1574->1579
359->1580
488->1581
957->1582
436->1583
381->1584
903->1585
436->1586
436->1587
304->1588
235->1589
436->1590
1176->1591
235->1592
318->1593
576->1594
1176->1595
604->1596
903->1597
604->1598
1411->1599
1538->1600
171->1601
1538->1602
795->1603
263->1604
490->1605
436->1606
202->1607
1488->1608
436->1609
775->1610
576->1611
33->1612
843->1613
181->1614
1009->1615
1083->1616
1156->1617
1291->1618
116->1619
}
