digraph {
graph [rankdir=TB]
node [shape=box]
1[label="Netburner Products"]
2[label="Freescale Products"]
3[label="HITACHI_KEYWEST"]
4[label="FUTURE"]
5[label="Cirrus Products"]
6[label="FEITH_CLEOPATRA"]
7[label="INSIGHT_XC2V1K_MICROBLAZE"]
8[label="SERRA_MFC3000"]
9[label="TELEIP_RSC"]
10[label="SIGNAL_MCP751"]
11[label="3COM"]
12[label="ARCTURUS"]
13[label="CWLINUX_CWEZ328"]
14[label="INSIGHT_MBVANILLA_NET"]
15[label="FREESCALE_M5206ELITE"]
16[label="ATHEROS"]
17[label="CYBERGUARD_SG810"]
18[label="SECURECOMPUTING_SG630"]
19[label="SECURECOMPUTING_SE5100"]
20[label="MCAFEE_SG580"]
21[label="ARCTURUS_UC5282_XE16C64"]
22[label="MIDAS_RTE_NB85E_CB"]
23[label="SECUREEDGE_SECUREEDGEVPN"]
24[label="SNEHA_CPU16B"]
25[label="SNAPGEAR_LITE300"]
26[label="PHILIPS_LPC2200"]
27[label="uClinux-base"]
28[label="TELEIP"]
29[label="MCAFEE_SG565"]
30[label="XILINX_COMMON"]
31[label="ESPD"]
32[label="SECUREEDGE_SECUREEDGE2580_JFFS"]
33[label="OPENGEAR_SD4002"]
34[label="CYBERGUARD_SG530"]
35[label="CYBERGUARD_SE5000"]
36[label="VENDOR"]
37[label="UNiTAB Products"]
38[label="FREESCALE_M5272C3"]
39[label="FEITH"]
40[label="INTEL_IXDP425"]
41[label="MICREL_KS8695"]
42[label="Conexant Products"]
43[label="SECURECOMPUTING_SE4700"]
44[label="Sony Products"]
45[label="SECURECOMPUTING_SG530"]
46[label="CYBERGUARD_SG550"]
47[label="Apple Products"]
48[label="NEC_V850E_SIM_GDB"]
49[label="SnapGear Products"]
50[label="NXP_LPC28XX"]
51[label="SNEHA Products"]
52[label="WEISS"]
53[label="OPENGEAR_IM42XX"]
54[label="Triscend Products"]
55[label="SECURECOMPUTING_SG300"]
56[label="HITACHI"]
57[label="MCAFEE_SG770"]
58[label="CYBERGUARD_SG580"]
59[label="FREESCALE_M5475EVB"]
60[label="Serra Products"]
61[label="SNAPGEAR_SE2910_INTEL"]
62[label="Arcturus Products"]
63[label="StrawberryLinux Products"]
64[label="INTEL_IXDP2800"]
65[label="MICREL_KSZ9692"]
66[label="Xilinx Products"]
67[label="Hitachi Products"]
68[label="Simtec Products"]
69[label="ATMARKTECHNO_SUZAKU"]
70[label="MECEL"]
71[label="ADI_COYOTE"]
72[label="SNAPGEAR_SME550"]
73[label="SNAPGEAR_SE2900"]
74[label="CyberGuard Products"]
75[label="NXP Products"]
76[label="MCAFEE_SG560D"]
77[label="Feith Products"]
78[label="SECURECOMPUTING"]
79[label="PHILIPS_LPC22XX"]
80[label="TeleIP Products"]
81[label="FREESCALE_M5271EVB"]
82[label="Soekris Products"]
83[label="SECURECOMPUTING_SG310"]
84[label="SONY"]
85[label="Future Products"]
86[label="3COM_XCOPILOT"]
87[label="NINTENDO_GBA"]
88[label="NETBURNER_MOD5272"]
89[label="TI Products"]
90[label="INTEC_WILDFIREMOD"]
91[label="CYTEK_NETMP3"]
92[label="APPLE_IPOD"]
93[label="SECUREEDGE_SECUREEDGE2570"]
94[label="Atheros Products"]
95[label="ACTIONTEC"]
96[label="SAVANT_ROSIE1"]
97[label="ARCTURUS_UC5272_8EE32U66"]
98[label="glibc Library Configuration (if selected)"]
99[label="senTec Products"]
100[label="PROMISE"]
101[label="INTEL_TOLAPAI_EP80579"]
102[label="SECUREEDGE_SECUREEDGENAS"]
103[label="AVNET_AVNET5282"]
104[label="NEC Products"]
105[label="SECUREEDGE_ELIA"]
106[label="SECUREEDGE_SECUREEDGEPCMCIA"]
107[label="SecureComputing Products"]
108[label="SNAPGEAR_PRO"]
109[label="LIBCDIR"]
110[label="FUTURE_FUTURENETBURNER5282BADGE"]
111[label="ETSEC"]
112[label="XILINX"]
113[label="MCAFEE_SG560"]
114[label="LIBC_UC_LIBC"]
115[label="XILINX_UCLINUX_AUTO"]
116[label="2_5"]
117[label="ARCTURUS_UC5272_XEE16U66"]
118[label="OPENGEAR"]
119[label="EXYS_DE2"]
120[label="Insight Products"]
121[label="OPENCORES_OR32"]
122[label="EMAC_SOM5282EM"]
123[label="ARCTURUS_UC5275_16E32U150"]
124[label="ARNEWSH_M5206"]
125[label="MIDAS_RTE_V850E_MA1_CB"]
126[label="ARCTURUS_UCDIMM"]
127[label="SIMTEC_EB675001DIP_SSH"]
128[label="SERRA"]
129[label="MCAFEE_SG310"]
130[label="SECURECOMPUTING_SG575"]
131[label="ETSEC_GATEWAY"]
132[label="ATMARKTECHNO"]
133[label="UNITAB"]
134[label="SENTEC_COBRA5329"]
135[label="NETBURNER"]
136[label="Cogent Products"]
137[label="FREESCALE_M5249C3"]
138[label="Avnet Products"]
139[label="MCAFEE_SG560U_RECOVER"]
140[label="SECURECOMPUTING_AUDIOPHILE"]
141[label="SNAPGEAR_SME575"]
142[label="Philips Products"]
143[label="INSIGHT_XC2VP7_MICROBLAZE"]
144[label="SECURECOMPUTING_SVPN"]
145[label="ETSec Products"]
146[label="SWARM"]
147[label="NetSilicon Products"]
148[label="CONEXANT"]
149[label="3com Products"]
150[label="Vendor"]
151[label="SECURECOMPUTING_SG590"]
152[label="ATMEL"]
153[label="Promise Products"]
154[label="ARCTURUS_UC5272"]
155[label="CYBERGUARD_SG635"]
156[label="CYBERGUARD_SG560"]
157[label="CYBERGUARD_SE5100"]
158[label="SAVANT"]
159[label="LIBC_NONE"]
160[label="Intel Products"]
161[label="Via Products"]
162[label="OPENGEAR_CM4008"]
163[label="PROMISE_SX6"]
164[label="CYBERGUARD_SE4700"]
165[label="HITACHI_EDOSK2674"]
166[label="MCAFEE_SG590"]
167[label="SECURECOMPUTING_SG560"]
168[label="NEC_ANNA"]
169[label="McAfee Products"]
170[label="KERNEL_2_4"]
171[label="ARCTURUS_UC5272_4EE32U66"]
172[label="SSV_DNP5280"]
173[label="Atmel Products"]
174[label="ACTIONTEC_DPCM"]
175[label="NEC_COMMON"]
176[label="SECUREEDGE_NETTEL3540"]
177[label="SNEHA"]
178[label="3COM_PALMIIIX"]
179[label="Intec Products"]
180[label="NETBURNER_MOD5282"]
181[label="ADI Products"]
182[label="SENTEC_COBRA5282"]
183[label="MIDAS_RTE_V850E_ME2_CB"]
184[label="NXP"]
185[label="ESPD_4510B"]
186[label="MCAFEE_AUDIOPHILE"]
187[label="Akizuki Products"]
188[label="TI"]
189[label="EXYS"]
190[label="Weiss Products"]
191[label="ARCTURUS_UC68VZ328_8E8L33"]
192[label="SOEKRIS"]
193[label="MECEL_FR1000"]
194[label="CONEXANT_P52"]
195[label="LEOX_TSIM"]
196[label="MCAFEE_SG8200"]
197[label="SECURECOMPUTING_SG580"]
198[label="HITACHI_BIGSURIV"]
199[label="STRAWBERRYLINUX_H8MAX"]
200[label="ADI"]
201[label="AKIZUKI"]
202[label="SIMTEC_EB675001DIP"]
203[label="SECURECOMPUTING_SE7100"]
204[label="ARCTURUS_UC5272_XEE8U48"]
205[label="ARNEWSH_M5307"]
206[label="SECUREEDGE_NETTEL1500"]
207[label="SNAPGEAR_SE5000"]
208[label="APPLE"]
209[label="ALTERA"]
210[label="Signal Products"]
211[label="SECURECOMPUTING_SE5000"]
212[label="ARCTURUS_UCSIMM"]
213[label="COGENT_CSB337"]
214[label="FEITH_CANCAM"]
215[label="SECUREEDGE_SECUREEDGE2540"]
216[label="TRISCEND_A7DB"]
217[label="FREESCALE_M5282LITE"]
218[label="CYBERGUARD"]
219[label="SECURECOMPUTING_SG550"]
220[label="LEOX"]
221[label="FREESCALE_M5235EVB"]
222[label="FREESCALE_M5275EVB"]
223[label="CYBERGUARD_SG575"]
224[label="Kernel Version"]
225[label="GDB_ARMULATOR"]
226[label="UNITAB_SG310"]
227[label="FREESCALE_M5307C3"]
228[label="SNAPGEAR_SE2910_CF"]
229[label="AVNET"]
230[label="SECURECOMPUTING_SG810"]
231[label="SECURECOMPUTING_SG565"]
232[label="SNAPGEAR_LITE"]
233[label="INSIGHT"]
234[label="CYBERGUARD_SG570"]
235[label="INTEL_IXDPG425"]
236[label="FREESCALE_M5208EVB"]
237[label="ARCTURUS_UC5282_XE16C80"]
238[label="SNAPGEAR_SE2580"]
239[label="Vendor/Product Selection"]
240[label="KERNEL"]
241[label="SNAPGEAR_SE3400"]
242[label="MCAFEE_SG560U"]
243[label="COGENT"]
244[label="MCAFEE_SG640"]
245[label="SECURECOMPUTING_SG720"]
246[label="MIDAS"]
247[label="MICREL"]
248[label="OPENGEAR_IM4004"]
249[label="SECURECOMPUTING_SG640"]
250[label="FREESCALE_M5282EVB"]
251[label="FREESCALE_M5407C3"]
252[label="SNAPGEAR_SE4000"]
253[label="CYBERGUARD_SE4500"]
254[label="MCAFEE_SG720"]
255[label="CIRRUS"]
256[label="INTEL_MONTEJADE"]
257[label="SECURECOMPUTING_SG635"]
258[label="IMT_MWI"]
259[label="KERNEL_2_6"]
260[label="MCAFEE_SG8100"]
261[label="Savant Products"]
262[label="Which glibc version ?"]
263[label="CYBERGUARD_SVPN"]
264[label="ARCTURUS_UCQUICC"]
265[label="NINTENDO"]
266[label="OpenGear Products"]
267[label="Cwlinux Products"]
268[label="CWLINUX_CWVZ328"]
269[label="Micrel Products"]
270[label="LIBC_UCLIBC"]
271[label="Samsung Products"]
272[label="CYBERGUARD_SG565"]
273[label="Actiontec Products"]
274[label="Cytek Products"]
275[label="IMT"]
276[label="Mecel Products"]
277[label="ARCTURUS_UC5272_XEE16U48"]
278[label="VIA"]
279[label="Kernel/Library/Defaults Selection"]
280[label="VIA_EPIA"]
281[label="CYBERGUARD_SE4200"]
282[label="ARCTURUS_UC532X"]
283[label="INTEL"]
284[label="CWLINUX"]
285[label="OVERRIDE"]
286[label="SECURECOMPUTING_SG710"]
287[label="TRISCEND"]
288[label="ATMARKTECHNO_SUZAKU_UQ_XUP"]
289[label="SECURECOMPUTING_SE4200"]
290[label="SECURECOMPUTING_SE4500"]
291[label="VENDOR_UPDATE"]
292[label="ARCTURUS_UC68VZ328_4E8L33"]
293[label="WEISS_SM2010"]
294[label="GDB Products"]
295[label="LEOX Products"]
296[label="NEC"]
297[label="CYBERGUARD_SG710"]
298[label="INTEL_IXDP465"]
299[label="INTEC_WILDFIRE"]
300[label="STRAWBERRYLINUX"]
301[label="SecureEdge Products"]
302[label="FREESCALE"]
303[label="OPENGEAR_CM41XX"]
304[label="SECUREEDGE_SECUREEDGEEDNA"]
305[label="SECURECOMPUTING_SE5100_FLASH"]
306[label="CYBERGUARD_SG300"]
307[label="Midas Products"]
308[label="CYBERGUARD_SE7100"]
309[label="LIBC_GLIBC"]
310[label="OPENcores Products"]
311[label="Altera Products"]
312[label="Exys Products"]
313[label="SNAPGEAR"]
314[label="SAMSUNG_4510B"]
315[label="ARCTURUS_UC5272_XEE8U66"]
316[label="PRODUCT"]
317[label="PHILIPS_LPC2294"]
318[label="ATMEL_AT91"]
319[label="SNAPGEAR_SME570"]
320[label="GDB"]
321[label="ARCTURUS_UCDIMM_MTD"]
322[label="SWARM_SWARM"]
323[label="TI_VC547X"]
324[label="LINUXDIR"]
325[label="FEITH_CLEOPATRA2"]
326[label="SNAPGEAR_SOHO"]
327[label="FREESCALE_M5329EVB"]
328[label="SECURECOMPUTING_SG560U"]
329[label="SAMSUNG"]
330[label="SECURECOMPUTING_SG570"]
331[label="NETBURNER_CFV240"]
332[label="ARNEWSH"]
333[label="SSV"]
334[label="Arnewsh Products"]
335[label="GDB_SKYEYE"]
336[label="Libc Version"]
337[label="TRISCEND_DEVA7"]
338[label="ARCTURUS_UCTI5471_XE8D50"]
339[label="2_3_6"]
340[label="SNAPGEAR_SE2580_JFFS"]
341[label="SECURECOMPUTING_SG8100"]
342[label="TI_DM270"]
343[label="INTEC"]
344[label="SECUREEDGE_SECUREEDGE2580"]
345[label="SECUREEDGE_MP3"]
346[label="CYBERGUARD_SG630"]
347[label="EMAC Products"]
348[label="SOEKRIS_NET4801"]
349[label="ESPD Products"]
350[label="EMAC"]
351[label="SONY_CLIE"]
352[label="SECUREEDGE_SECUREEDGE1100"]
353[label="MCAFEE"]
354[label="NETSILICON_NET_ARM"]
355[label="FREESCALE_M5206EC3"]
356[label="SENTEC_COBRA5272"]
357[label="SECURECOMPUTING_SG560D"]
358[label="SECUREEDGE"]
359[label="SECUREEDGE_DISKTEL"]
360[label="Imt Products"]
361[label="NETSILICON"]
362[label="Nintendo Products"]
363[label="SIMTEC"]
364[label="SNAPGEAR_SME530"]
365[label="KERNEL_2_0"]
366[label="CIRRUS_EDB9312"]
367[label="SWARM Products"]
368[label="AtmarkTechno Products"]
369[label="OPENCORES"]
370[label="SENTEC"]
371[label="ALTERA_NIOS2NOMMU"]
372[label="SSV Products"]
373[label="ATHEROS_PB42"]
374[label="PHILIPS"]
375[label="CYTEK"]
376[label="VENDOR"]
377[label="GDB_ARMULATOR_EB"]
378[label="CONEXANT_HUMBER"]
379[label="SIGNAL"]
380[label="XILINX_ML401"]
381[label="AKIZUKI_AE3068"]
382[label="DISTVERSION"]
383[label="FEITH_SCALES"]
239->1
239->2
67->3
150->4
239->5
77->6
120->7
60->8
80->9
210->10
150->11
150->12
267->13
120->14
2->15
150->16
74->17
107->18
107->19
169->20
62->21
307->22
301->23
51->24
49->25
142->26
150->28
169->29
66->30
150->31
301->32
266->33
74->34
74->35
239->36
239->37
2->38
150->39
160->40
269->41
239->42
107->43
239->44
107->45
74->46
239->47
104->48
239->49
75->50
239->51
150->52
266->53
239->54
107->55
150->56
169->57
74->58
2->59
239->60
49->61
239->62
239->63
160->64
269->65
239->66
239->67
239->68
368->69
150->70
181->71
49->72
49->73
239->74
239->75
169->76
239->77
150->78
142->79
239->80
2->81
239->82
107->83
150->84
239->85
149->86
362->87
1->88
239->89
179->90
274->91
47->92
301->93
239->94
150->95
261->96
62->97
279->98
239->99
150->100
160->101
301->102
138->103
239->104
301->105
301->106
239->107
49->108
279->109
85->110
150->111
150->112
169->113
336->114
66->115
262->116
62->117
150->118
312->119
239->120
310->121
347->122
62->123
334->124
307->125
62->126
68->127
150->128
169->129
107->130
145->131
150->132
150->133
99->134
150->135
239->136
2->137
239->138
169->139
107->140
49->141
239->142
120->143
107->144
239->145
150->146
239->147
150->148
239->149
239->150
107->151
150->152
239->153
62->154
74->155
74->156
74->157
150->158
336->159
239->160
239->161
266->162
153->163
74->164
67->165
169->166
107->167
104->168
239->169
224->170
62->171
372->172
239->173
273->174
104->175
301->176
150->177
149->178
239->179
1->180
239->181
99->182
307->183
150->184
349->185
169->186
239->187
150->188
150->189
239->190
62->191
150->192
276->193
42->194
295->195
169->196
107->197
67->198
63->199
150->200
150->201
68->202
107->203
62->204
334->205
301->206
49->207
150->208
150->209
239->210
107->211
62->212
136->213
77->214
301->215
54->216
2->217
150->218
107->219
150->220
2->221
2->222
74->223
279->224
294->225
37->226
2->227
49->228
150->229
107->230
107->231
49->232
150->233
74->234
160->235
2->236
62->237
49->238
27->239
279->240
49->241
169->242
150->243
169->244
107->245
150->246
150->247
266->248
107->249
2->250
2->251
49->252
74->253
169->254
150->255
160->256
107->257
360->258
224->259
169->260
239->261
98->262
74->263
62->264
150->265
239->266
239->267
267->268
239->269
336->270
239->271
74->272
239->273
239->274
150->275
239->276
62->277
150->278
27->279
161->280
74->281
62->282
150->283
150->284
279->285
107->286
150->287
368->288
107->289
107->290
279->291
62->292
190->293
239->294
239->295
150->296
74->297
160->298
179->299
150->300
239->301
150->302
266->303
301->304
107->305
74->306
239->307
74->308
336->309
239->310
239->311
239->312
150->313
271->314
62->315
27->316
142->317
173->318
49->319
150->320
62->321
367->322
89->323
279->324
77->325
49->326
2->327
107->328
150->329
107->330
1->331
150->332
150->333
239->334
294->335
279->336
54->337
62->338
262->339
49->340
107->341
89->342
150->343
301->344
301->345
74->346
239->347
82->348
239->349
150->350
44->351
301->352
150->353
147->354
2->355
99->356
107->357
150->358
301->359
239->360
150->361
239->362
150->363
49->364
224->365
5->366
239->367
239->368
150->369
150->370
311->371
239->372
94->373
150->374
150->375
279->376
294->377
42->378
150->379
66->380
187->381
27->382
77->383
}
